<?xml version="1.0" encoding="utf-8"?>
<!-- Generator: Adobe Illustrator 16.0.0, SVG Export Plug-In . SVG Version: 6.00 Build 0)  -->
<!DOCTYPE svg PUBLIC "-//W3C//DTD SVG 1.1//EN" "http://www.w3.org/Graphics/SVG/1.1/DTD/svg11.dtd">
<svg version="1.1" id="Layer_1" xmlns="http://www.w3.org/2000/svg" xmlns:xlink="http://www.w3.org/1999/xlink" x="0px" y="0px"
	 width="612px" height="448.973px" viewBox="0 0 612 448.973" enable-background="new 0 0 612 448.973" xml:space="preserve">
<g>
	<g>
		<g>
			<g opacity="0.24">
				<path d="M557.659,119.377c-1.858,12.142-3.722,26.336-5.58,42.588c-3.722,32.606-5.58,59.378-5.58,80.334
					c0,20.949,4.405,43.321,13.217,67.113c4.308,11.941,8.663,21.733,13.069,29.371c20.657,15.858,30.743,30.645,30.253,44.349
					c-0.491,11.654-8.469,21.69-23.938,30.105c-13.511,7.343-30.3,12.388-50.372,15.127c-19.188,2.642-35.588,2.45-49.196-0.588
					c-13.607-3.129-34.413-4.259-62.413-3.373c-31.132,0.979-52.72,0.68-64.763-0.886c-13.022-0.979-28.54-1.658-46.553-2.051
					c-36.125-0.789-66.769,0.295-91.93,3.232c-56.393,7.44-99.274,14.539-128.646,21.294c-29.371,6.657-50.665,3.769-63.881-8.665
					c-15.763-14.979-20.462-43.91-14.098-86.791c2.057-9.398,4.112-20.949,6.168-34.656c4.111-27.317,6.168-51.454,6.168-72.4
					l0.292-123.212c-1.371-45.129,5.874-77.193,21.736-96.189C56.202,6.555,77.249,0.928,104.761,7.192
					c11.748,2.645,31.426,9.847,59.034,21.595c24.869,10.573,45.034,16.834,60.504,18.79l40.973,1.612
					c31.229,0.583,56.735-0.341,76.511-2.788c58.447-7.443,104.413-14.987,137.896-22.616c29.273-6.66,50.518-3.723,63.734,8.811
					C559.275,47.565,564.023,76.497,557.659,119.377z"/>
			</g>
			<g id="XMLID_1_">
				<path fill="#9EFFC5" d="M600.249,143.176c-3.915,31.915-5.874,58.102-5.874,78.567c0,20.462,2.153,44.056,6.461,70.783
					c2.149,13.412,4.31,24.722,6.459,33.926c6.662,41.999,1.766,70.298-14.686,84.88c-13.802,12.238-36.076,15.121-66.818,8.665
					c-34.264-7.248-79.104-14.198-134.515-20.858c-13.611-0.98-29.865-1.66-48.759-2.057c-37.694-0.782-69.706,0.247-96.043,3.09
					c-57.567,7.147-102.408,14.097-134.518,20.852c-30.643,6.56-52.868,3.726-66.672-8.516
					c-16.544-14.591-21.488-42.883-14.832-84.877c2.153-9.204,4.308-20.511,6.461-33.923c4.307-26.732,6.462-50.323,6.462-70.788
					c0-20.56-1.909-46.752-5.728-78.567c-1.959-15.959-3.916-29.864-5.875-41.708c-6.654-42-1.709-70.295,14.836-84.883
					C60.317,5.523,82.539,2.638,113.281,9.097c35.342,7.44,83.414,14.783,144.211,22.028l42.881,1.618
					c32.602,0.585,59.232-0.295,79.89-2.642c60.794-7.248,108.865-14.591,144.209-22.028c30.646-6.56,52.918-3.729,66.818,8.513
					c16.448,14.591,21.345,42.886,14.686,84.88C604.017,113.314,602.111,127.217,600.249,143.176z"/>
				
					<linearGradient id="SVGID_1_" gradientUnits="userSpaceOnUse" x1="9845.1523" y1="39026.1172" x2="10435.9609" y2="39026.1172" gradientTransform="matrix(-0.5447 0.8386 -0.8386 -0.5447 38588.3203 12951.8135)">
					<stop  offset="0" style="stop-color:#FFFFFF"/>
					<stop  offset="1" style="stop-color:#FFFFFF;stop-opacity:0"/>
				</linearGradient>
				<path fill="url(#SVGID_1_)" d="M603.187,133.777c-3.722,29.468-5.577,53.699-5.577,72.692c0,18.991,2.052,40.875,6.167,65.643
					c2.053,12.336,4.112,22.762,6.168,31.281c6.364,38.864,1.662,65.105-14.098,78.713c-13.021,11.261-34.171,13.902-63.444,7.931
					c-31.424-6.56-74.063-13.024-127.906-19.39c-12.924-0.883-28.344-1.518-46.259-1.904c-35.836-0.686-66.282,0.293-91.347,2.938
					c-53.845,6.364-96.483,12.823-127.911,19.383c-29.176,5.975-50.32,3.333-63.44-7.928
					c-15.764-13.609-20.463-39.843-14.099-78.716c2.057-8.51,4.111-18.941,6.168-31.272c4.112-24.776,6.168-46.655,6.168-65.651
					c0-18.991-1.813-43.221-5.434-72.692l-5.58-38.475c-6.365-38.868-1.665-65.106,14.097-78.713
					C89.884,6.355,110.981,3.71,140.156,9.685c32.601,6.755,78.323,13.61,137.161,20.56l40.679,1.468
					c31.035,0.588,56.395-0.244,76.069-2.501c58.84-6.947,104.514-13.799,137.015-20.56c29.275-5.969,50.418-3.33,63.441,7.928
					c15.764,13.613,20.464,39.849,14.102,78.716C606.761,106.268,604.952,119.091,603.187,133.777z"/>
			</g>
		</g>
	</g>
</g>
<g>
	<g>
		<path fill="#76BB92" d="M358.238,181.503c0,0.186-0.092,0.339-0.279,0.463c-2.534,0.618-6.276,1.253-11.227,1.902
			c-0.247,0-0.371-0.062-0.371-0.186c-0.124-0.526-0.362-1.531-0.716-3.016c-0.358-1.485-0.598-2.474-0.722-2.969
			c-0.681-3.124-1.469-6.201-2.366-9.232c0-0.186-0.124-0.278-0.372-0.278c-7.049,0.495-11.364,0.835-12.941,1.021
			c-0.124,0.093-0.186,0.17-0.186,0.232c-1.021,2.072-2.691,6.665-5.011,13.779c-0.154,0.124-0.323,0.185-0.511,0.185
			c-0.555-0.124-2.057-0.456-4.498-0.997c-2.445-0.542-4.332-0.982-5.661-1.322c-0.062,0-0.123-0.046-0.187-0.139
			c-0.03-0.063-0.045-0.108-0.045-0.14c0-0.062,0.015-0.124,0.045-0.186c2.785-6.186,7.014-15.185,12.69-27
			c5.675-11.815,9.903-20.831,12.688-27.047c0.124-0.216,0.23-0.325,0.323-0.325c0.094,0,0.17,0.108,0.232,0.325
			c3.803,9.618,7.313,19.408,10.531,29.367c0.648,1.886,1.956,5.807,3.922,11.761C355.539,173.654,357.095,178.255,358.238,181.503z
			 M340.934,160.486c-0.371-1.453-0.902-3.371-1.598-5.752c-0.697-2.382-1.216-4.098-1.556-5.149
			c-0.063-0.217-0.17-0.326-0.325-0.326c-0.154,0-0.263,0.108-0.325,0.326c-0.309,0.804-1.02,2.489-2.133,5.057
			c-1.113,2.567-1.979,4.639-2.599,6.217c-0.03,0.062-0.046,0.124-0.046,0.186c0,0.03,0.016,0.077,0.046,0.139
			c0.031,0.062,0.079,0.093,0.14,0.093c0.03,0,0.077-0.016,0.139-0.046c3.743-0.186,6.401-0.309,7.979-0.371
			c0.218,0,0.326-0.062,0.326-0.186C340.981,160.61,340.965,160.549,340.934,160.486z"/>
		<path fill="#76BB92" d="M169.235,243.718c0,5.382-1.454,9.858-4.361,13.431c-2.908,3.572-7.021,5.359-12.341,5.359
			c-3.495,0-6.355-0.604-8.583-1.811c-0.062-0.03-0.124-0.046-0.186-0.046c-0.186,0-0.278,0.155-0.278,0.464v1.159
			c0,2.815-0.186,6.62-0.557,11.414c-0.433,5.474-0.851,9.417-1.253,11.83c0,0.185-0.123,0.277-0.371,0.277
			c-0.958-0.184-2.272-0.503-3.943-0.95c-1.67-0.449-2.922-0.766-3.757-0.951c-0.187,0-0.279-0.092-0.279-0.279
			c0.463-6.339,0.696-13.81,0.696-22.406c0-1.918-0.015-3.883-0.046-5.893c0-20.352,0.062-33.094,0.185-38.228
			c0-0.186,0.14-0.279,0.417-0.279c4.546,0.124,7.81,0.186,9.789,0.186c0.247,0,0.371,0.14,0.371,0.418
			c-0.31,4.794-0.51,8.243-0.604,10.346c0,0.217,0.094,0.324,0.279,0.324c0.062,0,0.139-0.015,0.231-0.045
			c2.537-1.393,5.475-2.089,8.815-2.089c4.886,0,8.737,1.756,11.551,5.266C167.828,234.726,169.235,238.894,169.235,243.718z
			 M159.261,244.368c0-2.476-0.665-4.609-1.995-6.403c-1.33-1.793-3.139-2.69-5.428-2.69c-3.588,0-6.077,1.252-7.469,3.758
			l-0.232,0.881c-0.247,5.259-0.371,8.104-0.371,8.537c0.062,1.453,0.952,2.628,2.668,3.526c1.716,0.896,3.424,1.345,5.126,1.345
			c2.412,0,4.299-0.89,5.66-2.668S159.261,246.779,159.261,244.368z"/>
		<path fill="#76BB92" d="M202.777,225.486c-0.186,1.267-0.549,3.069-1.09,5.404c-0.541,2.335-0.875,3.827-0.998,4.478
			c0,0.123-0.063,0.216-0.186,0.277c-0.031,0.03-0.078,0.047-0.14,0.047c-0.062,0-0.108-0.047-0.139-0.14
			c-2.474-1.577-4.856-2.365-7.145-2.365c-2.474,0-4.376,1.283-5.707,3.851c-0.062,0.154-0.092,0.479-0.092,0.973
			c0.123,1.64,0.363,3.79,0.718,6.449c0.356,2.66,0.766,5.622,1.229,8.885c0.464,3.264,0.804,5.621,1.021,7.074
			c0.031,0.063,0.047,0.124,0.047,0.187c0,0.124-0.124,0.185-0.371,0.185c-1.175,0.217-2.861,0.496-5.057,0.836
			c-2.196,0.34-3.897,0.634-5.103,0.882c-0.248,0-0.372-0.125-0.372-0.371c-1.516-24.249-2.273-36.48-2.273-36.697
			c0-0.187,0.093-0.31,0.278-0.371c0.588-0.187,2.675-0.619,6.263-1.3c0.278,0,0.417,0.094,0.417,0.279l0.649,3.804
			c0.093,0.187,0.201,0.278,0.325,0.278c0.062,0,0.139-0.03,0.231-0.092c1.207-1.269,2.776-2.298,4.71-3.086
			c1.933-0.789,3.78-1.184,5.544-1.184c2.289,0,4.639,0.433,7.051,1.3C202.715,225.068,202.777,225.207,202.777,225.486z"/>
		<path fill="#76BB92" d="M240.263,243.812c0,2.968-0.526,5.829-1.578,8.582c-1.051,2.752-2.907,5.195-5.567,7.329
			c-2.661,2.135-5.892,3.201-9.696,3.201c-2.784,0-5.281-0.703-7.493-2.11c-2.211-1.407-3.92-3.2-5.127-5.381
			c-1.206-2.182-2.11-4.394-2.714-6.635c-0.602-2.242-0.904-4.415-0.904-6.518c0-2.846,0.587-5.761,1.762-8.745
			c1.176-2.985,3.093-5.629,5.753-7.934c2.66-2.304,5.752-3.457,9.278-3.457c2.475,0,4.679,0.487,6.611,1.462
			c1.933,0.974,3.487,2.242,4.663,3.803c1.175,1.563,2.157,3.341,2.946,5.336c0.789,1.994,1.331,3.896,1.624,5.706
			C240.115,240.262,240.263,242.048,240.263,243.812z M230.845,242.743c0-2.535-0.573-5.002-1.717-7.398
			c-1.145-2.397-2.985-3.597-5.521-3.597c-1.701,0-3.078,0.681-4.129,2.042c-1.051,1.361-1.717,2.736-1.994,4.129
			c-0.279,1.393-0.418,2.783-0.418,4.175c0,1.207,0.016,2.188,0.046,2.946c0.031,0.759,0.186,1.786,0.463,3.086
			c0.279,1.298,0.658,2.342,1.137,3.13c0.479,0.79,1.23,1.5,2.25,2.135c1.021,0.635,2.258,0.952,3.712,0.952
			c1.639,0,2.954-0.79,3.943-2.366c0.989-1.577,1.608-3.146,1.855-4.71C230.721,245.705,230.845,244.197,230.845,242.743z"/>
		<path fill="#76BB92" d="M284.429,243.718c0,5.382-1.454,9.858-4.362,13.431c-2.906,3.572-7.021,5.359-12.34,5.359
			c-3.495,0-6.355-0.604-8.582-1.811c-0.063-0.03-0.125-0.046-0.186-0.046c-0.186,0-0.278,0.155-0.278,0.464v1.159
			c0,2.815-0.186,6.62-0.557,11.414c-0.433,5.474-0.851,9.417-1.252,11.83c0,0.185-0.124,0.277-0.371,0.277
			c-0.959-0.184-2.272-0.503-3.943-0.95c-1.671-0.449-2.923-0.766-3.757-0.951c-0.186,0-0.28-0.092-0.28-0.279
			c0.465-6.339,0.697-13.81,0.697-22.406c0-1.918-0.015-3.883-0.046-5.893c0-20.352,0.061-33.094,0.185-38.228
			c0-0.186,0.139-0.279,0.417-0.279c4.546,0.124,7.81,0.186,9.79,0.186c0.248,0,0.371,0.14,0.371,0.418
			c-0.31,4.794-0.51,8.243-0.603,10.346c0,0.217,0.093,0.324,0.278,0.324c0.063,0,0.139-0.015,0.232-0.045
			c2.536-1.393,5.475-2.089,8.815-2.089c4.886,0,8.738,1.756,11.551,5.266C283.021,234.726,284.429,238.894,284.429,243.718z
			 M274.454,244.368c0-2.476-0.666-4.609-1.995-6.403c-1.33-1.793-3.14-2.69-5.428-2.69c-3.588,0-6.078,1.252-7.47,3.758
			l-0.232,0.881c-0.248,5.259-0.371,8.104-0.371,8.537c0.061,1.453,0.95,2.628,2.667,3.526c1.717,0.896,3.425,1.345,5.126,1.345
			c2.413,0,4.299-0.89,5.66-2.668C273.773,248.875,274.454,246.779,274.454,244.368z"/>
		<path fill="#76BB92" d="M323.955,243.812c0,2.968-0.526,5.829-1.577,8.582c-1.051,2.752-2.907,5.195-5.568,7.329
			c-2.659,2.135-5.89,3.201-9.694,3.201c-2.784,0-5.282-0.703-7.494-2.11c-2.209-1.407-3.919-3.2-5.125-5.381
			c-1.206-2.182-2.11-4.394-2.713-6.635c-0.604-2.242-0.905-4.415-0.905-6.518c0-2.846,0.588-5.761,1.762-8.745
			c1.176-2.985,3.093-5.629,5.753-7.934c2.66-2.304,5.753-3.457,9.278-3.457c2.475,0,4.679,0.487,6.61,1.462
			c1.935,0.974,3.488,2.242,4.664,3.803c1.175,1.563,2.157,3.341,2.945,5.336c0.79,1.994,1.33,3.896,1.623,5.706
			C323.809,240.262,323.955,242.048,323.955,243.812z M314.538,242.743c0-2.535-0.573-5.002-1.718-7.398
			c-1.144-2.397-2.983-3.597-5.521-3.597c-1.701,0-3.078,0.681-4.128,2.042c-1.053,1.361-1.717,2.736-1.995,4.129
			c-0.279,1.393-0.418,2.783-0.418,4.175c0,1.207,0.016,2.188,0.047,2.946c0.03,0.759,0.186,1.786,0.463,3.086
			c0.279,1.298,0.657,2.342,1.137,3.13c0.479,0.79,1.23,1.5,2.251,2.135c1.02,0.635,2.257,0.952,3.711,0.952
			c1.639,0,2.954-0.79,3.943-2.366c0.989-1.577,1.608-3.146,1.856-4.71C314.413,245.705,314.538,244.197,314.538,242.743z"/>
		<path fill="#76BB92" d="M358.238,252.439c0,3.619-1.709,6.41-5.124,8.374c-3.42,1.965-7.155,2.946-11.206,2.946
			c-4.637,0-8.411-1.083-11.319-3.247c-0.092-0.094-0.139-0.171-0.139-0.232c0-0.063,0.016-0.108,0.047-0.139
			c0.309-0.896,0.779-2.181,1.414-3.85c0.635-1.672,1.106-2.925,1.414-3.759c0.063-0.125,0.141-0.186,0.233-0.186
			s0.186,0.03,0.279,0.092c3.988,2.166,6.957,3.248,8.905,3.248c1.269,0,2.474-0.316,3.618-0.951s1.717-1.615,1.717-2.946
			c0-1.144-0.51-2.095-1.531-2.853c-1.02-0.759-2.543-1.454-4.566-2.088c-2.028-0.634-3.103-0.982-3.227-1.044
			c-2.07-0.959-3.68-2.42-4.824-4.384s-1.715-4.153-1.715-6.565c0-3.649,1.406-6.618,4.221-8.907
			c2.813-2.288,6.153-3.433,10.02-3.433c3.495,0,6.852,1.021,10.067,3.062c0.061,0.062,0.093,0.216,0.093,0.464
			c-0.371,0.836-0.968,2.058-1.784,3.665c-0.822,1.608-1.464,2.83-1.929,3.665c-0.123,0.123-0.215,0.187-0.277,0.187
			c-0.062,0-0.124-0.031-0.186-0.093c-2.412-1.269-4.407-1.902-5.984-1.902c-1.207,0-2.359,0.363-3.455,1.09
			c-1.1,0.727-1.647,1.631-1.647,2.715c0,1.824,0.617,3.093,1.854,3.803c0.278,0.125,1.872,0.883,4.778,2.273
			c1.64,0.742,2.902,1.339,3.784,1.786c0.882,0.449,1.908,1.113,3.082,1.995c1.176,0.882,2.033,1.925,2.577,3.131
			C357.968,249.563,358.238,250.924,358.238,252.439z"/>
		<path fill="#76BB92" d="M377.909,212.356c0,1.825-0.681,3.386-2.041,4.686c-1.36,1.299-2.953,1.948-4.779,1.948
			c-1.577,0-2.953-0.727-4.128-2.181c-1.177-1.453-1.765-2.969-1.765-4.546c0-1.639,0.635-3.093,1.903-4.36
			c1.268-1.269,2.723-1.902,4.36-1.902c1.578,0,3.048,0.665,4.408,1.995C377.229,209.326,377.909,210.778,377.909,212.356z
			 M378.883,225.3c-0.371,10.825-0.788,23.104-1.252,36.837c0,0.185-0.093,0.277-0.278,0.277c-0.959,0.063-2.479,0.139-4.567,0.231
			c-2.088,0.094-3.474,0.188-4.155,0.278c-0.247,0-0.371-0.108-0.371-0.324c-0.093-0.805-0.138-1.994-0.138-3.571l-0.094-2.088
			c0-1.484-0.031-3.41-0.093-5.777c-0.062-2.365-0.14-4.925-0.231-7.678c-0.093-2.751-0.171-5.744-0.232-8.976
			c-0.063-3.233-0.123-6.147-0.186-8.745c0-0.248,0.123-0.371,0.371-0.371c1.33-0.063,3.324-0.094,5.984-0.094
			c0.587-0.093,1.4-0.17,2.438-0.231c1.033-0.062,1.846-0.093,2.433-0.093c0.063-0.032,0.123-0.047,0.187-0.047
			C378.822,224.929,378.883,225.052,378.883,225.3z"/>
		<path fill="#76BB92" d="M414.096,234.95c0,0.216-0.094,0.324-0.278,0.324c-0.959,0.186-2.305,0.278-4.036,0.278
			c-1.732,0-3.016,0.063-3.851,0.187c-0.311,0.062-0.464,0.371-0.464,0.927c0.186,3.186,0.434,7.973,0.742,14.358
			c0.31,6.387,0.541,10.539,0.696,12.457c0,0.248-0.108,0.371-0.325,0.371c-3.65,0.495-6.65,0.851-9,1.067h-0.094
			c-0.308,0-0.462-0.325-0.462-0.974c0-0.248-0.018-0.813-0.048-1.695c-0.031-0.881-0.046-1.367-0.046-1.461
			c0-1.762-0.295-9.572-0.882-23.428c0-0.217-0.123-0.324-0.371-0.324c-1.206,0.092-2.868,0.263-4.985,0.51
			c-2.121,0.247-3.413,0.402-3.875,0.463c-0.063,0.032-0.124,0.047-0.187,0.047c-0.123,0-0.185-0.107-0.185-0.324
			c-0.063-0.897-0.14-2.281-0.232-4.151c-0.094-1.872-0.171-3.24-0.232-4.106c0-0.279,0.094-0.418,0.278-0.418
			c1.02-0.186,2.513-0.386,4.479-0.604c1.962-0.216,3.454-0.416,4.475-0.603c0.185,0,0.278-0.123,0.278-0.371
			c-0.123-2.474-0.299-5.645-0.53-9.511c-0.233-3.866-0.414-6.912-0.537-9.139c0-0.186,0.063-0.279,0.186-0.279
			c4.113-1.391,7.825-2.474,11.135-3.247c0.062-0.031,0.123-0.046,0.186-0.046c0.124,0,0.186,0.123,0.186,0.371
			c-0.433,6.588-0.649,13.516-0.649,20.784c0,0.248,0.093,0.371,0.278,0.371c0.959,0,3.587-0.154,7.886-0.464
			c0.063-0.03,0.124-0.047,0.187-0.047c0.124,0,0.185,0.108,0.185,0.326c0,0.123,0.017,0.851,0.048,2.181
			c0.03,1.329,0.046,2.505,0.046,3.525V234.95z"/>
		<path fill="#76BB92" d="M452.742,243.812c0,2.968-0.527,5.829-1.578,8.582c-1.053,2.752-2.908,5.195-5.567,7.329
			c-2.66,2.135-5.893,3.201-9.696,3.201c-2.784,0-5.28-0.703-7.489-2.11c-2.215-1.407-3.924-3.2-5.129-5.381
			c-1.207-2.182-2.108-4.394-2.712-6.635c-0.604-2.242-0.908-4.415-0.908-6.518c0-2.846,0.589-5.761,1.764-8.745
			c1.175-2.985,3.093-5.629,5.752-7.934c2.661-2.304,5.754-3.457,9.28-3.457c2.475,0,4.678,0.487,6.613,1.462
			c1.929,0.974,3.483,2.242,4.659,3.803c1.177,1.563,2.16,3.341,2.949,5.336c0.788,1.994,1.326,3.896,1.622,5.706
			C452.594,240.262,452.742,242.048,452.742,243.812z M443.322,242.743c0-2.535-0.57-5.002-1.716-7.398
			c-1.144-2.397-2.984-3.597-5.521-3.597c-1.7,0-3.077,0.681-4.128,2.042c-1.052,1.361-1.717,2.736-1.994,4.129
			c-0.278,1.393-0.419,2.783-0.419,4.175c0,1.207,0.017,2.188,0.047,2.946c0.03,0.759,0.185,1.786,0.465,3.086
			c0.278,1.298,0.655,2.342,1.139,3.13c0.476,0.79,1.227,1.5,2.247,2.135s2.258,0.952,3.711,0.952c1.64,0,2.954-0.79,3.943-2.366
			c0.99-1.577,1.609-3.146,1.855-4.71C443.199,245.705,443.322,244.197,443.322,242.743z"/>
		<path fill="#76BB92" d="M515.649,239.913c0,2.66-0.021,5.46-0.066,8.397c-0.046,2.939-0.103,6.232-0.165,9.882
			c-0.062,3.65-0.093,6.448-0.093,8.396c0,0.218-0.124,0.326-0.372,0.326c-0.742-0.154-1.955-0.341-3.639-0.558
			c-1.688-0.217-2.917-0.356-3.69-0.417c-0.185,0-0.278-0.094-0.278-0.278c-0.187-1.021-0.341-2.985-0.464-5.892
			c0-0.217-0.077-0.325-0.232-0.325c-0.061,0-0.139,0.015-0.232,0.047c-3.37,1.452-6.387,2.18-9.046,2.18
			c-4.484,0-8.011-1.523-10.577-4.569c-2.568-3.047-3.852-6.719-3.852-11.019c0-4.887,1.524-9.132,4.572-12.734
			c3.044-3.604,7.351-5.405,12.919-5.405c1.021,0,2.535,0.124,4.546,0.371c0.062,0.031,0.125,0.047,0.186,0.047
			c0.063,0,0.108-0.016,0.139-0.047c0.063-0.031,0.093-0.077,0.093-0.139c0-0.031-0.015-0.077-0.046-0.139
			c-0.063-0.836-0.17-2.677-0.325-5.522c-0.154-2.845-0.292-4.871-0.417-6.078c-0.186-1.453-0.472-3.618-0.855-6.495
			c-0.39-2.876-0.676-5.056-0.86-6.541c0-0.248,0.123-0.371,0.371-0.371l11.134,0.602c0.186,0,0.278,0.094,0.278,0.279
			C515.325,213.964,515.649,225.966,515.649,239.913z M506.511,251.142c0.029-0.774,0.046-1.609,0.046-2.507
			c0-2.782-0.14-6.231-0.417-10.345v-0.186c-1.454-1.578-3.201-2.365-5.243-2.365c-2.659,0-4.624,0.936-5.892,2.806
			c-1.268,1.871-1.902,4.168-1.902,6.89c0,5.134,2.474,7.701,7.422,7.701c2.228,0,4.191-0.573,5.893-1.717L506.511,251.142z"/>
		<path fill="#76BB92" d="M537.084,212.356c0,1.825-0.681,3.386-2.043,4.686c-1.358,1.299-2.952,1.948-4.777,1.948
			c-1.577,0-2.953-0.727-4.13-2.181c-1.175-1.453-1.763-2.969-1.763-4.546c0-1.639,0.634-3.093,1.902-4.36
			c1.269-1.269,2.721-1.902,4.361-1.902c1.578,0,3.048,0.665,4.406,1.995C536.403,209.326,537.084,210.778,537.084,212.356z
			 M538.058,225.3c-0.371,10.825-0.788,23.104-1.253,36.837c0,0.185-0.092,0.277-0.277,0.277c-0.959,0.063-2.48,0.139-4.567,0.231
			c-2.088,0.094-3.475,0.188-4.155,0.278c-0.247,0-0.371-0.108-0.371-0.324c-0.093-0.805-0.139-1.994-0.139-3.571l-0.093-2.088
			c0-1.484-0.031-3.41-0.094-5.777c-0.061-2.365-0.139-4.925-0.232-7.678c-0.091-2.751-0.169-5.744-0.231-8.976
			c-0.062-3.233-0.124-6.147-0.185-8.745c0-0.248,0.123-0.371,0.371-0.371c1.33-0.063,3.324-0.094,5.983-0.094
			c0.588-0.093,1.399-0.17,2.439-0.231c1.032-0.062,1.845-0.093,2.433-0.093c0.063-0.032,0.123-0.047,0.186-0.047
			C537.996,224.929,538.058,225.052,538.058,225.3z"/>
	</g>
	<g>
		<path fill="none" stroke="#231F20" stroke-width="3" d="M358.238,181.503c0,0.186-0.092,0.339-0.279,0.463
			c-2.534,0.618-6.276,1.253-11.227,1.902c-0.247,0-0.371-0.062-0.371-0.186c-0.124-0.526-0.362-1.531-0.716-3.016
			c-0.358-1.485-0.598-2.474-0.722-2.969c-0.681-3.124-1.469-6.201-2.366-9.232c0-0.186-0.124-0.278-0.372-0.278
			c-7.049,0.495-11.364,0.835-12.941,1.021c-0.124,0.093-0.186,0.17-0.186,0.232c-1.021,2.072-2.691,6.665-5.011,13.779
			c-0.154,0.124-0.323,0.185-0.511,0.185c-0.555-0.124-2.057-0.456-4.498-0.997c-2.445-0.542-4.332-0.982-5.661-1.322
			c-0.062,0-0.123-0.046-0.187-0.139c-0.03-0.063-0.045-0.108-0.045-0.14c0-0.062,0.015-0.124,0.045-0.186
			c2.785-6.186,7.014-15.185,12.69-27c5.675-11.815,9.903-20.831,12.688-27.047c0.124-0.216,0.23-0.325,0.323-0.325
			c0.094,0,0.17,0.108,0.232,0.325c3.803,9.618,7.313,19.408,10.531,29.367c0.648,1.886,1.956,5.807,3.922,11.761
			C355.539,173.654,357.095,178.255,358.238,181.503z M340.934,160.486c-0.371-1.453-0.902-3.371-1.598-5.752
			c-0.697-2.382-1.216-4.098-1.556-5.149c-0.063-0.217-0.17-0.326-0.325-0.326c-0.154,0-0.263,0.108-0.325,0.326
			c-0.309,0.804-1.02,2.489-2.133,5.057c-1.113,2.567-1.979,4.639-2.599,6.217c-0.03,0.062-0.046,0.124-0.046,0.186
			c0,0.03,0.016,0.077,0.046,0.139c0.031,0.062,0.079,0.093,0.14,0.093c0.03,0,0.077-0.016,0.139-0.046
			c3.743-0.186,6.401-0.309,7.979-0.371c0.218,0,0.326-0.062,0.326-0.186C340.981,160.61,340.965,160.549,340.934,160.486z"/>
		<path fill="none" stroke="#231F20" stroke-width="3" d="M169.235,243.718c0,5.382-1.454,9.858-4.361,13.431
			c-2.908,3.572-7.021,5.359-12.341,5.359c-3.495,0-6.355-0.604-8.583-1.811c-0.062-0.03-0.124-0.046-0.186-0.046
			c-0.186,0-0.278,0.155-0.278,0.464v1.159c0,2.815-0.186,6.62-0.557,11.414c-0.433,5.474-0.851,9.417-1.253,11.83
			c0,0.185-0.123,0.277-0.371,0.277c-0.958-0.184-2.272-0.503-3.943-0.95c-1.67-0.449-2.922-0.766-3.757-0.951
			c-0.187,0-0.279-0.092-0.279-0.279c0.463-6.339,0.696-13.81,0.696-22.406c0-1.918-0.015-3.883-0.046-5.893
			c0-20.352,0.062-33.094,0.185-38.228c0-0.186,0.14-0.279,0.417-0.279c4.546,0.124,7.81,0.186,9.789,0.186
			c0.247,0,0.371,0.14,0.371,0.418c-0.31,4.794-0.51,8.243-0.604,10.346c0,0.217,0.094,0.324,0.279,0.324
			c0.062,0,0.139-0.015,0.231-0.045c2.537-1.393,5.475-2.089,8.815-2.089c4.886,0,8.737,1.756,11.551,5.266
			C167.828,234.726,169.235,238.894,169.235,243.718z M159.261,244.368c0-2.476-0.665-4.609-1.995-6.403
			c-1.33-1.793-3.139-2.69-5.428-2.69c-3.588,0-6.077,1.252-7.469,3.758l-0.232,0.881c-0.247,5.259-0.371,8.104-0.371,8.537
			c0.062,1.453,0.952,2.628,2.668,3.526c1.716,0.896,3.424,1.345,5.126,1.345c2.412,0,4.299-0.89,5.66-2.668
			S159.261,246.779,159.261,244.368z"/>
		<path fill="none" stroke="#231F20" stroke-width="3" d="M202.777,225.486c-0.186,1.267-0.549,3.069-1.09,5.404
			c-0.541,2.335-0.875,3.827-0.998,4.478c0,0.123-0.063,0.216-0.186,0.277c-0.031,0.03-0.078,0.047-0.14,0.047
			c-0.062,0-0.108-0.047-0.139-0.14c-2.474-1.577-4.856-2.365-7.145-2.365c-2.474,0-4.376,1.283-5.707,3.851
			c-0.062,0.154-0.092,0.479-0.092,0.973c0.123,1.64,0.363,3.79,0.718,6.449c0.356,2.66,0.766,5.622,1.229,8.885
			c0.464,3.264,0.804,5.621,1.021,7.074c0.031,0.063,0.047,0.124,0.047,0.187c0,0.124-0.124,0.185-0.371,0.185
			c-1.175,0.217-2.861,0.496-5.057,0.836c-2.196,0.34-3.897,0.634-5.103,0.882c-0.248,0-0.372-0.125-0.372-0.371
			c-1.516-24.249-2.273-36.48-2.273-36.697c0-0.187,0.093-0.31,0.278-0.371c0.588-0.187,2.675-0.619,6.263-1.3
			c0.278,0,0.417,0.094,0.417,0.279l0.649,3.804c0.093,0.187,0.201,0.278,0.325,0.278c0.062,0,0.139-0.03,0.231-0.092
			c1.207-1.269,2.776-2.298,4.71-3.086c1.933-0.789,3.78-1.184,5.544-1.184c2.289,0,4.639,0.433,7.051,1.3
			C202.715,225.068,202.777,225.207,202.777,225.486z"/>
		<path fill="none" stroke="#231F20" stroke-width="3" d="M240.263,243.812c0,2.968-0.526,5.829-1.578,8.582
			c-1.051,2.752-2.907,5.195-5.567,7.329c-2.661,2.135-5.892,3.201-9.696,3.201c-2.784,0-5.281-0.703-7.493-2.11
			c-2.211-1.407-3.92-3.2-5.127-5.381c-1.206-2.182-2.11-4.394-2.714-6.635c-0.602-2.242-0.904-4.415-0.904-6.518
			c0-2.846,0.587-5.761,1.762-8.745c1.176-2.985,3.093-5.629,5.753-7.934c2.66-2.304,5.752-3.457,9.278-3.457
			c2.475,0,4.679,0.487,6.611,1.462c1.933,0.974,3.487,2.242,4.663,3.803c1.175,1.563,2.157,3.341,2.946,5.336
			c0.789,1.994,1.331,3.896,1.624,5.706C240.115,240.262,240.263,242.048,240.263,243.812z M230.845,242.743
			c0-2.535-0.573-5.002-1.717-7.398c-1.145-2.397-2.985-3.597-5.521-3.597c-1.701,0-3.078,0.681-4.129,2.042
			c-1.051,1.361-1.717,2.736-1.994,4.129c-0.279,1.393-0.418,2.783-0.418,4.175c0,1.207,0.016,2.188,0.046,2.946
			c0.031,0.759,0.186,1.786,0.463,3.086c0.279,1.298,0.658,2.342,1.137,3.13c0.479,0.79,1.23,1.5,2.25,2.135
			c1.021,0.635,2.258,0.952,3.712,0.952c1.639,0,2.954-0.79,3.943-2.366c0.989-1.577,1.608-3.146,1.855-4.71
			C230.721,245.705,230.845,244.197,230.845,242.743z"/>
		<path fill="none" stroke="#231F20" stroke-width="3" d="M284.429,243.718c0,5.382-1.454,9.858-4.362,13.431
			c-2.906,3.572-7.021,5.359-12.34,5.359c-3.495,0-6.355-0.604-8.582-1.811c-0.063-0.03-0.125-0.046-0.186-0.046
			c-0.186,0-0.278,0.155-0.278,0.464v1.159c0,2.815-0.186,6.62-0.557,11.414c-0.433,5.474-0.851,9.417-1.252,11.83
			c0,0.185-0.124,0.277-0.371,0.277c-0.959-0.184-2.272-0.503-3.943-0.95c-1.671-0.449-2.923-0.766-3.757-0.951
			c-0.186,0-0.28-0.092-0.28-0.279c0.465-6.339,0.697-13.81,0.697-22.406c0-1.918-0.015-3.883-0.046-5.893
			c0-20.352,0.061-33.094,0.185-38.228c0-0.186,0.139-0.279,0.417-0.279c4.546,0.124,7.81,0.186,9.79,0.186
			c0.248,0,0.371,0.14,0.371,0.418c-0.31,4.794-0.51,8.243-0.603,10.346c0,0.217,0.093,0.324,0.278,0.324
			c0.063,0,0.139-0.015,0.232-0.045c2.536-1.393,5.475-2.089,8.815-2.089c4.886,0,8.738,1.756,11.551,5.266
			C283.021,234.726,284.429,238.894,284.429,243.718z M274.454,244.368c0-2.476-0.666-4.609-1.995-6.403
			c-1.33-1.793-3.14-2.69-5.428-2.69c-3.588,0-6.078,1.252-7.47,3.758l-0.232,0.881c-0.248,5.259-0.371,8.104-0.371,8.537
			c0.061,1.453,0.95,2.628,2.667,3.526c1.717,0.896,3.425,1.345,5.126,1.345c2.413,0,4.299-0.89,5.66-2.668
			C273.773,248.875,274.454,246.779,274.454,244.368z"/>
		<path fill="none" stroke="#231F20" stroke-width="3" d="M323.955,243.812c0,2.968-0.526,5.829-1.577,8.582
			c-1.051,2.752-2.907,5.195-5.568,7.329c-2.659,2.135-5.89,3.201-9.694,3.201c-2.784,0-5.282-0.703-7.494-2.11
			c-2.209-1.407-3.919-3.2-5.125-5.381c-1.206-2.182-2.11-4.394-2.713-6.635c-0.604-2.242-0.905-4.415-0.905-6.518
			c0-2.846,0.588-5.761,1.762-8.745c1.176-2.985,3.093-5.629,5.753-7.934c2.66-2.304,5.753-3.457,9.278-3.457
			c2.475,0,4.679,0.487,6.61,1.462c1.935,0.974,3.488,2.242,4.664,3.803c1.175,1.563,2.157,3.341,2.945,5.336
			c0.79,1.994,1.33,3.896,1.623,5.706C323.809,240.262,323.955,242.048,323.955,243.812z M314.538,242.743
			c0-2.535-0.573-5.002-1.718-7.398c-1.144-2.397-2.983-3.597-5.521-3.597c-1.701,0-3.078,0.681-4.128,2.042
			c-1.053,1.361-1.717,2.736-1.995,4.129c-0.279,1.393-0.418,2.783-0.418,4.175c0,1.207,0.016,2.188,0.047,2.946
			c0.03,0.759,0.186,1.786,0.463,3.086c0.279,1.298,0.657,2.342,1.137,3.13c0.479,0.79,1.23,1.5,2.251,2.135
			c1.02,0.635,2.257,0.952,3.711,0.952c1.639,0,2.954-0.79,3.943-2.366c0.989-1.577,1.608-3.146,1.856-4.71
			C314.413,245.705,314.538,244.197,314.538,242.743z"/>
		<path fill="none" stroke="#231F20" stroke-width="3" d="M358.238,252.439c0,3.619-1.709,6.41-5.124,8.374
			c-3.42,1.965-7.155,2.946-11.206,2.946c-4.637,0-8.411-1.083-11.319-3.247c-0.092-0.094-0.139-0.171-0.139-0.232
			c0-0.063,0.016-0.108,0.047-0.139c0.309-0.896,0.779-2.181,1.414-3.85c0.635-1.672,1.106-2.925,1.414-3.759
			c0.063-0.125,0.141-0.186,0.233-0.186s0.186,0.03,0.279,0.092c3.988,2.166,6.957,3.248,8.905,3.248
			c1.269,0,2.474-0.316,3.618-0.951s1.717-1.615,1.717-2.946c0-1.144-0.51-2.095-1.531-2.853c-1.02-0.759-2.543-1.454-4.566-2.088
			c-2.028-0.634-3.103-0.982-3.227-1.044c-2.07-0.959-3.68-2.42-4.824-4.384s-1.715-4.153-1.715-6.565
			c0-3.649,1.406-6.618,4.221-8.907c2.813-2.288,6.153-3.433,10.02-3.433c3.495,0,6.852,1.021,10.067,3.062
			c0.061,0.062,0.093,0.216,0.093,0.464c-0.371,0.836-0.968,2.058-1.784,3.665c-0.822,1.608-1.464,2.83-1.929,3.665
			c-0.123,0.123-0.215,0.187-0.277,0.187c-0.062,0-0.124-0.031-0.186-0.093c-2.412-1.269-4.407-1.902-5.984-1.902
			c-1.207,0-2.359,0.363-3.455,1.09c-1.1,0.727-1.647,1.631-1.647,2.715c0,1.824,0.617,3.093,1.854,3.803
			c0.278,0.125,1.872,0.883,4.778,2.273c1.64,0.742,2.902,1.339,3.784,1.786c0.882,0.449,1.908,1.113,3.082,1.995
			c1.176,0.882,2.033,1.925,2.577,3.131C357.968,249.563,358.238,250.924,358.238,252.439z"/>
		<path fill="none" stroke="#231F20" stroke-width="3" d="M377.909,212.356c0,1.825-0.681,3.386-2.041,4.686
			c-1.36,1.299-2.953,1.948-4.779,1.948c-1.577,0-2.953-0.727-4.128-2.181c-1.177-1.453-1.765-2.969-1.765-4.546
			c0-1.639,0.635-3.093,1.903-4.36c1.268-1.269,2.723-1.902,4.36-1.902c1.578,0,3.048,0.665,4.408,1.995
			C377.229,209.326,377.909,210.778,377.909,212.356z M378.883,225.3c-0.371,10.825-0.788,23.104-1.252,36.837
			c0,0.185-0.093,0.277-0.278,0.277c-0.959,0.063-2.479,0.139-4.567,0.231c-2.088,0.094-3.474,0.188-4.155,0.278
			c-0.247,0-0.371-0.108-0.371-0.324c-0.093-0.805-0.138-1.994-0.138-3.571l-0.094-2.088c0-1.484-0.031-3.41-0.093-5.777
			c-0.062-2.365-0.14-4.925-0.231-7.678c-0.093-2.751-0.171-5.744-0.232-8.976c-0.063-3.233-0.123-6.147-0.186-8.745
			c0-0.248,0.123-0.371,0.371-0.371c1.33-0.063,3.324-0.094,5.984-0.094c0.587-0.093,1.4-0.17,2.438-0.231
			c1.033-0.062,1.846-0.093,2.433-0.093c0.063-0.032,0.123-0.047,0.187-0.047C378.822,224.929,378.883,225.052,378.883,225.3z"/>
		<path fill="none" stroke="#231F20" stroke-width="3" d="M414.096,234.95c0,0.216-0.094,0.324-0.278,0.324
			c-0.959,0.186-2.305,0.278-4.036,0.278c-1.732,0-3.016,0.063-3.851,0.187c-0.311,0.062-0.464,0.371-0.464,0.927
			c0.186,3.186,0.434,7.973,0.742,14.358c0.31,6.387,0.541,10.539,0.696,12.457c0,0.248-0.108,0.371-0.325,0.371
			c-3.65,0.495-6.65,0.851-9,1.067h-0.094c-0.308,0-0.462-0.325-0.462-0.974c0-0.248-0.018-0.813-0.048-1.695
			c-0.031-0.881-0.046-1.367-0.046-1.461c0-1.762-0.295-9.572-0.882-23.428c0-0.217-0.123-0.324-0.371-0.324
			c-1.206,0.092-2.868,0.263-4.985,0.51c-2.121,0.247-3.413,0.402-3.875,0.463c-0.063,0.032-0.124,0.047-0.187,0.047
			c-0.123,0-0.185-0.107-0.185-0.324c-0.063-0.897-0.14-2.281-0.232-4.151c-0.094-1.872-0.171-3.24-0.232-4.106
			c0-0.279,0.094-0.418,0.278-0.418c1.02-0.186,2.513-0.386,4.479-0.604c1.962-0.216,3.454-0.416,4.475-0.603
			c0.185,0,0.278-0.123,0.278-0.371c-0.123-2.474-0.299-5.645-0.53-9.511c-0.233-3.866-0.414-6.912-0.537-9.139
			c0-0.186,0.063-0.279,0.186-0.279c4.113-1.391,7.825-2.474,11.135-3.247c0.062-0.031,0.123-0.046,0.186-0.046
			c0.124,0,0.186,0.123,0.186,0.371c-0.433,6.588-0.649,13.516-0.649,20.784c0,0.248,0.093,0.371,0.278,0.371
			c0.959,0,3.587-0.154,7.886-0.464c0.063-0.03,0.124-0.047,0.187-0.047c0.124,0,0.185,0.108,0.185,0.326
			c0,0.123,0.017,0.851,0.048,2.181c0.03,1.329,0.046,2.505,0.046,3.525V234.95z"/>
		<path fill="none" stroke="#231F20" stroke-width="3" d="M452.742,243.812c0,2.968-0.527,5.829-1.578,8.582
			c-1.053,2.752-2.908,5.195-5.567,7.329c-2.66,2.135-5.893,3.201-9.696,3.201c-2.784,0-5.28-0.703-7.489-2.11
			c-2.215-1.407-3.924-3.2-5.129-5.381c-1.207-2.182-2.108-4.394-2.712-6.635c-0.604-2.242-0.908-4.415-0.908-6.518
			c0-2.846,0.589-5.761,1.764-8.745c1.175-2.985,3.093-5.629,5.752-7.934c2.661-2.304,5.754-3.457,9.28-3.457
			c2.475,0,4.678,0.487,6.613,1.462c1.929,0.974,3.483,2.242,4.659,3.803c1.177,1.563,2.16,3.341,2.949,5.336
			c0.788,1.994,1.326,3.896,1.622,5.706C452.594,240.262,452.742,242.048,452.742,243.812z M443.322,242.743
			c0-2.535-0.57-5.002-1.716-7.398c-1.144-2.397-2.984-3.597-5.521-3.597c-1.7,0-3.077,0.681-4.128,2.042
			c-1.052,1.361-1.717,2.736-1.994,4.129c-0.278,1.393-0.419,2.783-0.419,4.175c0,1.207,0.017,2.188,0.047,2.946
			c0.03,0.759,0.185,1.786,0.465,3.086c0.278,1.298,0.655,2.342,1.139,3.13c0.476,0.79,1.227,1.5,2.247,2.135
			s2.258,0.952,3.711,0.952c1.64,0,2.954-0.79,3.943-2.366c0.99-1.577,1.609-3.146,1.855-4.71
			C443.199,245.705,443.322,244.197,443.322,242.743z"/>
		<path fill="none" stroke="#231F20" stroke-width="3" d="M515.649,239.913c0,2.66-0.021,5.46-0.066,8.397
			c-0.046,2.939-0.103,6.232-0.165,9.882c-0.062,3.65-0.093,6.448-0.093,8.396c0,0.218-0.124,0.326-0.372,0.326
			c-0.742-0.154-1.955-0.341-3.639-0.558c-1.688-0.217-2.917-0.356-3.69-0.417c-0.185,0-0.278-0.094-0.278-0.278
			c-0.187-1.021-0.341-2.985-0.464-5.892c0-0.217-0.077-0.325-0.232-0.325c-0.061,0-0.139,0.015-0.232,0.047
			c-3.37,1.452-6.387,2.18-9.046,2.18c-4.484,0-8.011-1.523-10.577-4.569c-2.568-3.047-3.852-6.719-3.852-11.019
			c0-4.887,1.524-9.132,4.572-12.734c3.044-3.604,7.351-5.405,12.919-5.405c1.021,0,2.535,0.124,4.546,0.371
			c0.062,0.031,0.125,0.047,0.186,0.047c0.063,0,0.108-0.016,0.139-0.047c0.063-0.031,0.093-0.077,0.093-0.139
			c0-0.031-0.015-0.077-0.046-0.139c-0.063-0.836-0.17-2.677-0.325-5.522c-0.154-2.845-0.292-4.871-0.417-6.078
			c-0.186-1.453-0.472-3.618-0.855-6.495c-0.39-2.876-0.676-5.056-0.86-6.541c0-0.248,0.123-0.371,0.371-0.371l11.134,0.602
			c0.186,0,0.278,0.094,0.278,0.279C515.325,213.964,515.649,225.966,515.649,239.913z M506.511,251.142
			c0.029-0.774,0.046-1.609,0.046-2.507c0-2.782-0.14-6.231-0.417-10.345v-0.186c-1.454-1.578-3.201-2.365-5.243-2.365
			c-2.659,0-4.624,0.936-5.892,2.806c-1.268,1.871-1.902,4.168-1.902,6.89c0,5.134,2.474,7.701,7.422,7.701
			c2.228,0,4.191-0.573,5.893-1.717L506.511,251.142z"/>
		<path fill="none" stroke="#231F20" stroke-width="3" d="M537.084,212.356c0,1.825-0.681,3.386-2.043,4.686
			c-1.358,1.299-2.952,1.948-4.777,1.948c-1.577,0-2.953-0.727-4.13-2.181c-1.175-1.453-1.763-2.969-1.763-4.546
			c0-1.639,0.634-3.093,1.902-4.36c1.269-1.269,2.721-1.902,4.361-1.902c1.578,0,3.048,0.665,4.406,1.995
			C536.403,209.326,537.084,210.778,537.084,212.356z M538.058,225.3c-0.371,10.825-0.788,23.104-1.253,36.837
			c0,0.185-0.092,0.277-0.277,0.277c-0.959,0.063-2.48,0.139-4.567,0.231c-2.088,0.094-3.475,0.188-4.155,0.278
			c-0.247,0-0.371-0.108-0.371-0.324c-0.093-0.805-0.139-1.994-0.139-3.571l-0.093-2.088c0-1.484-0.031-3.41-0.094-5.777
			c-0.061-2.365-0.139-4.925-0.232-7.678c-0.091-2.751-0.169-5.744-0.231-8.976c-0.062-3.233-0.124-6.147-0.185-8.745
			c0-0.248,0.123-0.371,0.371-0.371c1.33-0.063,3.324-0.094,5.983-0.094c0.588-0.093,1.399-0.17,2.439-0.231
			c1.032-0.062,1.845-0.093,2.433-0.093c0.063-0.032,0.123-0.047,0.186-0.047C537.996,224.929,538.058,225.052,538.058,225.3z"/>
	</g>
</g>
</svg>
