<?xml version="1.0" encoding="utf-8"?>
<!-- Generator: Adobe Illustrator 16.0.0, SVG Export Plug-In . SVG Version: 6.00 Build 0)  -->
<!DOCTYPE svg PUBLIC "-//W3C//DTD SVG 1.1//EN" "http://www.w3.org/Graphics/SVG/1.1/DTD/svg11.dtd">
<svg version="1.1" id="Layer_1" xmlns="http://www.w3.org/2000/svg" xmlns:xlink="http://www.w3.org/1999/xlink" x="0px" y="0px"
	 width="612px" height="448.973px" viewBox="0 0 612 448.973" style="enable-background:new 0 0 612 448.973;" xml:space="preserve"
	>
<symbol  id="GuideButtonEN" viewBox="0.024 -142.919 199.21 142.938">
	<path style="fill-rule:evenodd;clip-rule:evenodd;fill:#9EFFC5;" d="M195-47.15c-1.333-10.867-2-19.783-2-26.75s0.733-15,2.2-24.1
		c0.732-4.566,1.467-8.417,2.199-11.551c2.268-14.299,0.601-23.933-5-28.899c-4.699-4.167-12.283-5.149-22.75-2.95
		c-11.666,2.467-26.933,4.834-45.799,7.1c-4.634,0.334-10.168,0.567-16.601,0.701c-12.833,0.266-23.733-0.084-32.7-1.051
		c-19.6-2.434-34.867-4.8-45.8-7.1c-10.433-2.233-18-1.268-22.7,2.9c-5.633,4.967-7.316,14.6-5.05,28.899
		c0.733,3.134,1.467,6.983,2.2,11.55c1.466,9.1,2.2,17.133,2.2,24.1c0,7-0.65,15.918-1.95,26.75c-0.667,5.434-1.333,10.168-2,14.201
		C-0.817-19.051,0.867-9.417,6.5-4.45c4.667,4.167,12.233,5.149,22.7,2.95C41.233-4.033,57.6-6.533,78.3-9l14.6-0.551
		c11.1-0.199,20.167,0.101,27.201,0.9c20.699,2.467,37.066,4.967,49.1,7.5c10.434,2.233,18.017,1.268,22.75-2.9
		c5.6-4.967,7.267-14.6,5-28.899C196.283-36.983,195.634-41.717,195-47.15z"/>
	
		<linearGradient id="SVGID_1_" gradientUnits="userSpaceOnUse" x1="5595.9341" y1="-18453.1094" x2="5797.0781" y2="-18453.1094" gradientTransform="matrix(-0.5447 -0.8386 0.8386 -0.5447 18683.3906 -5340.3101)">
		<stop  offset="0" style="stop-color:#FFFFFF"/>
		<stop  offset="1" style="stop-color:#FFFFFF;stop-opacity:0"/>
	</linearGradient>
	<path style="fill-rule:evenodd;clip-rule:evenodd;fill:url(#SVGID_1_);" d="M196-43.95c-1.267-10.033-1.899-18.283-1.899-24.75
		c0-6.466,0.699-13.917,2.1-22.35c0.699-4.2,1.4-7.75,2.1-10.65c2.167-13.233,0.566-22.167-4.8-26.8
		c-4.433-3.834-11.634-4.733-21.601-2.7c-10.699,2.233-25.217,4.434-43.549,6.601c-4.4,0.3-9.65,0.516-15.75,0.649
		c-12.201,0.233-22.567-0.1-31.101-1c-18.333-2.167-32.85-4.366-43.55-6.6c-9.934-2.034-17.133-1.134-21.6,2.7
		c-5.367,4.633-6.967,13.566-4.8,26.8c0.7,2.899,1.4,6.45,2.1,10.649c1.4,8.434,2.1,15.884,2.1,22.351
		c0,6.466-0.617,14.716-1.85,24.75L12-31.2C9.833-17.967,11.433-9.033,16.8-4.4c4.434,3.834,11.617,4.734,21.55,2.7
		c11.1-2.3,26.667-4.634,46.7-7l13.85-0.5c10.567-0.2,19.201,0.083,25.9,0.851c20.033,2.366,35.584,4.699,46.65,7
		c9.967,2.033,17.166,1.133,21.6-2.7c5.367-4.634,6.967-13.567,4.801-26.8C197.217-34.584,196.601-38.95,196-43.95z"/>
	<g>
		<g>
			<path style="fill:#76BB92;" d="M68.419-56.883c-0.365,0.365-2.487,0.742-6.367,1.133c-1.979,0.025-3.62-0.299-4.922-0.977
				l-2.539-1.289c-0.781-0.547-1.615-1.51-2.5-2.891c-0.677-1.016-1.068-1.861-1.172-2.539c-0.052-0.756-0.117-1.523-0.195-2.305
				c-0.078-0.572-0.117-1.158-0.117-1.758c0-0.807,0.234-2.266,0.703-4.375c0.208-0.963,0.989-2.252,2.344-3.867
				c1.692-2.058,3.698-3.269,6.016-3.633c0.234,0.391,0.481,1.263,0.742,2.617c0.052,0.338,0.078,0.664,0.078,0.977
				c0,0.911-0.248,1.771-0.742,2.578l-2.578,0.273v4.883c2.396,0.26,4.688,0.377,6.875,0.352c2.188-0.053,4.414-0.078,6.68-0.078
				c0.547-0.625,0.755-1.498,0.625-2.617c-0.078-0.729-0.117-1.42-0.117-2.07c0-0.391,0.013-0.781,0.039-1.172
				c-0.287-0.521-0.716-0.781-1.289-0.781c-0.208,0-0.501,0.059-0.879,0.176c-0.378,0.117-0.658,0.176-0.84,0.176
				c-0.599,0-0.873-0.482-0.82-1.445l-0.43-11.406c-1.484-0.287-2.93-0.43-4.336-0.43c-5.781,0-10.912,2.174-15.391,6.523
				c-2.109,2.656-3.49,5.742-4.141,9.258c-0.287,1.432-0.43,2.826-0.43,4.18c0,2.135,0.338,4.18,1.016,6.133
				c0.859,2.525,2.513,5.117,4.961,7.773c2.292,2.475,4.883,4.127,7.773,4.961c0.442,0.025,1.328,0.195,2.656,0.508
				c1.12,0.26,2.148,0.365,3.086,0.313c2.266-0.131,4.739-0.508,7.422-1.133L68.419-56.883z"/>
			<path style="fill:#76BB92;" d="M91.935-60.242c0.521-2.943,1.094-5.898,1.719-8.867c0.469-2.188,0.703-4.414,0.703-6.68
				c0-0.808-0.039-1.641-0.117-2.5l0.195-0.156c-0.183-0.156-0.287-0.352-0.313-0.586c-0.052-0.391-0.091-0.625-0.117-0.703
				c-0.026-0.156-0.104-0.358-0.234-0.605c-0.13-0.248-0.195-0.424-0.195-0.527c0-0.156,0.078-0.313,0.234-0.469h-0.391
				c-0.547-1.85-1.836-3.334-3.867-4.453c-1.641-0.912-3.594-1.523-5.859-1.836c-2.761-0.13-4.753,0.599-5.977,2.188
				c-1.042,1.797-1.875,3.984-2.5,6.563c-0.13,0.469-0.599,2.786-1.406,6.953c-0.391,2.006-0.547,3.58-0.469,4.727
				c1.927,0.756,4.114,1.225,6.563,1.406c0.234-2.396,0.469-4.779,0.703-7.148c0.391-2.761,1.028-5.039,1.914-6.836
				c0.833-1.25,1.667-1.875,2.5-1.875c1.276,0,2.109,0.469,2.5,1.406c0.078,0.885,0.234,1.705,0.469,2.461
				c0.208,0.625,0.234,1.471,0.078,2.539c-0.443,2.838-0.886,5.078-1.328,6.719c-0.599,2.188-1.146,4.4-1.641,6.641l2.969,1.055
				c0.963,0.338,1.953,0.703,2.969,1.094C91.688-59.734,91.987-59.904,91.935-60.242z"/>
			<path style="fill:#76BB92;" d="M106.856-57.742c0.287-0.313,0.43-0.625,0.43-0.938c0-0.494-0.352-0.977-1.055-1.445
				c-1.197-0.781-2.317-1.42-3.359-1.914c-1.041-0.26-2.174-0.391-3.398-0.391c-1.197,0.025-2.252,0.17-3.164,0.43
				c-0.938,0.391-1.51,0.951-1.719,1.68c-0.286,0.912-0.051,1.705,0.703,2.383c0.6,0.547,1.394,0.938,2.383,1.172
				c1.146,0.287,2.253,0.572,3.32,0.859C102.69-55.775,104.644-56.389,106.856-57.742z M105.216-64.461
				c0.156-1.793,0.234-3.588,0.234-5.381c0-1.014-0.078-2.528-0.234-4.543s-0.234-3.529-0.234-4.543c0-2.6,0.313-5.212,0.938-7.838
				c-1.51-0.026-2.955-0.183-4.336-0.469c-0.911-0.209-1.836-0.313-2.773-0.313c-0.494,0-0.989,0.026-1.484,0.078
				c0.026,1.04,0.039,2.08,0.039,3.12c0,2.808-0.117,5.537-0.352,8.188c-0.364,3.639-0.494,7.369-0.391,11.191L105.216-64.461z"/>
			<path style="fill:#76BB92;" d="M127.95-63.172c0.026,0,0.065-0.014,0.117-0.039c-0.025-0.078,0.014-0.131,0.117-0.156
				c1.85-1.119,3.262-2.578,4.238-4.375s1.4-3.764,1.27-5.898c-0.208-2.995-1.354-5.664-3.438-8.008
				c-1.719-1.928-3.997-3.75-6.836-5.469c-0.338-0.287-0.82-0.572-1.445-0.859c-0.755-0.338-1.263-0.586-1.523-0.742
				c-2.344-1.041-4.283-1.744-5.82-2.109c-1.119-0.26-2.239-0.481-3.359-0.664c-0.208,0-0.338,0.078-0.391,0.234
				c-0.052,0.287-0.104,0.456-0.156,0.508c-0.104,0.756-0.26,1.472-0.469,2.148c-0.26,0.912-0.391,1.992-0.391,3.242
				c0.053,0,0.678,0.052,1.875,0.156c0.756,0.078,1.354,0.247,1.797,0.508c-0.104,3.203-0.299,6.172-0.586,8.906
				c-0.338,3.334-0.572,6.615-0.703,9.844c-0.104,0.234-0.247,0.338-0.43,0.313c-0.833-0.131-2.057-0.326-3.672-0.586
				c-0.13,0.131-0.182,0.313-0.156,0.547c0.026,0.234,0.053,0.455,0.078,0.664c0.026,0.025,0.039,0.064,0.039,0.117
				c0,0.025-0.02,0.078-0.059,0.156s-0.059,0.17-0.059,0.273c0.026,0.65,0.026,1.236,0,1.758c-0.025,0.6,0.014,1.197,0.117,1.797
				c3.125,0.182,6.342,0.26,9.648,0.234c3.334-0.053,6.381-0.717,9.141-1.992C127.156-62.846,127.508-63.016,127.95-63.172z
				 M125.177-69.578c-1.041,1.35-2.07,2.176-3.086,2.481c-0.599,0.204-1.191,0.401-1.777,0.592s-1.217,0.286-1.895,0.286
				l-0.195-0.19c-0.078-0.509-0.104-1.017-0.078-1.524c0.053-0.483,0.104-0.967,0.156-1.449l0.664-9.023l0.43-3.789
				c-0.234-0.391-0.299-0.6-0.195-0.625c1.823,0.807,3.139,1.536,3.945,2.188c0.469,0.364,0.814,0.748,1.035,1.152
				c0.222,0.403,0.449,0.826,0.684,1.27c0.495,0.781,0.834,1.354,1.016,1.719c0.261,0.599,0.417,1.263,0.469,1.992
				c0.131,1.484-0.039,2.838-0.508,4.063c-0.104,0.078-0.208,0.229-0.313,0.449C125.425-69.768,125.308-69.631,125.177-69.578z"/>
			<path style="fill:#76BB92;" d="M152.442-59.148c-0.234-0.859-0.41-1.732-0.527-2.617s-0.462-1.9-1.035-3.047
				c-1.432,0.156-3.594,0.365-6.484,0.625c-0.208-0.572-0.338-1.537-0.391-2.891c-0.052-1.225-0.208-2.408-0.469-3.555
				c0.026-0.313,0.156-0.455,0.391-0.43c0.156,0,0.378,0.014,0.664,0.039c0.703,0.025,1.68,0.143,2.93,0.352
				c1.406,0.234,2.383,0.377,2.93,0.43c0.053-0.625-0.052-1.445-0.313-2.461c-0.313-1.146-0.481-1.953-0.508-2.422
				c-0.494-0.209-0.989-0.313-1.484-0.313c-0.391,0-0.781,0.052-1.172,0.156c-0.938,0.286-1.836,0.43-2.695,0.43
				c-0.234,0.104-0.43,0.156-0.586,0.156c-0.234,0-0.391-0.131-0.469-0.391c-0.104-0.417-0.247-0.781-0.43-1.094
				c-0.052-1.094-0.208-2.175-0.469-3.242c-0.182-0.547-0.391-1.433-0.625-2.656l0.117-0.313c0.912,0.13,3.842,0.755,8.789,1.875
				l0.234-0.156c-0.104-1.537-0.286-2.734-0.547-3.594c-0.313-1.016-0.547-2.019-0.703-3.008c-0.859,0-1.719,0-2.578,0
				c-0.572,0-1.419,0-2.539,0c-1.119,0-1.953,0-2.5,0c-1.406,0-2.813,0.078-4.219,0.234l-2.461,0.313
				c0.261,3.594,0.547,8.984,0.859,16.172c0.026,0.703,0.339,4.205,0.938,10.508c1.615,0.234,4.089,0.469,7.422,0.703
				c3.334,0.234,5.847,0.482,7.539,0.742c0.313,0,0.469-0.104,0.469-0.313C152.521-58.992,152.495-59.07,152.442-59.148z"/>
		</g>
		<g>
			<path style="fill:none;stroke:#231F20;" d="M68.419-56.883c-0.365,0.365-2.487,0.742-6.367,1.133
				c-1.979,0.025-3.62-0.299-4.922-0.977l-2.539-1.289c-0.781-0.547-1.615-1.51-2.5-2.891c-0.677-1.016-1.068-1.861-1.172-2.539
				c-0.052-0.756-0.117-1.523-0.195-2.305c-0.078-0.572-0.117-1.158-0.117-1.758c0-0.807,0.234-2.266,0.703-4.375
				c0.208-0.963,0.989-2.252,2.344-3.867c1.692-2.058,3.698-3.269,6.016-3.633c0.234,0.391,0.481,1.263,0.742,2.617
				c0.052,0.338,0.078,0.664,0.078,0.977c0,0.911-0.248,1.771-0.742,2.578l-2.578,0.273v4.883c2.396,0.26,4.688,0.377,6.875,0.352
				c2.188-0.053,4.414-0.078,6.68-0.078c0.547-0.625,0.755-1.498,0.625-2.617c-0.078-0.729-0.117-1.42-0.117-2.07
				c0-0.391,0.013-0.781,0.039-1.172c-0.287-0.521-0.716-0.781-1.289-0.781c-0.208,0-0.501,0.059-0.879,0.176
				c-0.378,0.117-0.658,0.176-0.84,0.176c-0.599,0-0.873-0.482-0.82-1.445l-0.43-11.406c-1.484-0.287-2.93-0.43-4.336-0.43
				c-5.781,0-10.912,2.174-15.391,6.523c-2.109,2.656-3.49,5.742-4.141,9.258c-0.287,1.432-0.43,2.826-0.43,4.18
				c0,2.135,0.338,4.18,1.016,6.133c0.859,2.525,2.513,5.117,4.961,7.773c2.292,2.475,4.883,4.127,7.773,4.961
				c0.442,0.025,1.328,0.195,2.656,0.508c1.12,0.26,2.148,0.365,3.086,0.313c2.266-0.131,4.739-0.508,7.422-1.133L68.419-56.883z"/>
			<path style="fill:none;stroke:#231F20;" d="M91.935-60.242c0.521-2.943,1.094-5.898,1.719-8.867
				c0.469-2.188,0.703-4.414,0.703-6.68c0-0.808-0.039-1.641-0.117-2.5l0.195-0.156c-0.183-0.156-0.287-0.352-0.313-0.586
				c-0.052-0.391-0.091-0.625-0.117-0.703c-0.026-0.156-0.104-0.358-0.234-0.605c-0.13-0.248-0.195-0.424-0.195-0.527
				c0-0.156,0.078-0.313,0.234-0.469h-0.391c-0.547-1.85-1.836-3.334-3.867-4.453c-1.641-0.912-3.594-1.523-5.859-1.836
				c-2.761-0.13-4.753,0.599-5.977,2.188c-1.042,1.797-1.875,3.984-2.5,6.563c-0.13,0.469-0.599,2.786-1.406,6.953
				c-0.391,2.006-0.547,3.58-0.469,4.727c1.927,0.756,4.114,1.225,6.563,1.406c0.234-2.396,0.469-4.779,0.703-7.148
				c0.391-2.761,1.028-5.039,1.914-6.836c0.833-1.25,1.667-1.875,2.5-1.875c1.276,0,2.109,0.469,2.5,1.406
				c0.078,0.885,0.234,1.705,0.469,2.461c0.208,0.625,0.234,1.471,0.078,2.539c-0.443,2.838-0.886,5.078-1.328,6.719
				c-0.599,2.188-1.146,4.4-1.641,6.641l2.969,1.055c0.963,0.338,1.953,0.703,2.969,1.094
				C91.688-59.734,91.987-59.904,91.935-60.242z"/>
			<path style="fill:none;stroke:#231F20;" d="M106.856-57.742c0.287-0.313,0.43-0.625,0.43-0.938c0-0.494-0.352-0.977-1.055-1.445
				c-1.197-0.781-2.317-1.42-3.359-1.914c-1.041-0.26-2.174-0.391-3.398-0.391c-1.197,0.025-2.252,0.17-3.164,0.43
				c-0.938,0.391-1.51,0.951-1.719,1.68c-0.286,0.912-0.051,1.705,0.703,2.383c0.6,0.547,1.394,0.938,2.383,1.172
				c1.146,0.287,2.253,0.572,3.32,0.859C102.69-55.775,104.644-56.389,106.856-57.742z M105.216-64.461
				c0.156-1.793,0.234-3.588,0.234-5.381c0-1.014-0.078-2.528-0.234-4.543s-0.234-3.529-0.234-4.543c0-2.6,0.313-5.212,0.938-7.838
				c-1.51-0.026-2.955-0.183-4.336-0.469c-0.911-0.209-1.836-0.313-2.773-0.313c-0.494,0-0.989,0.026-1.484,0.078
				c0.026,1.04,0.039,2.08,0.039,3.12c0,2.808-0.117,5.537-0.352,8.188c-0.364,3.639-0.494,7.369-0.391,11.191L105.216-64.461z"/>
			<path style="fill:none;stroke:#231F20;" d="M127.95-63.172c0.026,0,0.065-0.014,0.117-0.039
				c-0.025-0.078,0.014-0.131,0.117-0.156c1.85-1.119,3.262-2.578,4.238-4.375s1.4-3.764,1.27-5.898
				c-0.208-2.995-1.354-5.664-3.438-8.008c-1.719-1.928-3.997-3.75-6.836-5.469c-0.338-0.287-0.82-0.572-1.445-0.859
				c-0.755-0.338-1.263-0.586-1.523-0.742c-2.344-1.041-4.283-1.744-5.82-2.109c-1.119-0.26-2.239-0.481-3.359-0.664
				c-0.208,0-0.338,0.078-0.391,0.234c-0.052,0.287-0.104,0.456-0.156,0.508c-0.104,0.756-0.26,1.472-0.469,2.148
				c-0.26,0.912-0.391,1.992-0.391,3.242c0.053,0,0.678,0.052,1.875,0.156c0.756,0.078,1.354,0.247,1.797,0.508
				c-0.104,3.203-0.299,6.172-0.586,8.906c-0.338,3.334-0.572,6.615-0.703,9.844c-0.104,0.234-0.247,0.338-0.43,0.313
				c-0.833-0.131-2.057-0.326-3.672-0.586c-0.13,0.131-0.182,0.313-0.156,0.547c0.026,0.234,0.053,0.455,0.078,0.664
				c0.026,0.025,0.039,0.064,0.039,0.117c0,0.025-0.02,0.078-0.059,0.156s-0.059,0.17-0.059,0.273c0.026,0.65,0.026,1.236,0,1.758
				c-0.025,0.6,0.014,1.197,0.117,1.797c3.125,0.182,6.342,0.26,9.648,0.234c3.334-0.053,6.381-0.717,9.141-1.992
				C127.156-62.846,127.508-63.016,127.95-63.172z M125.177-69.578c-1.041,1.35-2.07,2.176-3.086,2.481
				c-0.599,0.204-1.191,0.401-1.777,0.592s-1.217,0.286-1.895,0.286l-0.195-0.19c-0.078-0.509-0.104-1.017-0.078-1.524
				c0.053-0.483,0.104-0.967,0.156-1.449l0.664-9.023l0.43-3.789c-0.234-0.391-0.299-0.6-0.195-0.625
				c1.823,0.807,3.139,1.536,3.945,2.188c0.469,0.364,0.814,0.748,1.035,1.152c0.222,0.403,0.449,0.826,0.684,1.27
				c0.495,0.781,0.834,1.354,1.016,1.719c0.261,0.599,0.417,1.263,0.469,1.992c0.131,1.484-0.039,2.838-0.508,4.063
				c-0.104,0.078-0.208,0.229-0.313,0.449C125.425-69.768,125.308-69.631,125.177-69.578z"/>
			<path style="fill:none;stroke:#231F20;" d="M152.442-59.148c-0.234-0.859-0.41-1.732-0.527-2.617s-0.462-1.9-1.035-3.047
				c-1.432,0.156-3.594,0.365-6.484,0.625c-0.208-0.572-0.338-1.537-0.391-2.891c-0.052-1.225-0.208-2.408-0.469-3.555
				c0.026-0.313,0.156-0.455,0.391-0.43c0.156,0,0.378,0.014,0.664,0.039c0.703,0.025,1.68,0.143,2.93,0.352
				c1.406,0.234,2.383,0.377,2.93,0.43c0.053-0.625-0.052-1.445-0.313-2.461c-0.313-1.146-0.481-1.953-0.508-2.422
				c-0.494-0.209-0.989-0.313-1.484-0.313c-0.391,0-0.781,0.052-1.172,0.156c-0.938,0.286-1.836,0.43-2.695,0.43
				c-0.234,0.104-0.43,0.156-0.586,0.156c-0.234,0-0.391-0.131-0.469-0.391c-0.104-0.417-0.247-0.781-0.43-1.094
				c-0.052-1.094-0.208-2.175-0.469-3.242c-0.182-0.547-0.391-1.433-0.625-2.656l0.117-0.313c0.912,0.13,3.842,0.755,8.789,1.875
				l0.234-0.156c-0.104-1.537-0.286-2.734-0.547-3.594c-0.313-1.016-0.547-2.019-0.703-3.008c-0.859,0-1.719,0-2.578,0
				c-0.572,0-1.419,0-2.539,0c-1.119,0-1.953,0-2.5,0c-1.406,0-2.813,0.078-4.219,0.234l-2.461,0.313
				c0.261,3.594,0.547,8.984,0.859,16.172c0.026,0.703,0.339,4.205,0.938,10.508c1.615,0.234,4.089,0.469,7.422,0.703
				c3.334,0.234,5.847,0.482,7.539,0.742c0.313,0,0.469-0.104,0.469-0.313C152.521-58.992,152.495-59.07,152.442-59.148z"/>
		</g>
	</g>
</symbol>
<symbol  id="flash0.ai_x5F_13_x2F_main_x2F__x3C_Path_x3E_" viewBox="0.015 -151.436 203.79 151.428">
	<path style="fill-rule:evenodd;clip-rule:evenodd;" d="M188.35-39.05c-0.633-4.134-1.267-8.967-1.9-14.5
		c-1.267-11.101-1.9-20.217-1.9-27.351c0-7.133,1.5-14.75,4.5-22.85c1.467-4.066,2.95-7.4,4.45-10
		c7.033-5.4,10.467-10.434,10.3-15.1c-0.167-3.967-2.883-7.384-8.15-10.25c-4.6-2.5-10.316-4.217-17.15-5.15
		c-6.533-0.9-12.117-0.834-16.75,0.2c-4.633,1.066-11.717,1.45-21.25,1.149c-10.6-0.333-17.95-0.232-22.05,0.301
		c-4.434,0.333-9.717,0.566-15.85,0.699c-12.3,0.268-22.733-0.1-31.3-1.1c-19.2-2.533-33.8-4.95-43.8-7.25
		c-10-2.267-17.25-1.283-21.75,2.95c-5.367,5.1-6.967,14.95-4.8,29.55c0.7,3.2,1.4,7.133,2.1,11.8c1.4,9.3,2.1,17.517,2.1,24.65
		l0.1,41.95c-0.467,15.366,2,26.283,7.4,32.75c4.967,5.967,12.133,7.883,21.5,5.75c4-0.9,10.7-3.351,20.1-7.351
		c8.467-3.6,15.333-5.733,20.6-6.399L88.8-15.15c10.633-0.199,19.317,0.117,26.05,0.95c19.9,2.534,35.55,5.101,46.95,7.7
		c9.967,2.267,17.2,1.267,21.7-3C188.9-14.6,190.517-24.45,188.35-39.05z"/>
</symbol>
<g>
	
		<use xlink:href="#flash0.ai_x5F_13_x2F_main_x2F__x3C_Path_x3E_"  width="203.79" height="151.428" x="0.015" y="-151.436" transform="matrix(2.9371 0 0 -2.9371 4.4595 4.687)" style="overflow:visible;opacity:0.2383;enable-background:new    ;"/>
	
		<use xlink:href="#GuideButtonEN"  width="199.21" height="142.938" id="XMLID_1_" x="0.024" y="-142.919" transform="matrix(2.9371 0 0 -2.9371 27.5151 4.687)" style="overflow:visible;"/>
</g>
<g>
</g>
<g>
</g>
<g>
</g>
<g>
</g>
<g>
</g>
<g>
</g>
</svg>
