<?xml version="1.0" encoding="utf-8"?>
<!-- Generator: Adobe Illustrator 19.0.0, SVG Export Plug-In . SVG Version: 6.00 Build 0)  -->
<svg version="1.1" id="Layer_1" xmlns="http://www.w3.org/2000/svg" xmlns:xlink="http://www.w3.org/1999/xlink" x="0px" y="0px"
	 viewBox="-229 102 500 358" style="enable-background:new -229 102 500 358;" xml:space="preserve">
<style type="text/css">
	.st0{fill:none;}
	.st1{display:none;}
	.st2{display:inline;fill:none;}
	.st3{opacity:0.24;}
	.st4{fill:#9EFFC5;}
	.st5{fill:url(#svg_828_1_);}
	.st6{fill:#76BB92;}
</style>
<g>
	<title>background</title>
	<rect id="canvas_background" x="-230" y="101" class="st0" width="502" height="360"/>
	<g id="canvasGrid" class="st1">
		<rect x="-229" y="102" class="st2" width="500" height="358"/>
	</g>
</g>
<g id="flash0.ai_13_main_.__3CPath.__3E_1_" class="st3">
	<path id="XMLID_38_" d="M214.2,193.9c5.1-34.4,1.3-57.5-11.4-69.6c-10.6-10-27.6-12.4-51.1-7.1c-26.8,6.1-63.6,12.1-110.5,18.1
		c-15.8,1.9-36.2,2.7-61.3,2.2l-32.8-1.3c-12.4-1.6-28.6-6.6-48.5-15.1c-22.1-9.3-37.8-15.2-47.2-17.3c-22.1-5-39-0.5-50.6,13.6
		c-12.7,15.2-18.6,40.9-17.4,77.1l-0.2,98.7c0,16.8-1.7,36.1-5,58c-1.7,11-3.3,20.2-5,27.8c-5.1,34.4-1.4,57.5,11.3,69.6
		c10.6,10,27.7,12.2,51.2,6.9c23.5-5.4,57.9-11.1,103.1-17.1c20.1-2.3,44.7-3.2,73.7-2.6c14.5,0.3,26.9,0.9,37.3,1.7
		c9.6,1.3,26.9,1.5,51.9,0.7c22.4-0.7,39.1,0.2,50,2.7c10.9,2.4,24,2.6,39.5,0.5c16-2.2,29.5-6.2,40.3-12.1
		c12.4-6.7,18.8-14.8,19.1-24.1c0.4-11-7.7-22.8-24.2-35.6c-3.5-6.1-7-14-10.5-23.5c-7.1-19-10.6-37-10.6-53.7
		c0-16.8,1.5-38.3,4.5-64.3C211.2,215,212.7,203.7,214.2,193.9"/>
</g>
<title>Layer 1</title>
<g>
	<g id="svg_30">
		<g id="svg_18" transform="matrix(2.4772422689862115,0,0,2.4772422689862115,-14228.55044562932,-9133.504788758231) ">
			<path id="svg_21" class="st4" d="M5848.2,3775c0.7-5.2,1.3-9.8,1.9-13.8c2.2-13.9,0.6-23.2-5-28.1c-4.6-4.1-12-5-22.1-2.8
				c-11.7,2.4-27.6,4.9-47.7,7.3c-6.8,0.8-15.7,1.1-26.5,0.9l-14-0.6c-20.1-2.3-36.1-4.9-47.7-7.3c-10.2-2.1-17.5-1.2-22.1,2.9
				c-5.4,4.9-7.1,14.2-5,28.1l1.9,13.8c1.3,10.6,1.9,19.2,1.9,26.1c0,6.8-0.7,14.6-2.1,23.4c-0.7,4.4-1.5,8.1-2.1,11.1
				c-2.2,13.9-0.6,23.2,5,28.1c4.5,4.1,11.9,5.1,22.1,2.9c10.9-2.3,25.8-4.7,44.5-7c8.8-1,19.3-1.3,31.8-1
				c6.2,0.1,11.7,0.4,16.1,0.7c19.1,2.3,33.9,4.7,44.5,6.9c10.1,2.1,17.5,1.3,22.1-2.8c5.4-4.9,7.1-14.2,4.9-28.1
				c-0.7-3-1.5-6.8-2.1-11.2c-1.5-8.8-2.2-16.7-2.2-23.5C5846.2,3794.2,5846.9,3785.5,5848.2,3775"/>
			<path id="svg_22" class="st0" d="M5846.9,3772.9c0.6-5,1.3-9.2,1.8-12.9c2.1-13,0.6-21.9-4.8-26.3c-4.4-3.8-11.5-4.7-21.2-2.7
				c-11.3,2.3-26.5,4.6-45.9,6.8c-6.5,0.8-15,1-25.5,0.9l-13.6-0.5c-19.6-2.3-35-4.6-45.9-6.9c-9.6-2-16.7-1.2-21.1,2.6
				c-5.3,4.6-6.8,13.3-4.7,26.4l1.8,12.9c1.2,9.9,1.7,18.1,1.7,24.4c0,6.4-0.7,13.7-2,22.1c-0.7,4.2-1.4,7.7-2,10.5
				c-2.1,13.1-0.6,21.9,4.8,26.4c4.4,3.8,11.5,4.7,21.3,2.6c10.9-2.2,25.2-4.4,42.8-6.5c8.4-0.9,18.6-1.2,30.5-1
				c6,0.1,11.2,0.3,15.5,0.6c18,2.1,32.2,4.4,42.8,6.5c9.7,2,16.8,1.2,21.3-2.6c5.3-4.6,6.8-13.4,4.7-26.4c-0.7-2.9-1.4-6.4-2-10.5
				c-1.4-8.3-2.1-15.7-2.1-22.1S5845.7,3782.7,5846.9,3772.9"/>
		</g>
	</g>
	
		<linearGradient id="svg_828_1_" gradientUnits="userSpaceOnUse" x1="-456.7382" y1="561.7753" x2="-457.2878" y2="560.5616" gradientTransform="matrix(458.7052 0 0 -321.7695 209662.5781 180843.4375)">
		<stop  offset="0" style="stop-color:#FFFFFF"/>
		<stop  offset="1" style="stop-color:#FFFFFF;stop-opacity:0"/>
	</linearGradient>
	<path id="svg_828" class="st5" d="M235.6,224.8c1.4-11.4,2.8-21.3,4.2-29.8c4.9-30.1,1.3-50.5-10.9-61.1
		c-10.1-8.7-26.5-10.8-49.2-6.2c-25.2,5.2-60.6,10.6-106.3,16c-15.3,1.7-34.9,2.4-59,1.9l-31.6-1.1c-45.6-5.4-81.1-10.7-106.4-15.9
		c-22.6-4.6-39-2.6-49.1,6.2c-12.2,10.6-15.9,30.9-10.9,61.1l4.3,29.8c2.8,22.9,4.2,41.7,4.2,56.4c0,14.7-1.6,31.7-4.8,50.9
		c-1.6,9.6-3.2,17.7-4.8,24.3c-4.9,30.2-1.3,50.5,10.9,61.1c10.2,8.7,26.6,10.8,49.2,6.2c24.4-5.1,57.5-10.1,99.2-15
		c19.4-2.1,43.1-2.8,70.9-2.3c13.9,0.3,25.9,0.8,35.9,1.5c41.8,4.9,74.8,9.9,99.2,15c22.7,4.6,39.1,2.6,49.2-6.2
		c12.2-10.6,15.9-30.9,10.9-61.1c-1.6-6.6-3.2-14.7-4.8-24.3c-3.2-19.2-4.8-36.2-4.8-50.9C231.3,266.5,232.7,247.7,235.6,224.8"/>
</g>
<g id="svg_23">
	<path id="svg_24" class="st6" d="M-122.2,323v0.2c0,0.2-0.2,0.2-0.5,0.2c-6.4,0.7-17.1,1.5-31.7,2.7h-0.2c-0.2,0-0.2-0.2-0.2-0.5
		c-0.5-5.2-0.7-9.2-1-11.4c0-0.5,0.2-0.5,0.7-0.5c0.7,0,2-0.2,4-0.5c2-0.2,3.2-0.2,3.7-0.5c0.2,0,0.5-0.2,0.5-0.5
		c-0.5-11.4-1.2-29.5-2.7-54.5c0-0.5-0.2-0.5-0.5-0.5l-9.2,1c-0.2,0-0.5-0.2-0.5-0.5c0-1.2,0-3.2-0.2-5.9c-0.2-2.7-0.2-4.7-0.2-6.2
		c0-0.2,0.2-0.5,0.5-0.5c22.8-3.5,34.7-5.2,35.7-5.4c0.2,0,0.5,0.2,0.5,0.5c0.2,1.7,0.5,4.2,0.7,7.4c0.2,3.2,0.5,5.2,0.5,6.2
		c0,0.2-0.2,0.5-0.5,0.5c-1.2,0.2-3.2,0.5-5.7,1c-2.5,0.2-4.5,0.5-5.7,0.7c-0.2,0-0.5,0.2-0.5,0.5c1.5,25.8,2.7,44.1,3.5,54.7
		c0,0.2,0.2,0.5,0.7,0.5c4.2-0.5,6.7-0.7,7.4-1c0.5,0,0.5,0.2,0.5,0.5C-122.5,319.1-122.2,322.8-122.2,323L-122.2,323z"/>
	<path id="svg_25" class="st6" d="M-22.7,288.6c0,4.2,0,8.4,0,13.1c0,4.7-0.2,9.7-0.2,15.4c-0.2,5.9-0.2,10.2-0.2,13.4
		c0,0.2-0.2,0.5-0.5,0.5c-1.2-0.2-3-0.5-5.7-1c-2.7-0.2-4.5-0.5-5.7-0.7c-0.2,0-0.5-0.2-0.5-0.5c-0.2-1.5-0.5-4.7-0.7-9.2
		c0-0.2,0-0.5-0.2-0.5h-0.2c-5.2,2.2-9.9,3.5-14.1,3.5c-6.9,0-12.6-2.5-16.6-7.2s-5.9-10.4-5.9-17.3c0-7.7,2.5-14.4,7.2-19.8
		c4.7-5.7,11.4-8.4,20.3-8.4c1.5,0,4,0.2,7.2,0.5h0.2h0.2c0,0,0.2,0,0.2-0.2c0,0,0,0,0-0.2c0-1.2-0.2-4.2-0.5-8.7
		c-0.2-4.5-0.5-7.7-0.7-9.4c-0.2-2.2-0.7-5.7-1.2-10.2s-1-7.9-1.2-10.2c0-0.5,0.2-0.5,0.5-0.5l17.3,1c0.2,0,0.5,0.2,0.5,0.5
		C-23.2,248-22.7,266.8-22.7,288.6L-22.7,288.6z M-37,306.2c0-1.2,0-2.5,0-4c0-4.5-0.2-9.7-0.7-16.1v-0.2c-2.2-2.5-5-3.7-8.2-3.7
		c-4.2,0-7.2,1.5-9.2,4.5c-2,3-3,6.4-3,10.9c0,7.9,4,12.1,11.6,12.1c3.5,0,6.4-1,9.2-2.7L-37,306.2L-37,306.2z"/>
	<path id="svg_26" class="st6" d="M10.8,245.5c0,3-1,5.2-3.2,7.4c-2.2,2-4.7,3-7.4,3c-2.5,0-4.7-1.2-6.4-3.5
		c-1.7-2.2-2.7-4.7-2.7-7.2c0-2.5,1-5,3-6.9c2-2,4.2-3,6.9-3c2.5,0,4.7,1,6.9,3.2C9.8,240.8,10.8,243,10.8,245.5L10.8,245.5z
		 M12.3,265.8c-0.5,16.8-1.2,36.2-2,57.7c0,0.2-0.2,0.5-0.5,0.5c-1.5,0-4,0.2-7.2,0.2s-5.5,0.2-6.4,0.5c-0.5,0-0.5-0.2-0.5-0.5
		c-0.2-1.2-0.2-3.2-0.2-5.7l-0.2-3.2c0-2.2,0-5.4-0.2-8.9c0-3.7-0.2-7.7-0.2-11.9c-0.2-4.2-0.2-8.9-0.2-14.1c0-5-0.2-9.7-0.2-13.6
		c0-0.5,0.2-0.5,0.5-0.5c2,0,5.2-0.2,9.4-0.2c1-0.2,2.2-0.2,3.7-0.2c1.7,0,3-0.2,3.7-0.2h0.2C12.3,265.3,12.3,265.3,12.3,265.8
		L12.3,265.8z"/>
	<path id="svg_27" class="st6" d="M76.2,288.6c0,4.2,0,8.4,0,13.1c0,4.7-0.2,9.7-0.2,15.4s-0.2,10.2-0.2,13.1c0,0.2-0.2,0.5-0.5,0.5
		c-1.2-0.2-3-0.5-5.7-1c-2.7-0.2-4.5-0.5-5.7-0.7c-0.2,0-0.5-0.2-0.5-0.5c-0.2-1.5-0.5-4.7-0.7-9.2c0-0.2,0-0.5-0.2-0.5h-0.2
		c-5.2,2.2-9.9,3.5-14.1,3.5c-6.9,0-12.6-2.5-16.6-7.2s-5.9-10.4-5.9-17.3c0-7.7,2.5-14.4,7.2-19.8c4.7-5.7,11.4-8.4,20.3-8.4
		c1.5,0,4,0.2,7.2,0.5h0.2h0.2c0,0,0.2,0,0.2-0.2c0,0,0,0,0-0.2c0-1.2-0.2-4.2-0.5-8.7c-0.2-4.5-0.5-7.7-0.7-9.4
		c-0.2-2.2-0.7-5.7-1.2-10.2s-1-7.9-1.2-10.2c0-0.5,0.2-0.5,0.5-0.5l17.3,1c0.2,0,0.5,0.2,0.5,0.5C75.7,248,76.2,266.8,76.2,288.6
		L76.2,288.6z M61.8,306.2c0-1.2,0-2.5,0-4c0-4.5-0.2-9.7-0.7-16.1v-0.2c-2.2-2.5-5-3.7-8.2-3.7c-4.2,0-7.2,1.5-9.2,4.5
		c-2,3-3,6.4-3,10.9c0,7.9,4,12.1,11.6,12.1c3.5,0,6.4-1,9.2-2.7L61.8,306.2L61.8,306.2z"/>
	<path id="svg_28" class="st6" d="M146.5,245.5c0,3-1,5.2-3.2,7.4c-2.2,2-4.7,3-7.4,3c-2.5,0-4.7-1.2-6.4-3.5
		c-1.7-2.2-2.7-4.7-2.7-7.2c0-2.5,1-5,3-6.9c2-2,4.2-3,6.9-3c2.5,0,4.7,1,6.9,3.2C145.5,240.8,146.5,243,146.5,245.5L146.5,245.5z
		 M148,265.8c-0.5,16.8-1.2,36.2-2,57.7c0,0.2-0.2,0.5-0.5,0.5c-1.5,0-4,0.2-7.2,0.2s-5.5,0.2-6.4,0.5c-0.5,0-0.5-0.2-0.5-0.5
		c-0.2-1.2-0.2-3.2-0.2-5.7l-0.2-3.2c0-2.2,0-5.4-0.2-8.9c0-3.7-0.2-7.7-0.2-11.9c-0.2-4.2-0.2-8.9-0.2-14.1c0-5-0.2-9.7-0.2-13.6
		c0-0.5,0.2-0.5,0.5-0.5c2,0,5.2-0.2,9.4-0.2c1-0.2,2.2-0.2,3.7-0.2c1.7,0,3-0.2,3.7-0.2h0.2C148,265.3,148,265.3,148,265.8
		L148,265.8z"/>
	<path id="svg_29" class="st6" d="M203,280.9c0,0.2-0.2,0.5-0.5,0.5c-1.5,0.2-3.7,0.5-6.2,0.5c-2.7,0-4.7,0-5.9,0.2
		c-0.5,0-0.7,0.5-0.7,1.5c0.2,5,0.7,12.4,1.2,22.5c0.5,9.9,0.7,16.6,1,19.6c0,0.5-0.2,0.5-0.5,0.5c-5.7,0.7-10.4,1.2-14.1,1.7H177
		c-0.5,0-0.7-0.5-0.7-1.5c0-0.5,0-1.2,0-2.7c0-1.5,0-2.2,0-2.2c0-2.7-0.5-14.9-1.5-36.7c0-0.2-0.2-0.5-0.5-0.5
		c-2,0.2-4.5,0.5-7.7,0.7c-3.2,0.5-5.5,0.7-5.9,0.7h-0.2c-0.2,0-0.2-0.2-0.2-0.5c0-1.5-0.2-3.5-0.2-6.4c-0.2-3-0.2-5-0.2-6.4
		c0-0.5,0.2-0.7,0.5-0.7c1.5-0.2,4-0.5,6.9-1c3-0.2,5.5-0.7,6.9-1c0.2,0,0.5-0.2,0.5-0.5c-0.2-4-0.5-8.9-0.7-14.9
		c-0.2-5.9-0.7-10.9-0.7-14.4c0-0.2,0-0.5,0.2-0.5c6.4-2.2,12.1-4,17.3-5.2h0.2c0.2,0,0.2,0.2,0.2,0.5c-0.7,10.4-1,21.1-1,32.5
		c0,0.5,0.2,0.5,0.5,0.5c1.5,0,5.7-0.2,12.4-0.7h0.2c0.2,0,0.2,0.2,0.2,0.5c0,0.2,0,1.2,0,3.5c0,2,0,4,0,5.4v4.5L203,280.9
		L203,280.9z"/>
</g>
</svg>
