<?xml version="1.0" encoding="utf-8"?>
<!-- Generator: Adobe Illustrator 16.0.0, SVG Export Plug-In . SVG Version: 6.00 Build 0)  -->
<!DOCTYPE svg PUBLIC "-//W3C//DTD SVG 1.1//EN" "http://www.w3.org/Graphics/SVG/1.1/DTD/svg11.dtd">
<svg version="1.1" id="Layer_1" xmlns="http://www.w3.org/2000/svg" xmlns:xlink="http://www.w3.org/1999/xlink" x="0px" y="0px"
	 width="612px" height="448.973px" viewBox="0 0 612 448.973" enable-background="new 0 0 612 448.973" xml:space="preserve">
<g id="flash0.ai_x5F_13_x2F_main_x2F__x3C_Path_x3E_">
	<path fill-opacity="0.24" d="M561.659,117.377c-1.858,12.142-3.721,26.336-5.58,42.588c-3.722,32.606-5.58,59.378-5.58,80.334
		c0,20.949,4.406,43.321,13.217,67.113c4.309,11.941,8.664,21.733,13.069,29.371c20.657,15.858,30.743,30.645,30.253,44.349
		c-0.49,11.654-8.469,21.69-23.937,30.105c-13.512,7.343-30.301,12.388-50.373,15.127c-19.187,2.642-35.587,2.45-49.195-0.588
		c-13.607-3.129-34.414-4.259-62.414-3.373c-31.132,0.979-52.72,0.68-64.762-0.886c-13.023-0.979-28.541-1.658-46.553-2.051
		c-36.126-0.789-66.769,0.295-91.931,3.232c-56.393,7.44-99.274,14.539-128.646,21.294c-29.371,6.657-50.665,3.769-63.881-8.665
		c-15.763-14.979-20.462-43.91-14.098-86.791c2.057-9.398,4.112-20.949,6.168-34.656c4.111-27.317,6.168-51.454,6.168-72.4
		l0.292-123.212c-1.371-45.129,5.875-77.193,21.736-96.189C60.202,4.555,81.249-1.072,108.762,5.192
		c11.748,2.645,31.426,9.847,59.034,21.595c24.869,10.573,45.034,16.834,60.504,18.79l40.973,1.612
		c31.229,0.583,56.736-0.341,76.51-2.788c58.448-7.443,104.413-14.987,137.897-22.616c29.273-6.66,50.517-3.723,63.733,8.811
		C563.275,45.565,568.024,74.497,561.659,117.377z"/>
</g>
<g>
	<path fill="#9EFFC5" d="M598.154,138.063c-3.901,31.807-5.854,57.904-5.854,78.296c0,20.39,2.146,43.905,6.44,70.54
		c2.145,13.365,4.291,24.635,6.438,33.807c6.633,41.855,1.754,70.053-14.636,84.589c-13.754,12.196-35.954,15.073-66.587,8.639
		c-34.148-7.221-78.832-14.146-134.057-20.784c-13.563-0.976-29.758-1.662-48.59-2.051c-37.563-0.777-69.466,0.248-95.711,3.076
		c-57.368,7.122-102.054,14.051-134.055,20.781c-30.537,6.536-52.685,3.707-66.441-8.488c-16.488-14.539-21.415-42.734-14.78-84.59
		c2.146-9.17,4.292-20.439,6.439-33.809c4.292-26.637,6.439-50.146,6.439-70.536c0-20.49-1.902-46.59-5.707-78.297
		c-1.953-15.905-3.903-29.759-5.854-41.563c-6.634-41.855-1.708-70.053,14.781-84.589c13.66-12.197,35.808-15.076,66.444-8.637
		c35.22,7.416,83.126,14.733,143.713,21.951l42.734,1.611c32.49,0.585,59.029-0.294,79.613-2.634
		c60.591-7.22,108.491-14.537,143.717-21.953c30.536-6.537,52.734-3.709,66.589,8.488c16.39,14.538,21.27,42.734,14.635,84.589
		C601.911,108.305,600.007,122.16,598.154,138.063z"/>
	
		<linearGradient id="SVGID_1_" gradientUnits="userSpaceOnUse" x1="196.4561" y1="-1007.6797" x2="864.5811" y2="-1007.6797" gradientTransform="matrix(-0.48 0.739 -0.739 -0.48 -155.2456 -680.5886)">
		<stop  offset="0" style="stop-color:#FFFFFF"/>
		<stop  offset="1" style="stop-color:#FFFFFF;stop-opacity:0"/>
	</linearGradient>
	<path fill="url(#SVGID_1_)" d="M601.084,128.696c-3.712,29.366-5.563,53.516-5.563,72.444c0,18.927,2.048,40.734,6.146,65.418
		c2.051,12.293,4.101,22.686,6.148,31.17c6.341,38.734,1.655,64.883-14.051,78.441c-12.978,11.225-34.05,13.857-63.222,7.905
		c-31.322-6.535-73.813-12.978-127.472-19.317c-12.879-0.881-28.244-1.515-46.101-1.904c-35.71-0.682-66.053,0.295-91.028,2.929
		c-53.661,6.342-96.153,12.784-127.469,19.315c-29.075,5.954-50.149,3.321-63.224-7.9c-15.707-13.563-20.39-39.707-14.048-78.443
		c2.05-8.484,4.099-18.879,6.147-31.17c4.098-24.686,6.146-46.492,6.146-65.419c0-18.929-1.805-43.076-5.415-72.443L62.52,91.379
		c-6.341-38.733-1.659-64.88,14.049-78.441c12.978-11.221,34.002-13.854,63.078-7.904c32.489,6.731,78.052,13.562,136.687,20.49
		l40.541,1.463c30.929,0.587,56.2-0.243,75.808-2.488c58.642-6.927,104.155-13.756,136.546-20.489
		c29.173-5.951,50.245-3.317,63.224,7.903c15.706,13.561,20.391,39.708,14.048,78.442
		C604.646,101.281,602.838,114.061,601.084,128.696z"/>
</g>
<g>
	<g>
		<path fill="#76BB92" d="M220.578,183.688l1.046-2.989l-3.885-51.707c4.483,1.196,9.065,1.994,13.749,2.391
			c2.889,0.299,5.777,0.548,8.667,0.748c3.785,0.499,6.475,1.396,8.07,2.689c-0.5,10.561-0.747,21.221-0.747,31.98
			c0,14.248,0.448,28.643,1.345,43.188c0.299,4.583,0.448,9.415,0.448,14.494c0,7.771-0.399,18.381-1.195,31.831
			c-0.997,15.242-1.545,25.555-1.644,30.936c-6.477-8.764-13.65-19.673-21.519-32.729c-6.576-11.153-13.202-22.361-19.876-33.622
			c-1.695,16.938-2.839,29.839-3.437,38.703c-0.399,5.978-1.097,13.504-2.092,22.565c-1.396-1.296-4.184-2.039-8.369-2.242
			c-5.779-0.196-9.615-0.543-11.507-1.047c-4.583-1.095-8.219-3.384-10.909-6.873c0.299-17.233,1.42-43.039,3.363-77.41
			c1.942-34.371,3.063-60.174,3.362-77.41c4.383,8.07,11.855,19.179,22.416,33.325C208.721,164.958,216.293,176.017,220.578,183.688
			z"/>
		<path fill="#76BB92" d="M316.818,172.33c-0.897,3.288-1.569,6.626-2.019,10.013c-0.448,3.388-1.771,7.273-3.96,11.656
			c-5.48-0.598-13.748-1.395-24.807-2.391c-0.798,2.192-1.296,5.879-1.495,11.059c-0.2,4.684-0.798,9.216-1.793,13.599
			c0.099,1.195,0.598,1.744,1.495,1.644c0.598,0,1.443-0.049,2.541-0.149c2.69-0.099,6.426-0.547,11.208-1.345
			c5.38-0.896,9.117-1.443,11.208-1.644c0.199,2.391-0.2,5.529-1.196,9.413c-1.194,4.388-1.844,7.472-1.942,9.265
			c-1.894,0.802-3.787,1.195-5.679,1.195c-1.495,0-2.989-0.196-4.483-0.599c-3.586-1.095-7.023-1.645-10.312-1.645
			c-0.896-0.395-1.644-0.6-2.241-0.6c-0.897,0-1.495,0.505-1.793,1.494c-0.399,1.599-0.948,2.989-1.644,4.187
			c-0.2,4.187-0.798,8.319-1.793,12.401c-0.698,2.095-1.495,5.481-2.391,10.162l0.448,1.195c3.486-0.494,14.694-2.887,33.624-7.173
			l0.896,0.599c-0.399,5.883-1.098,10.461-2.092,13.748c-1.197,3.885-2.093,7.725-2.69,11.508c-3.288,0-6.576,0-9.863,0
			c-2.192,0-5.431,0-9.713,0c-4.285,0-7.472,0-9.564,0c-5.38,0-10.76-0.299-16.14-0.896l-9.415-1.193
			c0.995-13.748,2.092-34.371,3.288-61.868c0.099-2.69,1.294-16.089,3.586-40.2c6.177-0.896,15.641-1.793,28.394-2.69
			c12.751-0.896,22.366-1.842,28.842-2.839c1.195,0,1.793,0.399,1.793,1.196C317.117,171.732,317.018,172.031,316.818,172.33z"/>
		<path fill="#76BB92" d="M392.54,189.722l-22.192,40.646l28.216,50.453l-0.301,1.494c-4.371,1.396-11.074,3.239-20.111,5.528
			c-1.79,0.699-2.882,0.348-3.281-1.053c-0.598-2.313-1.188-3.669-1.786-4.068l-0.075,0.041l-15.616-28.407l-13.447,24.563
			c-0.903,0.691-1.502,1.881-1.803,3.56c-0.102,1.087-0.646,1.63-1.648,1.63c-0.4,0-0.947-0.098-1.647-0.299
			c-4.496-1.295-11.189-3.084-20.083-5.381l-0.299-1.645l25.854-46.625l-19.827-36.489l-5.667-11.665
			c1.294-0.095,4.128-0.287,8.508-0.574c3.48-0.192,6.317-0.287,8.507-0.287c2.388,0,4.827,0.149,7.316,0.448l2.532-0.299
			l11.645,25.704c1.093-1.992,5.273-11.656,12.539-28.991c7.173-0.796,12.553-1.095,16.14-0.896
			c4.082,0.448,8.168,0.747,12.254,0.896v-0.149L392.54,189.722z"/>
		<path fill="#76BB92" d="M493.307,171.134c-0.102,0.299-0.35,4.534-0.747,12.702c-0.198,0.896-0.55,2.939-1.046,6.127
			c-0.999,0.299-4.884,0.798-11.654,1.495c-3.093,0.2-7.574,0.548-13.45,1.046c-2.892,35.565-4.686,63.117-5.38,82.639
			c-2.094,0.896-5.033,1.793-8.816,2.688c-4.385,1.103-7.374,1.896-8.967,2.394c-0.896,0-2.145,0.203-3.736,0.598
			c-1.596,0.4-2.791,0.598-3.586,0.598c-0.2-4.681-0.103-9.414,0.299-14.197c0-3.285,0.047-8.115,0.149-14.493
			c0-2.188,0.147-6.82,0.448-13.898c0.195-5.771,0.248-10.461,0.147-14.047c-0.102-9.362,0.448-18.728,1.646-28.093l-0.747-1.046
			c-3.688,0.698-9.116,1.445-16.289,2.242c-3.488,0.698-8.719,1.445-15.691,2.242c-0.299-1.495-0.849-3.886-1.644-7.173
			c-0.299-1.494-0.448-4.88-0.448-10.162c1.294-0.598,3.087-1.046,5.38-1.345c2.887-0.299,4.731-0.547,5.529-0.747
			c17.135-2.391,42.74-5.927,76.813-10.61C492.808,170.289,493.405,170.636,493.307,171.134z"/>
	</g>
	<g>
		<path fill="none" stroke="#231F20" stroke-width="3" d="M220.578,183.688l1.046-2.989l-3.885-51.707
			c4.483,1.196,9.065,1.994,13.749,2.391c2.889,0.299,5.777,0.548,8.667,0.748c3.785,0.499,6.475,1.396,8.07,2.689
			c-0.5,10.561-0.747,21.221-0.747,31.98c0,14.248,0.448,28.643,1.345,43.188c0.299,4.583,0.448,9.415,0.448,14.494
			c0,7.771-0.399,18.381-1.195,31.831c-0.997,15.242-1.545,25.555-1.644,30.936c-6.477-8.764-13.65-19.673-21.519-32.729
			c-6.576-11.153-13.202-22.361-19.876-33.622c-1.695,16.938-2.839,29.839-3.437,38.703c-0.399,5.978-1.097,13.504-2.092,22.565
			c-1.396-1.296-4.184-2.039-8.369-2.242c-5.779-0.196-9.615-0.543-11.507-1.047c-4.583-1.095-8.219-3.384-10.909-6.873
			c0.299-17.233,1.42-43.039,3.363-77.41c1.942-34.371,3.063-60.174,3.362-77.41c4.383,8.07,11.855,19.179,22.416,33.325
			C208.721,164.958,216.293,176.017,220.578,183.688z"/>
		<path fill="none" stroke="#231F20" stroke-width="3" d="M316.818,172.33c-0.897,3.288-1.569,6.626-2.019,10.013
			c-0.448,3.388-1.771,7.273-3.96,11.656c-5.48-0.598-13.748-1.395-24.807-2.391c-0.798,2.192-1.296,5.879-1.495,11.059
			c-0.2,4.684-0.798,9.216-1.793,13.599c0.099,1.195,0.598,1.744,1.495,1.644c0.598,0,1.443-0.049,2.541-0.149
			c2.69-0.099,6.426-0.547,11.208-1.345c5.38-0.896,9.117-1.443,11.208-1.644c0.199,2.391-0.2,5.529-1.196,9.413
			c-1.194,4.388-1.844,7.472-1.942,9.265c-1.894,0.802-3.787,1.195-5.679,1.195c-1.495,0-2.989-0.196-4.483-0.599
			c-3.586-1.095-7.023-1.645-10.312-1.645c-0.896-0.395-1.644-0.6-2.241-0.6c-0.897,0-1.495,0.505-1.793,1.494
			c-0.399,1.599-0.948,2.989-1.644,4.187c-0.2,4.187-0.798,8.319-1.793,12.401c-0.698,2.095-1.495,5.481-2.391,10.162l0.448,1.195
			c3.486-0.494,14.694-2.887,33.624-7.173l0.896,0.599c-0.399,5.883-1.098,10.461-2.092,13.748
			c-1.197,3.885-2.093,7.725-2.69,11.508c-3.288,0-6.576,0-9.863,0c-2.192,0-5.431,0-9.713,0c-4.285,0-7.472,0-9.564,0
			c-5.38,0-10.76-0.299-16.14-0.896l-9.415-1.193c0.995-13.748,2.092-34.371,3.288-61.868c0.099-2.69,1.294-16.089,3.586-40.2
			c6.177-0.896,15.641-1.793,28.394-2.69c12.751-0.896,22.366-1.842,28.842-2.839c1.195,0,1.793,0.399,1.793,1.196
			C317.117,171.732,317.018,172.031,316.818,172.33z"/>
		<path fill="none" stroke="#231F20" stroke-width="3" d="M392.54,189.722l-22.192,40.646l28.216,50.453l-0.301,1.494
			c-4.371,1.396-11.074,3.239-20.111,5.528c-1.79,0.699-2.882,0.348-3.281-1.053c-0.598-2.313-1.188-3.669-1.786-4.068l-0.075,0.041
			l-15.616-28.407l-13.447,24.563c-0.903,0.691-1.502,1.881-1.803,3.56c-0.102,1.087-0.646,1.63-1.648,1.63
			c-0.4,0-0.947-0.098-1.647-0.299c-4.496-1.295-11.189-3.084-20.083-5.381l-0.299-1.645l25.854-46.625l-19.827-36.489
			l-5.667-11.665c1.294-0.095,4.128-0.287,8.508-0.574c3.48-0.192,6.317-0.287,8.507-0.287c2.388,0,4.827,0.149,7.316,0.448
			l2.532-0.299l11.645,25.704c1.093-1.992,5.273-11.656,12.539-28.991c7.173-0.796,12.553-1.095,16.14-0.896
			c4.082,0.448,8.168,0.747,12.254,0.896v-0.149L392.54,189.722z"/>
		<path fill="none" stroke="#231F20" stroke-width="3" d="M493.307,171.134c-0.102,0.299-0.35,4.534-0.747,12.702
			c-0.198,0.896-0.55,2.939-1.046,6.127c-0.999,0.299-4.884,0.798-11.654,1.495c-3.093,0.2-7.574,0.548-13.45,1.046
			c-2.892,35.565-4.686,63.117-5.38,82.639c-2.094,0.896-5.033,1.793-8.816,2.688c-4.385,1.103-7.374,1.896-8.967,2.394
			c-0.896,0-2.145,0.203-3.736,0.598c-1.596,0.4-2.791,0.598-3.586,0.598c-0.2-4.681-0.103-9.414,0.299-14.197
			c0-3.285,0.047-8.115,0.149-14.493c0-2.188,0.147-6.82,0.448-13.898c0.195-5.771,0.248-10.461,0.147-14.047
			c-0.102-9.362,0.448-18.728,1.646-28.093l-0.747-1.046c-3.688,0.698-9.116,1.445-16.289,2.242
			c-3.488,0.698-8.719,1.445-15.691,2.242c-0.299-1.495-0.849-3.886-1.644-7.173c-0.299-1.494-0.448-4.88-0.448-10.162
			c1.294-0.598,3.087-1.046,5.38-1.345c2.887-0.299,4.731-0.547,5.529-0.747c17.135-2.391,42.74-5.927,76.813-10.61
			C492.808,170.289,493.405,170.636,493.307,171.134z"/>
	</g>
</g>
</svg>
