<?xml version="1.0" encoding="utf-8"?>
<!-- Generator: Adobe Illustrator 16.0.0, SVG Export Plug-In . SVG Version: 6.00 Build 0)  -->
<!DOCTYPE svg PUBLIC "-//W3C//DTD SVG 1.1//EN" "http://www.w3.org/Graphics/SVG/1.1/DTD/svg11.dtd">
<svg version="1.1" id="Layer_1" xmlns="http://www.w3.org/2000/svg" xmlns:xlink="http://www.w3.org/1999/xlink" x="0px" y="0px"
	 width="612px" height="448.973px" viewBox="0 0 612 448.973" enable-background="new 0 0 612 448.973" xml:space="preserve">
<symbol  id="GuideButtonEN" viewBox="-99.607 -71.47 199.214 142.938">
	<path fill="#9EFFC5" d="M95.37,24.3c-1.333-10.866-2-19.782-2-26.75c0-6.967,0.732-15,2.2-24.1
		c0.731-4.566,1.467-8.417,2.198-11.551c2.269-14.301,0.602-23.936-5-28.899c-4.698-4.167-12.282-5.148-22.75-2.95
		c-11.666,2.468-26.933,4.834-45.799,7.103c-4.634,0.334-10.168,0.564-16.601,0.699c-12.833,0.268-23.733-0.084-32.7-1.052
		c-19.6-2.434-34.867-4.8-45.8-7.1c-10.433-2.233-18-1.27-22.7,2.898c-5.633,4.969-7.316,14.602-5.05,28.898
		c0.733,3.134,1.467,6.983,2.2,11.55c1.466,9.103,2.2,17.134,2.2,24.103c0,7-0.65,15.918-1.95,26.75
		c-0.667,5.434-1.333,10.168-2,14.199c-2.265,14.301-0.581,23.935,5.052,28.9c4.667,4.167,12.233,5.149,22.7,2.95
		c12.033-2.533,28.4-5.033,49.1-7.5l14.601-0.551C4.37,61.7,13.437,62,20.472,62.799c20.698,2.468,37.065,4.968,49.1,7.5
		c10.434,2.233,18.017,1.271,22.75-2.897c5.6-4.969,7.267-14.603,5-28.899C96.653,34.467,96.004,29.733,95.37,24.3z"/>
	
		<linearGradient id="SVGID_1_" gradientUnits="userSpaceOnUse" x1="20528.6543" y1="-78214.8203" x2="20729.8125" y2="-78214.8203" gradientTransform="matrix(-0.5447 -0.8386 0.8386 -0.5447 76833.5859 -25298.3633)">
		<stop  offset="0" style="stop-color:#FFFFFF"/>
		<stop  offset="1" style="stop-color:#FFFFFF;stop-opacity:0"/>
	</linearGradient>
	<path fill="url(#SVGID_1_)" d="M96.37,27.5c-1.268-10.033-1.898-18.283-1.898-24.75c0-6.466,0.698-13.917,2.1-22.35
		c0.699-4.2,1.4-7.75,2.1-10.65c2.167-13.232,0.566-22.167-4.8-26.8c-4.433-3.834-11.634-4.733-21.601-2.7
		c-10.699,2.233-25.217,4.435-43.549,6.602c-4.4,0.302-9.65,0.518-15.75,0.648c-12.201,0.233-22.567-0.1-31.102-1
		c-18.333-2.167-32.85-4.366-43.55-6.6c-9.934-2.034-17.133-1.136-21.6,2.698c-5.367,4.635-6.967,13.565-4.8,26.802
		c0.7,2.896,1.4,6.448,2.1,10.646c1.4,8.437,2.1,15.885,2.1,22.354c0,6.466-0.617,14.716-1.85,24.75l-1.9,13.1
		c-2.167,13.233-0.567,22.167,4.8,26.8c4.434,3.834,11.617,4.734,21.55,2.7c11.1-2.3,26.667-4.634,46.7-7l13.851-0.5
		c10.566-0.2,19.201,0.083,25.899,0.852c20.033,2.365,35.584,4.698,46.65,7c9.967,2.032,17.166,1.135,21.6-2.698
		c5.367-4.636,6.968-13.567,4.802-26.802C97.587,36.866,96.972,32.5,96.37,27.5z"/>
</symbol>
<symbol  id="flash0.ai_x5F_13_x2F_main_x2F__x3C_Path_x3E_" viewBox="-101.896 -75.715 203.791 151.429">
	<path d="M86.439,36.677c-0.633-4.134-1.267-8.967-1.9-14.5c-1.267-11.102-1.9-20.217-1.9-27.352c0-7.133,1.5-14.75,4.5-22.852
		c1.467-4.064,2.95-7.398,4.45-10c7.033-5.398,10.467-10.434,10.3-15.1c-0.167-3.968-2.883-7.385-8.15-10.25
		c-4.6-2.5-10.316-4.218-17.15-5.15c-6.533-0.898-12.117-0.834-16.75,0.2c-4.633,1.065-11.717,1.45-21.25,1.148
		c-10.6-0.333-17.95-0.231-22.05,0.302c-4.434,0.333-9.717,0.563-15.85,0.698c-12.3,0.269-22.733-0.102-31.3-1.102
		c-19.2-2.533-33.8-4.95-43.8-7.25c-10-2.267-17.25-1.283-21.75,2.95c-5.367,5.1-6.967,14.95-4.8,29.55c0.7,3.2,1.4,7.133,2.1,11.8
		c1.4,9.302,2.1,17.52,2.1,24.65l0.1,41.95c-0.467,15.365,2,26.282,7.4,32.75c4.967,5.967,12.133,7.883,21.5,5.75
		c4-0.9,10.7-3.354,20.1-7.354c8.467-3.6,15.333-5.73,20.6-6.396l13.95-0.549c10.633-0.198,19.317,0.115,26.05,0.948
		c19.9,2.534,35.55,5.104,46.95,7.7c9.967,2.269,17.2,1.269,21.7-3C86.99,61.127,88.606,51.276,86.439,36.677z"/>
</symbol>
<g>
	
		<use xlink:href="#flash0.ai_x5F_13_x2F_main_x2F__x3C_Path_x3E_"  width="203.791" height="151.429" x="-101.896" y="-75.715" transform="matrix(2.9371 0 0 -2.9371 303.7817 227.0977)" overflow="visible" opacity="0.24"/>
	
		<use xlink:href="#GuideButtonEN"  width="199.214" height="142.938" id="XMLID_1_" x="-99.607" y="-71.47" transform="matrix(2.9371 0 0 -2.9371 320.1377 214.5459)" overflow="visible"/>
</g>
<g>
	<g>
		<path fill="#76BB92" d="M247.381,174.516v7.724h-49.717v-7.724H247.381z M243.046,230.869v39.828H211.89v6.365h-7.993v-46.193
			H243.046z M242.639,193.483v7.449h-38.607v-7.449H242.639z M204.032,219.628v-7.452h38.607v7.452H204.032z M242.234,156.229v7.449
			h-37.389v-7.449H242.234z M234.918,238.594H211.89v24.381h23.028V238.594z M279.623,227.079c-0.138,0.946-1.084,1.488-2.71,1.761
			c-2.167,19.914-6.909,38.068-27.5,48.223c-1.084-2.168-3.658-5.418-5.825-7.041c18.558-8.537,22.893-24.52,24.384-44.164
			L279.623,227.079z M299.807,263.111c0,3.521,0.542,4.066,3.658,4.066h9.616c3.389,0,4.065-2.713,4.335-21.543
			c1.897,1.49,5.556,2.844,7.858,3.658c-0.677,20.998-2.845,26.146-11.244,26.146h-11.786c-8.94,0-11.107-2.844-11.107-12.328
			v-40.774h-37.389v-45.109H318.5v45.109h-17.609c-0.272,0.135-0.677,0.27-1.084,0.27V263.111z M264.992,151.895
			c4.604,6.772,8.939,15.849,10.7,21.944c-4.47,1.898-6.502,2.575-8.532,3.251c-1.626-6.096-5.961-15.58-10.296-22.486
			L264.992,151.895z M262.553,185.353v28.991h46.735v-28.991H262.553z M317.416,155.009c-0.27,0.814-1.354,1.221-2.71,1.083
			c-2.844,6.233-7.313,15.172-11.106,20.998c-1.626-0.677-5.554-2.438-7.316-3.114c3.389-6.098,7.858-16.121,10.161-22.896
			L317.416,155.009z"/>
		<path fill="#76BB92" d="M383.384,241.438h-35.9v13.004h-8.533v-94.554h44.434V241.438z M374.851,168.286h-27.367v27.5h27.367
			V168.286z M347.483,233.037h27.367v-28.854h-27.367V233.037z M454.64,157.313v107.29c0,6.094-1.49,9.076-5.688,10.566
			c-4.202,1.486-11.651,1.76-23.572,1.76c-0.407-2.574-2.035-6.502-3.389-9.076c4.604,0.133,9.077,0.27,12.735,0.27
			c9.891,0,10.975,0,10.975-3.52v-31.566h-42.266c-3.119,16.393-10.16,32.918-25.739,44.977c-1.354-1.76-4.742-5.012-6.772-6.232
			c23.436-18.016,25.734-44.163,25.734-65.7v-48.768H454.64z M405.603,206.081c0,5.826-0.275,12.056-0.951,18.558H445.7v-25.467
			h-40.098V206.081z M445.7,165.846h-40.098v24.926H445.7V165.846z"/>
	</g>
	<g>
		<path fill="none" stroke="#231F20" stroke-width="3" d="M247.381,174.516v7.724h-49.717v-7.724H247.381z M243.046,230.869v39.828
			H211.89v6.365h-7.993v-46.193H243.046z M242.639,193.483v7.449h-38.607v-7.449H242.639z M204.032,219.628v-7.452h38.607v7.452
			H204.032z M242.234,156.229v7.449h-37.389v-7.449H242.234z M234.918,238.594H211.89v24.381h23.028V238.594z M279.623,227.079
			c-0.138,0.946-1.084,1.488-2.71,1.761c-2.167,19.914-6.909,38.068-27.5,48.223c-1.084-2.168-3.658-5.418-5.825-7.041
			c18.558-8.537,22.893-24.52,24.384-44.164L279.623,227.079z M299.807,263.111c0,3.521,0.542,4.066,3.658,4.066h9.616
			c3.389,0,4.065-2.713,4.335-21.543c1.897,1.49,5.556,2.844,7.858,3.658c-0.677,20.998-2.845,26.146-11.244,26.146h-11.786
			c-8.94,0-11.107-2.844-11.107-12.328v-40.774h-37.389v-45.109H318.5v45.109h-17.609c-0.272,0.135-0.677,0.27-1.084,0.27V263.111z
			 M264.992,151.895c4.604,6.772,8.939,15.849,10.7,21.944c-4.47,1.898-6.502,2.575-8.532,3.251
			c-1.626-6.096-5.961-15.58-10.296-22.486L264.992,151.895z M262.553,185.353v28.991h46.735v-28.991H262.553z M317.416,155.009
			c-0.27,0.814-1.354,1.221-2.71,1.083c-2.844,6.233-7.313,15.172-11.106,20.998c-1.626-0.677-5.554-2.438-7.316-3.114
			c3.389-6.098,7.858-16.121,10.161-22.896L317.416,155.009z"/>
		<path fill="none" stroke="#231F20" stroke-width="3" d="M383.384,241.438h-35.9v13.004h-8.533v-94.554h44.434V241.438z
			 M374.851,168.286h-27.367v27.5h27.367V168.286z M347.483,233.037h27.367v-28.854h-27.367V233.037z M454.64,157.313v107.29
			c0,6.094-1.49,9.076-5.688,10.566c-4.202,1.486-11.651,1.76-23.572,1.76c-0.407-2.574-2.035-6.502-3.389-9.076
			c4.604,0.133,9.077,0.27,12.735,0.27c9.891,0,10.975,0,10.975-3.52v-31.566h-42.266c-3.119,16.393-10.16,32.918-25.739,44.977
			c-1.354-1.76-4.742-5.012-6.772-6.232c23.436-18.016,25.734-44.163,25.734-65.7v-48.768H454.64z M405.603,206.081
			c0,5.826-0.275,12.056-0.951,18.558H445.7v-25.467h-40.098V206.081z M445.7,165.846h-40.098v24.926H445.7V165.846z"/>
	</g>
</g>
</svg>
