<?xml version="1.0" encoding="utf-8"?>
<!-- Generator: Adobe Illustrator 16.0.0, SVG Export Plug-In . SVG Version: 6.00 Build 0)  -->
<!DOCTYPE svg PUBLIC "-//W3C//DTD SVG 1.1//EN" "http://www.w3.org/Graphics/SVG/1.1/DTD/svg11.dtd">
<svg version="1.1" id="Layer_1" xmlns="http://www.w3.org/2000/svg" xmlns:xlink="http://www.w3.org/1999/xlink" x="0px" y="0px"
	 width="502px" height="216px" viewBox="0 0 502 216" enable-background="new 0 0 502 216" xml:space="preserve">
<g>
	<g>
		<path fill="#FFFF45" d="M40.838,16.413c8.315-0.333,76.614-5.211,91.028-5.321l0.111,8.315c-1.442-0.111-2.772-0.111-4.103-0.111
			c-6.431,0-11.864,1.108-18.96,5.655c-16.631,9.979-32.708,27.83-32.708,42.132c0,15.523,10.866,24.725,38.363,28.273l-3.659,7.761
			c-31.489-4.546-43.242-16.298-43.242-36.034c0-15.633,15.412-34.593,35.702-47.343c-12.196,0.887-44.904,3.326-59.208,4.657
			c-0.332,0.887-1.552,1.663-2.439,1.773L40.838,16.413z M112.685,38.256c5.322,3.991,11.643,10.533,15.079,15.3l-4.213,3.437
			c-3.104-4.878-9.868-11.753-14.636-15.411L112.685,38.256z M124.66,28.499c5.433,3.991,11.863,10.422,15.079,15.3l-4.213,3.327
			c-2.994-4.435-9.425-11.31-14.636-15.301L124.66,28.499z"/>
		<path fill="#FFFF45" d="M241.752,41.138c-9.981,3.438-22.066,5.544-33.485,6.875c3.437,5.987,10.2,14.303,18.293,17.407
			l-4.434,6.32c-1.553-0.776-4.435-2.106-6.431-3.326c-2.439-0.887-7.873-1.663-13.084-1.663c-1.552,0-3.104,0.111-4.546,0.222
			l-1.552-6.098c3.77-0.222,9.203,0,12.418,0.444c-2.994-3.216-6.542-7.983-8.76-12.529c-7.429,0.776-15.633,1.109-29.714,1.109
			c-5.433,0-11.531,0-16.52-0.111l-0.111-6.985c4.989,0.111,11.42,0.222,16.964,0.222c9.092,0,18.073,0,27.054-0.776
			c-1.221-3.437-2.994-9.757-4.325-14.747c-4.435,0.444-9.424,0.666-13.97,0.666c-5.987,0-13.638,0-18.849-0.222V21.07
			c6.652,0.333,13.971,0.333,18.737,0.333c3.992,0,8.539-0.222,12.75-0.554c-0.997-5.101-2.106-11.199-2.994-17.407l11.422,0.11
			c0,1.331-1,2.106-2.995,2.439c0.666,4.768,1.442,9.868,2.33,14.192c10.422-0.998,21.621-3.215,29.714-6.431l1.885,6.875
			c-8.094,2.993-19.071,5.1-30.157,6.319c1.44,5.876,2.882,11.088,4.212,14.524c11.753-1.219,24.503-3.77,34.593-7.317
			L241.752,41.138z M222.237,99.792c-6.098,0.443-13.416,0.665-24.392,0.665c-17.962-0.111-31.932-5.876-31.71-18.405
			c0.11-6.542,5.875-13.527,13.083-17.518l4.99,5.1c-6.432,3.437-10.201,8.093-10.201,12.307c0,7.872,9.757,11.309,23.838,11.42
			c8.315,0,17.075-0.443,24.614-0.998L222.237,99.792z"/>
		<path fill="#FFFF45" d="M325.912,25.727c-9.424,3.327-21.951,5.433-34.039,6.32c-4.656,25.39-11.42,50.669-20.289,69.296
			l-7.982-2.994c9.092-17.851,15.744-40.802,20.068-65.97c-2.217,0.111-17.074,0.222-20.4,0.111l-0.111-7.54
			c1.773,0.111,4.102,0.111,6.652,0.111c0.998,0,12.084,0,14.969-0.111c1.107-7.096,2.217-14.857,2.883-21.621l11.418,1.109
			c-0.109,1.219-1.662,2.106-3.215,2.217c-0.664,4.878-1.775,10.866-2.771,17.629c10.867-0.998,21.842-2.882,31.045-6.209
			L325.912,25.727z M355.406,99.569c-3.328,0.111-6.766,0.222-10.201,0.222c-10.422,0-20.289-0.777-26.277-2.44
			c-7.873-2.217-12.418-7.982-12.309-15.3c0.111-4.879,2.219-10.422,6.875-16.077l6.652,2.883c-3.881,4.546-5.764,8.87-5.764,12.307
			c0,8.759,8.426,10.977,28.605,10.977c4.102,0,8.314-0.111,12.418-0.444V99.569z M312.166,46.127
			c11.418-3.658,27.162-5.987,40.246-5.654v7.54c-12.529-0.333-27.055,1.441-38.363,4.989L312.166,46.127z"/>
		<path fill="#FFFF45" d="M456.975,94.469c-9.535-7.54-21.621-14.747-33.262-18.516c0.221,4.324-0.555,9.979-1.441,12.861
			c-0.889,9.203-9.426,12.75-19.627,12.75c-14.301,0-25.611-6.985-25.721-18.183c-0.221-11.198,11.529-18.073,25.5-18.184
			c3.881,0,8.871,0.221,12.973,0.998c0-2.994-0.553-5.544-0.664-8.094c-1-14.525-1.887-37.808-1.996-53.774l11.529,0.666
			c0,1.109-0.996,2.106-2.883,2.328c-0.111,2.994,0,17.629,0,20.956c7.207,0,23.396-1.22,36.813-3.548l0.775,7.872
			c-12.639,1.996-29.049,3.104-37.475,3.215c0,6.32,0.221,8.87,1.883,31.821c14.303,4.213,27.83,11.753,38.695,19.736
			L456.975,94.469z M402.203,71.851c-10.646,0.222-18.072,4.657-18.072,10.977c0,8.094,8.758,11.642,17.629,11.642
			c7.762,0,14.191-2.772,14.191-10.644c0-2.55,0-7.096-0.221-10.312C411.295,72.184,406.414,71.851,402.203,71.851z"/>
		<path fill="#FFFF45" d="M123.883,134.17c-0.111,0.555-0.665,0.998-1.331,1.221c-4.103,13.748-9.646,26.387-16.298,36.699
			c4.768,2.773,10.201,6.209,14.303,9.201l-4.657,7.318c-3.992-3.104-9.646-6.762-14.303-9.646
			c-10.201,14.193-23.284,25.615-40.026,33.707c-1.22-1.885-4.102-4.547-6.098-5.764c16.188-7.539,29.16-18.738,39.25-31.934
			c-8.205-4.545-16.298-8.426-24.503-11.529l4.213-6.211c8.094,2.883,16.409,6.652,24.946,11.199
			c5.766-9.092,10.311-18.738,13.416-29.381H75.209c-6.763,11.309-15.855,22.506-25.612,30.49c-1.442-1.332-4.435-3.77-6.32-4.99
			c14.525-11.088,28.273-31.047,34.926-50.004l10.533,2.438c-0.443,1.221-1.552,1.553-2.994,1.443
			c-1.552,3.658-4.102,9.09-6.208,13.193h36.81l1.552-0.445L123.883,134.17z"/>
		<path fill="#FFFF45" d="M240.752,122.529c-0.442,0.553-1.107,0.887-2.105,0.887c-0.333,0-0.664,0-1.109-0.109
			c-8.536,8.646-20.844,18.736-31.599,26.498c0.887,0.332,2.218,0.998,2.66,1.219c-0.221,0.666-1.218,1.332-2.439,1.441v59.541
			h-8.094v-56.99c-11.752,8.314-27.053,17.295-42.242,24.725c-1.109-1.773-3.105-4.547-4.657-6.098
			c30.269-13.971,63.419-37.697,81.271-57.322L240.752,122.529z"/>
		<path fill="#FFFF45" d="M356.404,133.617c-0.334,0.553-0.887,0.887-1.664,1.107c-10.311,15.744-27.717,32.266-44.793,44.572
			c8.537,6.875,17.076,15.41,22.729,21.621l-6.764,5.877c-11.643-13.639-33.484-31.932-52.223-42.91l5.322-5.652
			c7.873,4.432,16.744,10.309,24.725,16.408c14.969-10.645,30.16-24.947,38.918-37.809h-81.381v-7.539h87.258l1.33-0.666
			L356.404,133.617z"/>
		<path fill="#FFFF45" d="M372.934,157.898h92.58v7.873h-88.369c-0.666,1.107-2.107,1.883-3.549,2.104L372.934,157.898z"/>
	</g>
	<g opacity="0.9">
		<path fill="none" stroke="#231F20" stroke-width="3" d="M40.838,16.413c8.315-0.333,76.614-5.211,91.028-5.321l0.111,8.315
			c-1.442-0.111-2.772-0.111-4.103-0.111c-6.431,0-11.864,1.108-18.96,5.655c-16.631,9.979-32.708,27.83-32.708,42.132
			c0,15.523,10.866,24.725,38.363,28.273l-3.659,7.761c-31.489-4.546-43.242-16.298-43.242-36.034
			c0-15.633,15.412-34.593,35.702-47.343c-12.196,0.887-44.904,3.326-59.208,4.657c-0.332,0.887-1.552,1.663-2.439,1.773
			L40.838,16.413z M112.685,38.256c5.322,3.991,11.643,10.533,15.079,15.3l-4.213,3.437c-3.104-4.878-9.868-11.753-14.636-15.411
			L112.685,38.256z M124.66,28.499c5.433,3.991,11.863,10.422,15.079,15.3l-4.213,3.327c-2.994-4.435-9.425-11.31-14.636-15.301
			L124.66,28.499z"/>
		<path fill="none" stroke="#231F20" stroke-width="3" d="M241.752,41.138c-9.981,3.438-22.066,5.544-33.485,6.875
			c3.437,5.987,10.2,14.303,18.293,17.407l-4.434,6.32c-1.553-0.776-4.435-2.106-6.431-3.326c-2.439-0.887-7.873-1.663-13.084-1.663
			c-1.552,0-3.104,0.111-4.546,0.222l-1.552-6.098c3.77-0.222,9.203,0,12.418,0.444c-2.994-3.216-6.542-7.983-8.76-12.529
			c-7.429,0.776-15.633,1.109-29.714,1.109c-5.433,0-11.531,0-16.52-0.111l-0.111-6.985c4.989,0.111,11.42,0.222,16.964,0.222
			c9.092,0,18.073,0,27.054-0.776c-1.221-3.437-2.994-9.757-4.325-14.747c-4.435,0.444-9.424,0.666-13.97,0.666
			c-5.987,0-13.638,0-18.849-0.222V21.07c6.652,0.333,13.971,0.333,18.737,0.333c3.992,0,8.539-0.222,12.75-0.554
			c-0.997-5.101-2.106-11.199-2.994-17.407l11.422,0.11c0,1.331-1,2.106-2.995,2.439c0.666,4.768,1.442,9.868,2.33,14.192
			c10.422-0.998,21.621-3.215,29.714-6.431l1.885,6.875c-8.094,2.993-19.071,5.1-30.157,6.319c1.44,5.876,2.882,11.088,4.212,14.524
			c11.753-1.219,24.503-3.77,34.593-7.317L241.752,41.138z M222.237,99.792c-6.098,0.443-13.416,0.665-24.392,0.665
			c-17.962-0.111-31.932-5.876-31.71-18.405c0.11-6.542,5.875-13.527,13.083-17.518l4.99,5.1
			c-6.432,3.437-10.201,8.093-10.201,12.307c0,7.872,9.757,11.309,23.838,11.42c8.315,0,17.075-0.443,24.614-0.998L222.237,99.792z"
			/>
		<path fill="none" stroke="#231F20" stroke-width="3" d="M325.912,25.727c-9.424,3.327-21.951,5.433-34.039,6.32
			c-4.656,25.39-11.42,50.669-20.289,69.296l-7.982-2.994c9.092-17.851,15.744-40.802,20.068-65.97
			c-2.217,0.111-17.074,0.222-20.4,0.111l-0.111-7.54c1.773,0.111,4.102,0.111,6.652,0.111c0.998,0,12.084,0,14.969-0.111
			c1.107-7.096,2.217-14.857,2.883-21.621l11.418,1.109c-0.109,1.219-1.662,2.106-3.215,2.217
			c-0.664,4.878-1.775,10.866-2.771,17.629c10.867-0.998,21.842-2.882,31.045-6.209L325.912,25.727z M355.406,99.569
			c-3.328,0.111-6.766,0.222-10.201,0.222c-10.422,0-20.289-0.777-26.277-2.44c-7.873-2.217-12.418-7.982-12.309-15.3
			c0.111-4.879,2.219-10.422,6.875-16.077l6.652,2.883c-3.881,4.546-5.764,8.87-5.764,12.307c0,8.759,8.426,10.977,28.605,10.977
			c4.102,0,8.314-0.111,12.418-0.444V99.569z M312.166,46.127c11.418-3.658,27.162-5.987,40.246-5.654v7.54
			c-12.529-0.333-27.055,1.441-38.363,4.989L312.166,46.127z"/>
		<path fill="none" stroke="#231F20" stroke-width="3" d="M456.975,94.469c-9.535-7.54-21.621-14.747-33.262-18.516
			c0.221,4.324-0.555,9.979-1.441,12.861c-0.889,9.203-9.426,12.75-19.627,12.75c-14.301,0-25.611-6.985-25.721-18.183
			c-0.221-11.198,11.529-18.073,25.5-18.184c3.881,0,8.871,0.221,12.973,0.998c0-2.994-0.553-5.544-0.664-8.094
			c-1-14.525-1.887-37.808-1.996-53.774l11.529,0.666c0,1.109-0.996,2.106-2.883,2.328c-0.111,2.994,0,17.629,0,20.956
			c7.207,0,23.396-1.22,36.813-3.548l0.775,7.872c-12.639,1.996-29.049,3.104-37.475,3.215c0,6.32,0.221,8.87,1.883,31.821
			c14.303,4.213,27.83,11.753,38.695,19.736L456.975,94.469z M402.203,71.851c-10.646,0.222-18.072,4.657-18.072,10.977
			c0,8.094,8.758,11.642,17.629,11.642c7.762,0,14.191-2.772,14.191-10.644c0-2.55,0-7.096-0.221-10.312
			C411.295,72.184,406.414,71.851,402.203,71.851z"/>
		<path fill="none" stroke="#231F20" stroke-width="3" d="M123.883,134.17c-0.111,0.555-0.665,0.998-1.331,1.221
			c-4.103,13.748-9.646,26.387-16.298,36.699c4.768,2.773,10.201,6.209,14.303,9.201l-4.657,7.318
			c-3.992-3.104-9.646-6.762-14.303-9.646c-10.201,14.193-23.284,25.615-40.026,33.707c-1.22-1.885-4.102-4.547-6.098-5.764
			c16.188-7.539,29.16-18.738,39.25-31.934c-8.205-4.545-16.298-8.426-24.503-11.529l4.213-6.211
			c8.094,2.883,16.409,6.652,24.946,11.199c5.766-9.092,10.311-18.738,13.416-29.381H75.209
			c-6.763,11.309-15.855,22.506-25.612,30.49c-1.442-1.332-4.435-3.77-6.32-4.99c14.525-11.088,28.273-31.047,34.926-50.004
			l10.533,2.438c-0.443,1.221-1.552,1.553-2.994,1.443c-1.552,3.658-4.102,9.09-6.208,13.193h36.81l1.552-0.445L123.883,134.17z"/>
		<path fill="none" stroke="#231F20" stroke-width="3" d="M240.752,122.529c-0.442,0.553-1.107,0.887-2.105,0.887
			c-0.333,0-0.664,0-1.109-0.109c-8.536,8.646-20.844,18.736-31.599,26.498c0.887,0.332,2.218,0.998,2.66,1.219
			c-0.221,0.666-1.218,1.332-2.439,1.441v59.541h-8.094v-56.99c-11.752,8.314-27.053,17.295-42.242,24.725
			c-1.109-1.773-3.105-4.547-4.657-6.098c30.269-13.971,63.419-37.697,81.271-57.322L240.752,122.529z"/>
		<path fill="none" stroke="#231F20" stroke-width="3" d="M356.404,133.617c-0.334,0.553-0.887,0.887-1.664,1.107
			c-10.311,15.744-27.717,32.266-44.793,44.572c8.537,6.875,17.076,15.41,22.729,21.621l-6.764,5.877
			c-11.643-13.639-33.484-31.932-52.223-42.91l5.322-5.652c7.873,4.432,16.744,10.309,24.725,16.408
			c14.969-10.645,30.16-24.947,38.918-37.809h-81.381v-7.539h87.258l1.33-0.666L356.404,133.617z"/>
		<path fill="none" stroke="#231F20" stroke-width="3" d="M372.934,157.898h92.58v7.873h-88.369
			c-0.666,1.107-2.107,1.883-3.549,2.104L372.934,157.898z"/>
	</g>
</g>
</svg>
