<?xml version="1.0" encoding="utf-8"?>
<!-- Generator: Adobe Illustrator 16.0.0, SVG Export Plug-In . SVG Version: 6.00 Build 0)  -->
<!DOCTYPE svg PUBLIC "-//W3C//DTD SVG 1.1//EN" "http://www.w3.org/Graphics/SVG/1.1/DTD/svg11.dtd">
<svg version="1.1" id="Layer_1" xmlns="http://www.w3.org/2000/svg" xmlns:xlink="http://www.w3.org/1999/xlink" x="0px" y="0px"
	 width="500px" height="367px" viewBox="0 0 500 367" enable-background="new 0 0 500 367" xml:space="preserve">
<symbol  id="HomeIcon" viewBox="0 -46.512 62.016 46.512">
	<use xlink:href="#home.ai"  width="612" height="459" y="-459" transform="matrix(0.1013 0 0 0.1013 0 0)" overflow="visible"/>
</symbol>
<symbol  id="home.ai" viewBox="0 -459 612 459">
	<polygon fill-rule="evenodd" clip-rule="evenodd" fill="#76BB92" points="497.25,-229.5 497.25,-459 344.25,-459 344.25,-344.25 
		267.75,-344.25 267.75,-459 114.75,-459 114.75,-229.5 0,-229.5 306,0 612,-229.5 	"/>
</symbol>
<g>
	<title>background</title>
	<rect id="canvas_background" x="-1" y="-1" fill="none" width="502" height="369"/>
	<g id="canvasGrid" display="none">
		<rect display="inline" fill="none" width="500" height="367"/>
	</g>
</g>
<g>
	<title>Layer 1</title>
	<g id="svg_103">
		<g id="svg_97" transform="matrix(0.9964919206141825,0,0,0.9964919206141825,-1080.320104772352,-2368.047301077259) ">
			
				<title  stroke="null" transform="translate(1.0034936666488647,4.547473508864641e-13) translate(0,-38.380226135253906) translate(0,-30.735713958740234) translate(1541.9998779296875,5.684341886080802e-14) translate(-1.1368683772161603e-13,2252.599853515625) ">
				background</title>
			<rect id="svg_95" x="1084.004" y="2386.484" fill="none" width="501.999" height="360"/>
			<g id="svg_94" display="none">
				<rect id="svg_98" x="1085.003" y="2387.484" display="inline" fill="none" width="500" height="358"/>
			</g>
		</g>
		
			<g id="svg_92" transform="matrix(0.9964919206141825,0,0,0.9964919206141825,-1080.320104772352,-2368.047301077259) " opacity="0.24">
			<path id="svg_93" d="M1538.403,2480.283c5.1-34.4,1.3-57.5-11.4-69.6c-10.6-10-27.6-12.4-51.1-7.1
				c-26.8,6.1-63.599,12.1-110.5,18.1c-15.8,1.9-36.2,2.7-61.3,2.2l-32.8-1.299c-12.4-1.601-28.6-6.6-48.5-15.101
				c-22.1-9.3-37.8-15.2-47.2-17.3c-22.1-5-39-0.5-50.6,13.601c-12.7,15.2-18.599,40.9-17.4,77.1l-0.2,98.7
				c0,16.8-1.7,36.1-5,57.999c-1.7,11-3.3,20.2-5,27.801c-5.1,34.4-1.4,57.5,11.3,69.6c10.6,10,27.7,12.2,51.2,6.9
				c23.5-5.4,57.9-11.101,103.1-17.1c20.1-2.3,44.7-3.201,73.699-2.6c14.5,0.3,26.901,0.9,37.301,1.699
				c9.6,1.301,26.9,1.5,51.9,0.701c22.4-0.701,39.1,0.2,50,2.699c10.901,2.401,24,2.601,39.501,0.501c16-2.2,29.5-6.2,40.3-12.1
				c12.4-6.7,18.8-14.8,19.1-24.1c0.4-11-7.7-22.801-24.2-35.601c-3.5-6.1-7-13.999-10.5-23.499c-7.1-19-10.601-37.001-10.601-53.7
				c0-16.8,1.5-38.3,4.5-64.3C1535.403,2501.383,1536.903,2490.083,1538.403,2480.283"/>
		</g>
		<g id="svg_100" transform="matrix(0.9964919206141825,0,0,0.9964919206141825,-1080.320104772352,-2368.047301077259) ">
			
				<title  stroke="null" transform="translate(1.0034936666488647,4.547473508864641e-13) translate(0,-38.380226135253906) translate(0,-30.735713958740234) translate(1541.9998779296875,5.684341886080802e-14) translate(-1.1368683772161603e-13,2252.599853515625) ">
				background</title>
			<rect id="svg_85" x="1043.603" y="2376.384" fill="none" width="582.8" height="425.001"/>
			<g id="svg_84" display="none">
				<rect id="svg_101" x="1045.403" y="2378.184" display="inline" fill="none" width="579.2" height="421.399"/>
			</g>
		</g>
		<g id="svg_139">
			<g id="svg_136" transform="matrix(1.5526751671084191,0,0,1.5526751671084191,-643.6374400916917,-2713.1193832694403) ">
				
					<title  stroke="null" transform="translate(-0.6440497040748596,0) translate(-0.6440497040748596,0) translate(-0.6440497040748596,0) translate(-0.6440497040748596,0) translate(-0.6440497040748596,0) translate(-0.6440497040748596,0) translate(-0.6440497040748596,0) translate(0,0.6440497040748596) translate(0,0.6440497040748596) translate(0,0.6440497040748596) translate(0,0.6440497040748596) translate(0,0.6440497040748596) translate(0,0.6440497040748596) translate(0,0.6440497040748596) translate(0,0.6440497040748596) translate(0,0.6440497040748596) translate(0,0.6440497040748596) translate(1059.7076416015625,0) translate(0,1429.1116943359375) ">
					background</title>
				<rect id="svg_134" x="418.199" y="1760.552" fill="none" width="325" height="237"/>
				<g id="svg_133" display="none">
					<rect id="svg_137" x="419.199" y="1761.552" display="inline" fill="none" width="323" height="235"/>
				</g>
			</g>
		</g>
	</g>
	<g>
		<g id="Layer_3_1_">
			<path fill-rule="evenodd" clip-rule="evenodd" fill="#9EFFC5" d="M489.751,112.985c-3.194,26.029-4.791,47.387-4.791,64.074
				c0,16.687,1.757,35.93,5.27,57.727c1.756,10.939,3.512,20.162,5.27,27.667c5.43,34.253,1.438,57.327-11.977,69.225
				c-11.258,9.979-29.422,12.335-54.494,7.065c-27.944-5.908-64.513-11.577-109.704-17.006c-11.098-0.8-24.353-1.358-39.763-1.678
				c-30.74-0.639-56.849,0.2-78.328,2.516c-46.947,5.828-83.516,11.498-109.704,17.006c-24.991,5.35-43.115,3.035-54.374-6.945
				c-13.494-11.896-17.526-34.972-12.096-69.225c1.757-7.505,3.513-16.728,5.271-27.665c3.512-21.798,5.269-41.04,5.269-57.729
				c0-16.767-1.557-38.125-4.671-64.075c-1.598-13.015-3.193-24.353-4.79-34.014c-5.431-34.252-1.397-57.327,12.095-69.224
				c11.178-9.98,29.303-12.335,54.374-7.066c28.825,6.068,68.027,12.056,117.609,17.963l34.972,1.319
				c26.589,0.478,48.306-0.24,65.154-2.155c49.582-5.91,88.786-11.897,117.61-17.965c24.99-5.35,43.155-3.035,54.492,6.945
				c13.414,11.897,17.406,34.972,11.977,69.225C492.824,88.631,491.268,99.969,489.751,112.985z"/>
			
				<linearGradient id="SVGID_1_" gradientUnits="userSpaceOnUse" x1="177.8408" y1="-2297.4624" x2="724.5752" y2="-2297.4624" gradientTransform="matrix(-0.48 0.739 -0.739 -0.48 -1207.1449 -1276.5286)">
				<stop  offset="0" style="stop-color:#FFFFFF"/>
				<stop  offset="1" style="stop-color:#FFFFFF;stop-opacity:0"/>
			</linearGradient>
			<path fill-rule="evenodd" clip-rule="evenodd" fill="url(#SVGID_1_)" d="M492.146,105.319
				c-3.034,24.033-4.551,43.793-4.551,59.283c0,15.49,1.675,33.336,5.029,53.536c1.677,10.06,3.353,18.563,5.029,25.51
				c5.19,31.697,1.357,53.096-11.496,64.194c-10.619,9.182-27.866,11.338-51.74,6.468c-25.629-5.351-60.402-10.619-104.315-15.811
				c-10.539-0.718-23.114-1.236-37.726-1.557c-29.224-0.559-54.055,0.24-74.495,2.396c-43.915,5.189-78.686,10.46-104.315,15.81
				c-23.794,4.87-41.04,2.715-51.738-6.467c-12.855-11.099-16.688-32.497-11.499-64.194c1.678-6.946,3.355-15.45,5.03-25.511
				c3.354-20.201,5.031-38.045,5.031-53.535s-1.477-35.25-4.432-59.284l-4.551-31.379c-5.189-31.698-1.358-53.096,11.496-64.194
				c10.62-9.182,27.826-11.338,51.62-6.467c26.588,5.509,63.875,11.098,111.861,16.767l33.175,1.198
				c25.311,0.479,45.99-0.2,62.039-2.036c47.986-5.67,85.232-11.257,111.741-16.768c23.872-4.87,41.119-2.714,51.738,6.467
				c12.855,11.098,16.688,32.497,11.499,64.194C495.061,82.883,493.584,93.342,492.146,105.319z"/>
		</g>
		<g>
			
				<use xlink:href="#HomeIcon"  width="62.016" height="46.512" y="-46.512" transform="matrix(2.7181 0 0 -2.7181 175.0132 102.5347)" overflow="visible"/>
			<g>
				<g>
					<polygon fill="none" stroke="#231F20" stroke-width="3" points="311.974,165.748 311.974,228.96 269.832,228.96 
						269.832,197.354 248.761,197.354 248.761,228.96 206.62,228.96 206.62,165.748 175.013,165.748 259.297,102.535 
						343.58,165.748 					"/>
				</g>
			</g>
		</g>
	</g>
</g>
</svg>
