<?xml version="1.0" encoding="utf-8"?>
<!-- Generator: Adobe Illustrator 16.0.0, SVG Export Plug-In . SVG Version: 6.00 Build 0)  -->
<!DOCTYPE svg PUBLIC "-//W3C//DTD SVG 1.1//EN" "http://www.w3.org/Graphics/SVG/1.1/DTD/svg11.dtd">
<svg version="1.1" id="menus_rp" image-rendering="auto"
	 xmlns="http://www.w3.org/2000/svg" xmlns:xlink="http://www.w3.org/1999/xlink" x="0px" y="0px" width="500px" height="229.895px"
	 viewBox="0 0 500 229.895" enable-background="new 0 0 500 229.895" xml:space="preserve">
<g id="LangFRButton">
	<path fill="#9EFFC5" d="M489.287,75.365c1.59-8.682,3.221-16.243,4.895-22.688c5.688-22.849,1.504-38.24-12.546-46.176
		C469.76-0.156,450.732-1.7,424.555,1.867c-30.192,4.048-71.258,8.043-123.195,11.983c-17.646,1.277-40.396,1.757-68.244,1.438
		l-36.633-0.878c-51.937-3.94-93.001-7.936-123.193-11.983C47.027-1.088,28.042,0.484,16.333,7.141
		C2.2,15.076-2.024,30.467,3.664,53.314c1.672,6.444,3.344,14.009,5.018,22.689c3.261,17.31,4.892,31.557,4.892,42.741
		c0,11.131-1.84,23.968-5.519,38.506c-1.84,7.296-3.68,13.448-5.521,18.454c-5.687,22.849-1.464,38.24,12.67,46.176
		c11.793,6.657,30.779,8.202,56.956,4.634c27.432-3.675,65.737-7.457,114.914-11.346c22.499-1.543,49.846-2.103,82.045-1.676
		c16.143,0.212,30.025,0.584,41.649,1.115c47.339,3.624,85.644,7.403,114.914,11.347c26.263,3.515,45.289,1.942,57.081-4.714
		c14.052-7.937,18.231-23.328,12.545-46.177c-1.84-5.007-3.681-11.157-5.521-18.454c-3.68-14.54-5.521-27.375-5.521-38.507
		S485.942,92.727,489.287,75.365"/>
	
		<linearGradient id="SVGID_1_" gradientUnits="userSpaceOnUse" x1="400.9063" y1="370.175" x2="126.0413" y2="78.123" gradientTransform="matrix(1 0 0 -1 0 339.895)">
		<stop  offset="0" style="stop-color:#FFFFFF"/>
		<stop  offset="1" style="stop-color:#FFFFFF;stop-opacity:0"/>
	</linearGradient>
	<path fill="url(#SVGID_1_)" d="M491.797,76.386c1.506-8.657,3.054-16.218,4.644-22.682c5.437-22.912,1.421-38.38-12.046-46.405
		c-11.121-6.638-29.188-8.194-54.193-4.674c-27.768,3.982-66.781,8.022-117.048,12.122c-16.811,1.326-38.472,1.814-64.984,1.47
		l-34.75-0.865c-50.263-4.099-89.32-8.138-117.171-12.119C71.323-0.288,53.3,1.271,42.176,7.908
		C28.71,15.93,24.697,31.397,30.133,54.311L34.9,76.995c3.095,17.372,4.642,31.655,4.642,42.852c0,11.197-1.757,24.097-5.27,38.699
		c-1.755,7.271-3.512,13.42-5.269,18.44c-5.436,22.913-1.421,38.381,12.044,46.401c11.208,6.639,29.272,8.196,54.196,4.676
		c26.846-3.866,63.269-7.676,109.269-11.428c21.41-1.56,47.419-2.135,78.032-1.729c15.306,0.229,28.479,0.604,39.519,1.124
		c45.997,3.752,82.422,7.561,109.27,11.429c25.007,3.521,43.071,1.963,54.194-4.674c13.466-8.024,17.479-23.493,12.043-46.405
		c-1.757-5.021-3.514-11.168-5.269-18.438c-3.514-14.603-5.271-27.503-5.271-38.698C487.03,108.043,488.619,93.759,491.797,76.386"
		/>
	<path fill="#76BB92" stroke="#000000" stroke-width="3" stroke-miterlimit="10" d="M409.375,98.18
		c-5.103,0-9.534,1.506-13.299,4.516c-3.682,3.012-5.521,6.941-5.521,11.794c0,3.178,0.754,6.063,2.258,8.654
		c1.507,2.594,3.641,4.518,6.399,5.771c0.166,0.083,1.589,0.543,4.265,1.379c2.678,0.837,4.686,1.757,6.022,2.761
		c1.338,1.003,2.007,2.258,2.007,3.764c0,1.758-0.752,3.054-2.258,3.89c-1.507,0.836-3.096,1.254-4.77,1.254
		c-2.593,0-6.521-1.421-11.793-4.265c-0.168-0.084-0.293-0.127-0.376-0.127c-0.168,0-0.293,0.085-0.376,0.252
		c-0.334,1.088-0.92,2.719-1.757,4.893c-0.837,2.259-1.464,3.974-1.882,5.144c-0.083,0-0.125,0.042-0.125,0.126
		c0,0.083,0.084,0.208,0.25,0.376c3.849,2.844,8.824,4.266,14.93,4.266c5.354,0,10.287-1.296,14.804-3.889
		c4.519-2.593,6.774-6.272,6.774-11.04c0-2.009-0.377-3.806-1.13-5.396c-0.669-1.59-1.799-2.97-3.388-4.141
		c-1.59-1.17-2.928-2.048-4.016-2.635c-1.171-0.586-2.843-1.38-5.018-2.384c-3.85-1.841-5.979-2.844-6.398-3.011
		c-1.59-0.92-2.384-2.593-2.384-5.018c0-1.423,0.753-2.594,2.259-3.513c1.422-1.005,2.928-1.506,4.518-1.506
		c2.091,0,4.725,0.837,7.902,2.509c0.084,0.083,0.166,0.125,0.251,0.125c0.083,0,0.209-0.083,0.376-0.251
		c0.586-1.086,1.422-2.675,2.509-4.768c1.089-2.175,1.883-3.806,2.386-4.893c0-0.336-0.042-0.544-0.125-0.627
		C418.407,99.518,413.975,98.18,409.375,98.18"/>
	<path fill="#76BB92" stroke="#000000" stroke-width="3" stroke-miterlimit="10" d="M362.205,78.86
		c-1.675,1.673-2.51,3.598-2.51,5.771c0,2.091,0.794,4.099,2.383,6.021c1.507,1.924,3.305,2.886,5.396,2.886
		c2.425,0,4.517-0.878,6.272-2.635c1.839-1.673,2.759-3.722,2.759-6.146c0-2.091-0.92-4.015-2.759-5.771
		c-1.758-1.757-3.682-2.635-5.771-2.635C365.801,76.351,363.877,77.188,362.205,78.86"/>
	<path fill="#76BB92" stroke="#000000" stroke-width="3" stroke-miterlimit="10" d="M362.957,101.944
		c-0.334,0-0.501,0.167-0.501,0.501c0.083,3.43,0.167,7.277,0.25,11.542c0.085,4.267,0.168,8.239,0.251,11.919
		c0.168,3.597,0.293,6.983,0.376,10.161c0.085,3.096,0.127,5.604,0.127,7.526l0.125,2.76c0,2.091,0.041,3.682,0.126,4.77
		c0,0.25,0.166,0.376,0.501,0.376c0.92-0.084,2.76-0.209,5.521-0.376c2.76-0.084,4.768-0.168,6.021-0.251
		c0.251,0,0.376-0.126,0.376-0.376c0.586-18.148,1.13-34.375,1.631-48.677c0-0.334-0.084-0.501-0.25-0.501
		c-0.085,0-0.168,0.042-0.251,0.125c-0.754,0-1.799,0.042-3.137,0.126c-1.422,0.083-2.51,0.167-3.264,0.25
		C367.349,101.818,364.714,101.859,362.957,101.944"/>
	<path fill="#76BB92" stroke="#000000" stroke-width="3" stroke-miterlimit="10" d="M348.279,127.159
		c0.334-4.517,0.502-7.192,0.502-8.028c0-5.604-1.631-10.121-4.894-13.55c-3.262-3.429-7.734-5.144-13.423-5.144
		c-6.857,0-13.299,2.385-19.32,7.15c-0.168,0.167-0.251,0.292-0.251,0.376s0.042,0.125,0.126,0.125
		c0.754,2.092,1.757,5.312,3.012,9.66c0,0.251,0.126,0.376,0.376,0.376c0.084,0,0.209-0.042,0.377-0.125
		c4.769-3.681,9.702-5.521,14.805-5.521c1.84,0,3.387,0.712,4.643,2.133c1.255,1.34,1.882,3.012,1.882,5.019
		c0,0.753-0.043,1.381-0.126,1.882c-0.084,0.334-0.167,0.586-0.251,0.754c-0.084,0.083-0.209,0.125-0.377,0.125
		c-0.083,0-0.166,0-0.251,0c-2.008-0.836-4.517-1.254-7.527-1.254c-4.433,0-8.403,1.379-11.918,4.14
		c-3.429,2.678-5.144,6.147-5.144,10.413c0,4.1,1.381,7.359,4.141,9.786c2.761,2.424,6.229,3.637,10.412,3.637
		c2.845,0,5.979-1.213,9.408-3.637c0.168-0.168,0.293-0.251,0.378-0.251c0.167,0,0.25,0.209,0.25,0.627v5.896
		c0,0.167,0.085,0.292,0.251,0.376c0,0.083,0.042,0.125,0.127,0.125l0.125-0.125c5.938-0.669,9.239-1.088,9.91-1.255
		c0.335,0,0.502-0.126,0.502-0.376c0.168-1.758,0.544-5.354,1.129-10.79C347.652,134.269,348.029,130.086,348.279,127.159
		 M321.434,135.941c0-3.93,3.22-6.021,9.659-6.271h0.377c0.835,0,1.672,0.251,2.509,0.753c1.004,0.585,1.507,1.379,1.507,2.384
		c0,1.923-0.879,3.429-2.637,4.518c-1.756,1.17-3.638,1.755-5.646,1.755c-1.339,0-2.635-0.251-3.89-0.752
		C322.061,137.74,321.434,136.944,321.434,135.941"/>
	<path fill="#76BB92" stroke="#000000" stroke-width="3" stroke-miterlimit="10" d="M300.857,104.453
		c0-0.167-0.082-0.334-0.25-0.502c-4.935-2.008-9.828-3.011-14.678-3.011c-6.857,0-12.546,2.468-17.063,7.4
		c-4.516,5.104-6.771,10.998-6.771,17.689c0,6.438,1.922,12.419,5.77,17.938c3.682,5.354,8.865,8.113,15.558,8.279
		c-0.334,0.754-0.67,1.506-1.004,2.258c-1.087,2.846-1.967,4.977-2.636,6.397c0,0.083,0,0.167,0,0.251
		c0,0.168,0.084,0.25,0.252,0.25c0.083,0,0.166,0,0.251,0l0.753-0.25c0.586-0.084,1.213-0.126,1.882-0.126
		c1.171,0,2.3,0.251,3.388,0.754c1.672,0.752,2.717,2.049,3.137,3.889c0.084,0.334,0.125,0.669,0.125,1.003
		c0,0.753-0.209,1.423-0.627,2.009c-0.586,0.836-1.506,1.421-2.76,1.756c-0.67,0.168-1.381,0.251-2.133,0.251
		c-1.34,0-2.719-0.292-4.143-0.878h-0.125c-0.083,0-0.167,0.084-0.251,0.251c-0.166,2.676-0.335,4.433-0.501,5.27l0.125,0.251
		c0.837,0.501,2.218,0.835,4.141,1.003c0.669,0,1.296,0,1.882,0c1.089,0,1.966-0.084,2.636-0.251
		c3.011-0.669,5.313-2.091,6.899-4.267c1.17-1.421,1.756-3.094,1.756-5.019c0-0.752-0.083-1.546-0.251-2.383
		c-1.004-4.099-3.849-6.439-8.531-7.025c-0.166,0-0.25-0.042-0.25-0.125v-0.125c0.502-1.088,1.338-2.971,2.508-5.646
		c5.604-0.92,10.246-3.222,13.928-6.899l0.125-0.378c-0.167-0.752-0.669-2.3-1.506-4.641c-0.754-2.26-1.256-3.891-1.506-4.894
		c-0.084-0.251-0.25-0.376-0.502-0.376c-0.082,0-0.209,0.042-0.375,0.125c-4.184,3.849-8.238,5.771-12.17,5.771
		c-3.347,0-6.147-1.213-8.406-3.64c-2.174-2.426-3.26-5.437-3.26-9.032c0-4.016,1.045-7.359,3.135-10.036
		c2.176-2.677,5.313-4.016,9.41-4.016c1.84,0,4.768,0.711,8.78,2.134c0.335,0,0.587-0.125,0.753-0.376
		c0.168-1.172,0.545-3.013,1.129-5.521C300.146,107.296,300.607,105.456,300.857,104.453"/>
	<path fill="#76BB92" stroke="#000000" stroke-width="3" stroke-miterlimit="10" d="M240.641,131.676c0,1.673,0,2.845,0,3.513
		c0,0.752-0.042,1.882-0.125,3.389c-0.083,1.421-0.126,2.173-0.126,2.258c0,1.338-0.167,3.472-0.501,6.396
		c-0.251,2.845-0.376,4.643-0.376,5.396c0,0.335,0.167,0.502,0.501,0.502c4.518-0.167,7.777-0.334,9.785-0.502
		c0.251,0,0.378-0.125,0.378-0.376c1.087-6.522,1.63-13.59,1.63-21.201c0-9.032-1.129-16.142-3.387-21.326
		c-1.086-2.51-3.012-4.643-5.771-6.398c-2.76-1.673-5.521-2.51-8.28-2.51c-2.09,0-4.434,0.502-7.025,1.505
		c-0.083,0.083-0.168,0.125-0.251,0.125s-0.168-0.042-0.251-0.125c-0.083,0-0.125-0.042-0.125-0.125
		c0-0.084,0.042-0.167,0.125-0.251c0.251-2.677,0.376-4.978,0.376-6.899c0-0.334-0.125-0.502-0.376-0.502
		c-6.773,0.418-10.998,0.712-12.67,0.878c-0.084,0-0.252,0.125-0.502,0.376c0,14.303-0.586,28.938-1.756,43.908
		c-0.084,0.585-0.334,3.764-0.752,9.535c0,0.334,0.166,0.501,0.502,0.501c4.599,0,8.027-0.042,10.287-0.125
		c0.25,0,0.377-0.126,0.377-0.376c0.334-2.595,0.752-6.482,1.254-11.669c0.586-5.186,1.002-9.072,1.254-11.667
		c0.334-2.76,0.628-4.474,0.879-5.144c0.584-1.506,1.631-2.927,3.137-4.266c1.504-1.254,3.053-1.881,4.641-1.881
		c1.004,0,1.883,0.251,2.635,0.753c0.752,0.417,1.38,1.086,1.883,2.006c0.501,0.92,0.92,1.84,1.254,2.76
		c0.418,0.92,0.71,2.134,0.878,3.639c0.167,1.505,0.293,2.761,0.376,3.764c0.083,0.837,0.125,1.799,0.125,2.887v1.256"/>
	<path fill="#76BB92" stroke="#000000" stroke-width="3" stroke-miterlimit="10" d="M161.354,107.965
		c0,0.083,0.043,0.125,0.126,0.125c0.752,2.092,1.755,5.312,3.01,9.66c0,0.251,0.126,0.376,0.377,0.376
		c0.083,0,0.208-0.042,0.376-0.125c4.767-3.681,9.702-5.521,14.803-5.521c1.84,0,3.388,0.712,4.642,2.133
		c1.254,1.34,1.882,3.012,1.882,5.019c0,0.753-0.042,1.381-0.126,1.882c-0.083,0.334-0.167,0.586-0.25,0.754
		c-0.084,0.083-0.209,0.125-0.377,0.125c-0.083,0-0.167,0-0.25,0c-2.008-0.836-4.517-1.254-7.527-1.254
		c-4.434,0-8.405,1.379-11.918,4.14c-3.429,2.678-5.144,6.147-5.144,10.413c0,4.1,1.381,7.359,4.14,9.786
		c2.76,2.424,6.231,3.638,10.414,3.638c2.843,0,5.98-1.214,9.409-3.638c0.167-0.168,0.293-0.251,0.376-0.251
		c0.167,0,0.251,0.209,0.251,0.627v5.896c0,0.167,0.083,0.292,0.25,0.376c0,0.083,0.043,0.125,0.126,0.125l0.125-0.125
		c5.938-0.669,9.243-1.088,9.911-1.255c0.334,0,0.501-0.126,0.501-0.376c0.167-1.758,0.544-5.354,1.129-10.79
		c0.502-5.437,0.878-9.619,1.129-12.545c0.334-4.517,0.501-7.192,0.501-8.028c0-5.604-1.631-10.121-4.892-13.55
		c-3.263-3.429-7.737-5.144-13.424-5.144c-6.858,0-13.298,2.384-19.32,7.15C161.439,107.756,161.354,107.882,161.354,107.965
		 M171.894,135.941c0-3.93,3.22-6.021,9.66-6.271h0.376c0.837,0,1.672,0.251,2.509,0.753c1.003,0.585,1.505,1.379,1.505,2.384
		c0,1.923-0.878,3.429-2.635,4.518c-1.755,1.17-3.637,1.755-5.645,1.755c-1.338,0-2.634-0.251-3.889-0.752
		C172.521,137.74,171.894,136.944,171.894,135.941"/>
	<path fill="#76BB92" stroke="#000000" stroke-width="3" stroke-miterlimit="10" d="M155.083,102.069
		c0-0.334-0.083-0.501-0.25-0.501c-3.179-1.171-6.272-1.757-9.284-1.757c-2.341,0-4.767,0.544-7.276,1.63
		c-2.592,1.003-4.684,2.344-6.272,4.016c-0.168,0.083-0.293,0.125-0.376,0.125c-0.168,0-0.293-0.125-0.377-0.376l-0.877-5.019
		c0-0.251-0.167-0.376-0.502-0.376c-4.767,0.92-7.527,1.505-8.279,1.757c-0.251,0.083-0.377,0.25-0.377,0.501
		s1.004,16.394,3.011,48.426c0,0.334,0.168,0.501,0.502,0.501c1.589-0.334,3.805-0.71,6.648-1.128
		c2.927-0.502,5.185-0.878,6.774-1.129c0.251,0,0.377-0.083,0.377-0.252c0-0.083,0-0.167,0-0.251
		c-0.251-1.923-0.712-5.019-1.381-9.282c-0.585-4.35-1.087-8.28-1.506-11.793c-0.501-3.513-0.835-6.355-1.003-8.53
		c0-0.669,0.042-1.088,0.126-1.255c1.755-3.43,4.265-5.144,7.527-5.144c3.01,0,6.146,1.045,9.409,3.138
		c0,0.167,0.042,0.25,0.125,0.25s0.168-0.042,0.251-0.125c0.167-0.083,0.251-0.21,0.251-0.376c0.167-0.836,0.627-2.803,1.379-5.896
		C154.372,106.125,154.833,103.741,155.083,102.069"/>
	<path fill="#76BB92" stroke="#000000" stroke-width="3" stroke-miterlimit="10" d="M87.089,95.42c0-0.251,0.125-0.376,0.376-0.376
		c0.669,0,1.463,0,2.383,0c2.342,0,5.562,0.125,9.66,0.376c6.272,0.502,10.455,0.794,12.545,0.878c0.334,0,0.502-0.167,0.502-0.502
		c0.167-1.589,0.501-3.806,1.003-6.648c0.586-2.927,0.962-5.019,1.13-6.271c0-0.334-0.168-0.502-0.502-0.502
		c-4.266,0-8.238,0-11.918,0c-11.208,0-20.365-0.25-27.475-0.752h-0.125c-0.083,0-0.125,0.042-0.125,0.125
		c-0.084,0.084-0.126,0.168-0.126,0.251c-0.251,4.518-0.878,17.938-1.882,40.271c-0.167,3.597-0.376,8.739-0.627,15.431
		c-0.167,6.689-0.293,11.081-0.376,13.172c0,0.167,0.168,0.334,0.502,0.501c3.178,0,7.861,0.251,14.049,0.754
		c0.334,0,0.502-0.168,0.502-0.502c-0.334-10.454-0.502-17.897-0.502-22.331v-2.258c0-0.251,0.126-0.376,0.377-0.376
		c1.672-0.168,3.554-0.251,5.646-0.251c1.086-0.085,2.09-0.126,3.01-0.126c1.003,0,1.881,0.042,2.635,0.126h1.755
		c1.171,0,2.467-0.042,3.89-0.126c0.25,0,0.376-0.125,0.376-0.376c0.083-0.67,0.251-2.593,0.501-5.771
		c0.251-3.262,0.502-5.645,0.753-7.15c0.083-0.083,0.125-0.167,0.125-0.251c0-0.167-0.208-0.251-0.627-0.251
		c-3.261,0.502-9.116,1.006-17.563,1.507c-0.251,0-0.376-0.125-0.376-0.376v-1.256C86.585,109.596,86.753,103.951,87.089,95.42"/>
</g>
</svg>
