<?xml version="1.0" encoding="utf-8"?>
<!-- Generator: Adobe Illustrator 16.0.0, SVG Export Plug-In . SVG Version: 6.00 Build 0)  -->
<!DOCTYPE svg PUBLIC "-//W3C//DTD SVG 1.1//EN" "http://www.w3.org/Graphics/SVG/1.1/DTD/svg11.dtd">
<svg version="1.1" id="Layer_1" xmlns="http://www.w3.org/2000/svg" xmlns:xlink="http://www.w3.org/1999/xlink" x="0px" y="0px"
	 width="496.047px" height="241.501px" viewBox="0 0 496.047 241.501" enable-background="new 0 0 496.047 241.501"
	 xml:space="preserve">
<g id="PriceButton">
	<path fill-rule="evenodd" clip-rule="evenodd" fill="#9EFFC5" d="M487.596,79.695c-3.335,18.36-5.004,33.425-5.004,45.196
		c0,11.769,1.835,25.343,5.502,40.717c1.832,7.716,3.668,14.221,5.503,19.515c5.669,24.161,1.499,40.437-12.505,48.829
		c-11.752,7.04-30.716,8.701-56.893,4.985c-29.176-4.168-67.355-8.167-114.536-11.997c-11.587-0.563-25.425-0.958-41.514-1.183
		c-32.094-0.45-59.352,0.141-81.776,1.774c-49.014,4.111-87.194,8.109-114.536,11.995c-26.09,3.774-45.014,2.141-56.769-4.899
		C0.98,226.235-3.228,209.959,2.439,185.799c1.835-5.294,3.67-11.799,5.503-19.515c3.667-15.375,5.501-28.947,5.501-40.719
		c0-11.826-1.625-26.892-4.876-45.195C6.9,71.19,5.233,63.192,3.565,56.379C-2.104,32.219,2.106,15.942,16.195,7.55
		c11.67-7.039,30.592-8.701,56.768-4.984c30.093,4.281,71.022,8.505,122.789,12.672l36.512,0.929
		c27.759,0.337,50.433-0.168,68.021-1.52c51.767-4.167,92.697-8.392,122.789-12.672c26.092-3.774,45.06-2.141,56.893,4.899
		c14.004,8.392,18.174,24.667,12.505,48.828C490.802,62.517,489.177,70.515,487.596,79.695z"/>
	
		<linearGradient id="SVGID_1_" gradientUnits="userSpaceOnUse" x1="1388.002" y1="1696.7178" x2="1724.5195" y2="1696.7178" gradientTransform="matrix(-0.8233 0.8386 -1.2677 -0.5447 3694.8076 -268.3465)">
		<stop  offset="0" style="stop-color:#FFFFFF"/>
		<stop  offset="1" style="stop-color:#FFFFFF;stop-opacity:0"/>
	</linearGradient>
	<path fill-rule="evenodd" clip-rule="evenodd" fill="url(#SVGID_1_)" d="M490.096,74.288c-3.169,16.952-4.753,30.891-4.753,41.816
		s1.751,23.512,5.255,37.761c1.747,7.096,3.501,13.094,5.248,17.995c5.421,22.358,1.418,37.452-12.002,45.279
		c-11.087,6.477-29.095,7.998-54.02,4.563c-26.757-3.774-63.061-7.49-108.908-11.151c-11.002-0.506-24.131-0.874-39.387-1.098
		c-30.511-0.396-56.435,0.167-77.776,1.689c-45.848,3.66-82.152,7.377-108.908,11.151c-24.842,3.435-42.848,1.915-54.019-4.563
		c-13.422-7.827-17.421-22.92-12.004-45.279c1.751-4.9,3.502-10.898,5.252-17.995c3.501-14.249,5.252-26.835,5.252-37.761
		c0-10.926-1.542-24.865-4.627-41.816l-4.751-22.133c-5.417-22.359-1.417-37.452,12.003-45.28
		C53.039,0.99,71.003-0.531,95.846,2.904c27.758,3.885,66.687,7.828,116.786,11.827l34.636,0.845
		c26.425,0.338,48.017-0.141,64.771-1.436c50.1-3.999,88.988-7.941,116.663-11.827c24.925-3.435,42.933-1.915,54.016,4.562
		c13.421,7.828,17.424,22.921,12.006,45.279C493.139,58.462,491.595,65.84,490.096,74.288z"/>
	<g>
		<g>
			<path fill="#76BB92" d="M177.646,124.419c0.644,1.546,0.965,3.288,0.965,5.228c0,4.338-1.931,7.692-5.794,10.059
				c-3.251,2.006-7.001,3.189-11.25,3.55c-0.355,2.301-0.612,3.947-0.773,4.932c-0.032,0.198-0.096,0.296-0.193,0.296
				c-0.033,0-0.065-0.017-0.096-0.05c-1.321-0.263-2.85-0.69-4.587-1.281h-0.049c-0.064,0-0.113-0.116-0.145-0.345
				c0.065-0.56,0.194-1.743,0.387-3.551c-4.217-0.295-7.854-1.429-10.913-3.402v-0.048c0.321-0.723,0.644-1.53,0.965-2.417
				c0.354-0.952,0.708-2.022,1.063-3.205c0.353-1.151,0.643-2.004,0.869-2.564c3.477,1.907,6.438,3.123,8.885,3.65
				c0.161-1.611,0.339-3.32,0.531-5.129c0.322-3.156,0.66-6.378,1.015-9.666c-1.964-0.789-3.091-1.248-3.38-1.38
				c-2.576-1.216-4.54-3.04-5.892-5.474c-1.384-2.433-2.076-5.161-2.076-8.187c0-4.405,1.707-8.021,5.118-10.848
				c2.769-2.269,5.988-3.632,9.657-4.093c0.386-3.155,0.708-5.44,0.966-6.855c0.096-0.163,0.193-0.263,0.289-0.295
				c0.29,0.033,0.66,0.05,1.111,0.05c0.772,0,1.754-0.05,2.945-0.148c0.676-0.032,1.368-0.099,2.077-0.198
				c0.546-0.098,0.981-0.148,1.303-0.148c0.194,0.066,0.29,0.166,0.29,0.295v0.148c-0.225,1.381-0.612,3.913-1.158,7.594
				c2.253,0.56,4.377,1.479,6.373,2.762c-0.482,0.855-1.111,2.104-1.882,3.748c-0.806,1.677-1.434,2.992-1.884,3.945
				c-0.032,0-0.048-0.017-0.048-0.049c-1.352-0.658-2.64-1.167-3.863-1.529c-0.742,4.932-1.466,9.682-2.173,14.251
				c-0.064,0.46-0.129,0.937-0.193,1.431c0.064,0.032,0.112,0.065,0.146,0.098c1.898,0.789,3.459,1.546,4.683,2.269
				c1.19,0.689,2.446,1.595,3.767,2.711C176.02,121.625,177.002,122.908,177.646,124.419z M159.104,112.732
				c0.321,0.231,0.61,0.46,0.869,0.691c0.417-3.715,0.836-7.38,1.255-10.998c0.064-0.591,0.129-1.184,0.194-1.775
				c-0.676,0.296-1.336,0.658-1.98,1.085c-1.964,1.25-2.945,2.992-2.945,5.227v0.098c0,1.216,0.176,2.269,0.531,3.157
				C157.382,111.139,158.073,111.976,159.104,112.732z M167.023,135.958c1.609-1.117,2.415-2.778,2.415-4.98v-0.147
				c0-1.446-0.612-2.811-1.835-4.092c-0.676-0.692-1.352-1.282-2.027-1.776c-0.645,3.846-1.177,7.085-1.594,9.714
				c-0.193,1.184-0.338,2.072-0.435,2.664C164.962,137.077,166.122,136.616,167.023,135.958z"/>
			<path fill="#76BB92" d="M231.534,115c0,6.509-2.23,12.51-6.688,17.999c-4.458,5.492-9.811,8.235-16.056,8.235
				c-6.599,0-11.943-2.621-16.031-7.865c-4.088-5.244-6.132-11.333-6.132-18.27c0-7.562,1.979-13.832,5.939-18.813
				c3.96-4.98,9.593-7.471,16.9-7.471c7.178,0,12.651,2.523,16.417,7.568C229.651,101.432,231.534,107.637,231.534,115z
				 M219.849,111.549c0-3.583-0.958-6.6-2.873-9.048c-1.916-2.449-4.612-3.674-8.089-3.674c-3.766,0-6.471,1.511-8.112,4.536
				c-1.642,3.026-2.462,6.56-2.462,10.603c0,10.158,3.332,15.238,9.995,15.238c2.286,0,4.217-0.535,5.794-1.603
				c1.577-1.068,2.768-2.53,3.573-4.389c0.805-1.857,1.368-3.731,1.69-5.622C219.687,115.699,219.849,113.687,219.849,111.549z"/>
			<path fill="#76BB92" d="M252.395,135.465c0,2.039-0.68,3.625-2.03,4.759c-1.352,1.134-3.059,1.702-5.118,1.702
				c-1.707,0-3.187-0.673-4.442-2.022c-1.255-1.347-1.884-2.893-1.884-4.635c0-1.94,0.676-3.65,2.028-5.129
				c1.352-1.479,2.977-2.218,4.877-2.218c1.804,0,3.349,0.788,4.637,2.366C251.75,131.865,252.395,133.59,252.395,135.465z"/>
			<path fill="#76BB92" d="M301.112,108.739c0,13.839-5.938,27.237-17.813,40.188c-0.068,0.066-0.196,0.101-0.388,0.101
				c-0.388-0.264-1.668-1.225-3.839-2.885c-2.176-1.661-3.533-2.688-4.079-3.083c-0.1-0.099-0.146-0.197-0.146-0.296
				c0-0.066,0.047-0.13,0.146-0.197c2.572-2.893,4.271-4.832,5.093-5.818c0.82-0.987,2.108-2.64,3.861-4.956
				c1.756-2.318,3.106-4.505,4.056-6.56c0.95-2.055,1.796-4.331,2.537-6.831c0.126-0.394,0.255-0.936,0.385-1.627
				c0-0.361-0.063-0.542-0.193-0.542c-0.096,0-0.224,0.083-0.387,0.246c-4.954,4.505-10.138,6.755-15.547,6.755
				c-3.83,0-7.209-1.412-10.139-4.24c-2.931-2.827-4.397-6.146-4.397-9.96c0-6.148,2.222-11.391,6.664-15.731
				c4.442-4.338,9.704-6.509,15.794-6.509c5.726,0,10.226,2.187,13.493,6.559C299.479,97.726,301.112,102.853,301.112,108.739z
				 M290.249,102.574c0-2.17-0.863-3.772-2.584-4.808c-1.721-1.036-3.708-1.554-5.962-1.554c-2.897,0-5.559,1.158-7.993,3.477
				c-2.43,2.317-3.643,4.923-3.643,7.815c0,1.94,0.676,3.387,2.025,4.34c1.354,0.953,3.043,1.43,5.071,1.43
				c2.705,0,5.559-1.109,8.572-3.329C288.744,107.727,290.249,105.271,290.249,102.574z"/>
			<path fill="#76BB92" d="M350.848,108.739c0,13.839-5.938,27.237-17.814,40.188c-0.067,0.066-0.196,0.101-0.388,0.101
				c-0.387-0.264-1.667-1.225-3.838-2.885c-2.176-1.661-3.534-2.688-4.08-3.083c-0.099-0.099-0.146-0.197-0.146-0.296
				c0-0.066,0.047-0.13,0.146-0.197c2.571-2.893,4.271-4.832,5.093-5.818c0.82-0.987,2.108-2.64,3.862-4.956
				c1.755-2.318,3.105-4.505,4.055-6.56c0.95-2.055,1.796-4.331,2.538-6.831c0.125-0.394,0.254-0.936,0.384-1.627
				c0-0.361-0.063-0.542-0.192-0.542c-0.096,0-0.225,0.083-0.388,0.246c-4.953,4.505-10.138,6.755-15.548,6.755
				c-3.828,0-7.209-1.412-10.138-4.24c-2.93-2.827-4.396-6.146-4.396-9.96c0-6.148,2.221-11.391,6.663-15.731
				c4.442-4.338,9.705-6.509,15.794-6.509c5.726,0,10.226,2.187,13.493,6.559C349.215,97.726,350.848,102.853,350.848,108.739z
				 M339.983,102.574c0-2.17-0.862-3.772-2.583-4.808c-1.721-1.036-3.708-1.554-5.964-1.554c-2.896,0-5.56,1.158-7.992,3.477
				c-2.43,2.317-3.642,4.923-3.642,7.815c0,1.94,0.676,3.387,2.024,4.34c1.355,0.953,3.043,1.43,5.071,1.43
				c2.706,0,5.559-1.109,8.572-3.329C338.479,107.727,339.983,105.271,339.983,102.574z"/>
		</g>
		<g>
			<path fill="none" stroke="#231F20" stroke-width="3" d="M177.646,124.419c0.644,1.546,0.965,3.288,0.965,5.228
				c0,4.338-1.931,7.692-5.794,10.059c-3.251,2.006-7.001,3.189-11.25,3.55c-0.355,2.301-0.612,3.947-0.773,4.932
				c-0.032,0.198-0.096,0.296-0.193,0.296c-0.033,0-0.065-0.017-0.096-0.05c-1.321-0.263-2.85-0.69-4.587-1.281h-0.049
				c-0.064,0-0.113-0.116-0.145-0.345c0.065-0.56,0.194-1.743,0.387-3.551c-4.217-0.295-7.854-1.429-10.913-3.402v-0.048
				c0.321-0.723,0.644-1.53,0.965-2.417c0.354-0.952,0.708-2.022,1.063-3.205c0.353-1.151,0.643-2.004,0.869-2.564
				c3.477,1.907,6.438,3.123,8.885,3.65c0.161-1.611,0.339-3.32,0.531-5.129c0.322-3.156,0.66-6.378,1.015-9.666
				c-1.964-0.789-3.091-1.248-3.38-1.38c-2.576-1.216-4.54-3.04-5.892-5.474c-1.384-2.433-2.076-5.161-2.076-8.187
				c0-4.405,1.707-8.021,5.118-10.848c2.769-2.269,5.988-3.632,9.657-4.093c0.386-3.155,0.708-5.44,0.966-6.855
				c0.096-0.163,0.193-0.263,0.289-0.295c0.29,0.033,0.66,0.05,1.111,0.05c0.772,0,1.754-0.05,2.945-0.148
				c0.676-0.032,1.368-0.099,2.077-0.198c0.546-0.098,0.981-0.148,1.303-0.148c0.194,0.066,0.29,0.166,0.29,0.295v0.148
				c-0.225,1.381-0.612,3.913-1.158,7.594c2.253,0.56,4.377,1.479,6.373,2.762c-0.482,0.855-1.111,2.104-1.882,3.748
				c-0.806,1.677-1.434,2.992-1.884,3.945c-0.032,0-0.048-0.017-0.048-0.049c-1.352-0.658-2.64-1.167-3.863-1.529
				c-0.742,4.932-1.466,9.682-2.173,14.251c-0.064,0.46-0.129,0.937-0.193,1.431c0.064,0.032,0.112,0.065,0.146,0.098
				c1.898,0.789,3.459,1.546,4.683,2.269c1.19,0.689,2.446,1.595,3.767,2.711C176.02,121.625,177.002,122.908,177.646,124.419z
				 M159.104,112.732c0.321,0.231,0.61,0.46,0.869,0.691c0.417-3.715,0.836-7.38,1.255-10.998c0.064-0.591,0.129-1.184,0.194-1.775
				c-0.676,0.296-1.336,0.658-1.98,1.085c-1.964,1.25-2.945,2.992-2.945,5.227v0.098c0,1.216,0.176,2.269,0.531,3.157
				C157.382,111.139,158.073,111.976,159.104,112.732z M167.023,135.958c1.609-1.117,2.415-2.778,2.415-4.98v-0.147
				c0-1.446-0.612-2.811-1.835-4.092c-0.676-0.692-1.352-1.282-2.027-1.776c-0.645,3.846-1.177,7.085-1.594,9.714
				c-0.193,1.184-0.338,2.072-0.435,2.664C164.962,137.077,166.122,136.616,167.023,135.958z"/>
			<path fill="none" stroke="#231F20" stroke-width="3" d="M231.534,115c0,6.509-2.23,12.51-6.688,17.999
				c-4.458,5.492-9.811,8.235-16.056,8.235c-6.599,0-11.943-2.621-16.031-7.865c-4.088-5.244-6.132-11.333-6.132-18.27
				c0-7.562,1.979-13.832,5.939-18.813c3.96-4.98,9.593-7.471,16.9-7.471c7.178,0,12.651,2.523,16.417,7.568
				C229.651,101.432,231.534,107.637,231.534,115z M219.849,111.549c0-3.583-0.958-6.6-2.873-9.048
				c-1.916-2.449-4.612-3.674-8.089-3.674c-3.766,0-6.471,1.511-8.112,4.536c-1.642,3.026-2.462,6.56-2.462,10.603
				c0,10.158,3.332,15.238,9.995,15.238c2.286,0,4.217-0.535,5.794-1.603c1.577-1.068,2.768-2.53,3.573-4.389
				c0.805-1.857,1.368-3.731,1.69-5.622C219.687,115.699,219.849,113.687,219.849,111.549z"/>
			<path fill="none" stroke="#231F20" stroke-width="3" d="M252.395,135.465c0,2.039-0.68,3.625-2.03,4.759
				c-1.352,1.134-3.059,1.702-5.118,1.702c-1.707,0-3.187-0.673-4.442-2.022c-1.255-1.347-1.884-2.893-1.884-4.635
				c0-1.94,0.676-3.65,2.028-5.129c1.352-1.479,2.977-2.218,4.877-2.218c1.804,0,3.349,0.788,4.637,2.366
				C251.75,131.865,252.395,133.59,252.395,135.465z"/>
			<path fill="none" stroke="#231F20" stroke-width="3" d="M301.112,108.739c0,13.839-5.938,27.237-17.813,40.188
				c-0.068,0.066-0.196,0.101-0.388,0.101c-0.388-0.264-1.668-1.225-3.839-2.885c-2.176-1.661-3.533-2.688-4.079-3.083
				c-0.1-0.099-0.146-0.197-0.146-0.296c0-0.066,0.047-0.13,0.146-0.197c2.572-2.893,4.271-4.832,5.093-5.818
				c0.82-0.987,2.108-2.64,3.861-4.956c1.756-2.318,3.106-4.505,4.056-6.56c0.95-2.055,1.796-4.331,2.537-6.831
				c0.126-0.394,0.255-0.936,0.385-1.627c0-0.361-0.063-0.542-0.193-0.542c-0.096,0-0.224,0.083-0.387,0.246
				c-4.954,4.505-10.138,6.755-15.547,6.755c-3.83,0-7.209-1.412-10.139-4.24c-2.931-2.827-4.397-6.146-4.397-9.96
				c0-6.148,2.222-11.391,6.664-15.731c4.442-4.338,9.704-6.509,15.794-6.509c5.726,0,10.226,2.187,13.493,6.559
				C299.479,97.726,301.112,102.853,301.112,108.739z M290.249,102.574c0-2.17-0.863-3.772-2.584-4.808
				c-1.721-1.036-3.708-1.554-5.962-1.554c-2.897,0-5.559,1.158-7.993,3.477c-2.43,2.317-3.643,4.923-3.643,7.815
				c0,1.94,0.676,3.387,2.025,4.34c1.354,0.953,3.043,1.43,5.071,1.43c2.705,0,5.559-1.109,8.572-3.329
				C288.744,107.727,290.249,105.271,290.249,102.574z"/>
			<path fill="none" stroke="#231F20" stroke-width="3" d="M350.848,108.739c0,13.839-5.938,27.237-17.814,40.188
				c-0.067,0.066-0.196,0.101-0.388,0.101c-0.387-0.264-1.667-1.225-3.838-2.885c-2.176-1.661-3.534-2.688-4.08-3.083
				c-0.099-0.099-0.146-0.197-0.146-0.296c0-0.066,0.047-0.13,0.146-0.197c2.571-2.893,4.271-4.832,5.093-5.818
				c0.82-0.987,2.108-2.64,3.862-4.956c1.755-2.318,3.105-4.505,4.055-6.56c0.95-2.055,1.796-4.331,2.538-6.831
				c0.125-0.394,0.254-0.936,0.384-1.627c0-0.361-0.063-0.542-0.192-0.542c-0.096,0-0.225,0.083-0.388,0.246
				c-4.953,4.505-10.138,6.755-15.548,6.755c-3.828,0-7.209-1.412-10.138-4.24c-2.93-2.827-4.396-6.146-4.396-9.96
				c0-6.148,2.221-11.391,6.663-15.731c4.442-4.338,9.705-6.509,15.794-6.509c5.726,0,10.226,2.187,13.493,6.559
				C349.215,97.726,350.848,102.853,350.848,108.739z M339.983,102.574c0-2.17-0.862-3.772-2.583-4.808
				c-1.721-1.036-3.708-1.554-5.964-1.554c-2.896,0-5.56,1.158-7.992,3.477c-2.43,2.317-3.642,4.923-3.642,7.815
				c0,1.94,0.676,3.387,2.024,4.34c1.355,0.953,3.043,1.43,5.071,1.43c2.706,0,5.559-1.109,8.572-3.329
				C338.479,107.727,339.983,105.271,339.983,102.574z"/>
		</g>
	</g>
</g>
</svg>
