<?xml version="1.0" encoding="utf-8"?>
<!-- Generator: Adobe Illustrator 16.0.0, SVG Export Plug-In . SVG Version: 6.00 Build 0)  -->
<!DOCTYPE svg PUBLIC "-//W3C//DTD SVG 1.1//EN" "http://www.w3.org/Graphics/SVG/1.1/DTD/svg11.dtd">
<svg version="1.1" id="Layer_1" xmlns="http://www.w3.org/2000/svg" xmlns:xlink="http://www.w3.org/1999/xlink" x="0px" y="0px"
	 width="500px" height="325px" viewBox="0 0 500 325" enable-background="new 0 0 500 325" xml:space="preserve">
<g id="RestoreButton">
	<g>
		<g>
			<g>
				
					<linearGradient id="SVGID_1_" gradientUnits="userSpaceOnUse" x1="162.2573" y1="-194.4414" x2="365.8083" y2="-194.4414" gradientTransform="matrix(1 0 0 77.3715 0 15149.4053)">
					<stop  offset="0" style="stop-color:#81D59A"/>
					<stop  offset="1" style="stop-color:#C5EFD0"/>
				</linearGradient>
				<path fill-rule="evenodd" clip-rule="evenodd" fill="url(#SVGID_1_)" d="M314.592,55.66c6.922,4.532,13.625,9.75,20.109,15.659
					c6.506,5.92,12.581,12.511,18.223,19.774c5.64,7.241,10.637,15.139,14.984,23.689c4.321,8.566,7.786,17.767,10.395,27.604
					c2.6,9.844,4.131,20.305,4.586,31.382c0.475,11.102-0.335,22.8-2.428,35.096l-56.288,0.067l-0.065-0.133
					c1.143-2.989,2.133-5.937,2.967-8.844c0.858-2.893,1.558-5.727,2.094-8.502c0.518-2.764,0.9-5.487,1.146-8.167
					c0.25-2.694,0.362-5.327,0.337-7.896c-0.019-2.566-0.154-5.087-0.402-7.559c-0.244-2.47-0.606-4.878-1.081-7.222
					c-0.488-2.344-1.074-4.639-1.755-6.885c-0.676-2.246-1.438-4.429-2.295-6.545c-0.848-2.122-1.77-4.191-2.766-6.209
					c-1.013-2.022-2.092-3.98-3.24-5.872c-1.139-1.876-2.331-3.699-3.577-5.466c-1.237-1.777-2.52-3.488-3.848-5.129
					c-1.358-1.634-2.752-3.209-4.182-4.723c-1.395-1.533-2.813-2.994-4.255-4.387c-1.472-1.365-2.956-2.671-4.453-3.915
					c-1.483-1.263-2.967-2.456-4.452-3.578c-1.474-1.121-2.938-2.179-4.391-3.172c-1.479-0.995-2.941-1.916-4.387-2.766
					c-1.424-0.855-2.82-1.644-4.184-2.363c-1.365-0.703-2.691-1.333-3.981-1.891c-1.292-0.564-2.527-1.06-3.713-1.483
					c-1.186-0.434-2.311-0.794-3.374-1.079c-1.011-0.268-1.956-0.471-2.835-0.608c-0.86-0.134-1.648-0.202-2.361-0.203h-0.203
					l-7.22,43.397l-0.136,0.067l-89.695-84.228v-0.203L277.943,1.332l0.134,0.067l-4.521,35.702c3.244,0.831,6.55,1.842,9.92,3.038
					c3.382,1.174,6.8,2.523,10.259,4.048C300.696,47.304,307.646,51.13,314.592,55.66z M293.668,44.322
					c-6.957-3.113-13.704-5.497-20.247-7.153l4.591-35.771L167.933,53.501l89.696,84.229l7.223-43.464
					c3.099-0.076,7.283,1.028,12.552,3.307c5.273,2.312,10.942,5.731,17.008,10.258c6.076,4.496,11.855,10.032,17.344,16.604
					c5.483,6.59,9.981,14.149,13.499,22.676c3.492,8.528,5.316,17.953,5.468,28.279c0.178,10.307-2.007,21.443-6.549,33.409h56.152
					c2.12-12.254,2.955-23.908,2.498-34.961c-0.453-11.08-1.985-21.541-4.59-31.384c-2.624-9.838-6.112-19.039-10.46-27.604
					c-4.325-8.573-9.299-16.494-14.917-23.756c-5.638-7.243-11.714-13.813-18.221-19.708c-6.484-5.912-13.189-11.129-20.113-15.657
					C307.577,51.215,300.627,47.415,293.668,44.322c6.959,3.093,13.909,6.893,20.854,11.406c6.924,4.528,13.629,9.746,20.113,15.657
					c6.507,5.896,12.583,12.465,18.221,19.708c5.618,7.263,10.592,15.183,14.917,23.756c4.348,8.565,7.836,17.766,10.46,27.604
					c2.604,9.843,4.137,20.304,4.59,31.384c0.457,11.053-0.378,22.707-2.498,34.961h-56.152c4.542-11.966,6.727-23.102,6.549-33.409
					c-0.151-10.326-1.976-19.75-5.468-28.279c-3.518-8.527-8.016-16.086-13.499-22.676c-5.488-6.572-11.268-12.108-17.344-16.604
					c-6.065-4.527-11.734-7.946-17.008-10.258c-5.269-2.279-9.453-3.383-12.552-3.307l-7.223,43.464l-89.696-84.229L278.012,1.398
					l-4.591,35.771C279.964,38.825,286.711,41.209,293.668,44.322z"/>
				
					<path fill-rule="evenodd" clip-rule="evenodd" fill="none" stroke="#49804E" stroke-width="3.472" stroke-linecap="round" stroke-linejoin="round" stroke-miterlimit="3" d="
					M293.668,44.322c-6.957-3.113-13.704-5.497-20.247-7.153l4.591-35.771L167.933,53.501l89.696,84.229l7.223-43.464
					c3.099-0.076,7.283,1.028,12.552,3.307c5.273,2.312,10.942,5.731,17.008,10.258c6.076,4.496,11.855,10.032,17.344,16.604
					c5.483,6.59,9.981,14.149,13.499,22.676c3.492,8.528,5.316,17.953,5.468,28.279c0.178,10.307-2.007,21.443-6.549,33.409h56.152
					c2.12-12.254,2.955-23.908,2.498-34.961c-0.453-11.08-1.985-21.541-4.59-31.384c-2.624-9.838-6.112-19.039-10.46-27.604
					c-4.325-8.573-9.299-16.494-14.917-23.756c-5.638-7.243-11.714-13.813-18.221-19.708c-6.484-5.912-13.189-11.129-20.113-15.657
					C307.577,51.215,300.627,47.415,293.668,44.322z"/>
			</g>
			
				<linearGradient id="SVGID_2_" gradientUnits="userSpaceOnUse" x1="122.5117" y1="58.1704" x2="380.0295" y2="58.1704" gradientTransform="matrix(0.9988 0.049 -0.0256 0.9999 -5.1443 2.3811)">
				<stop  offset="0" style="stop-color:#FFFFFF"/>
				<stop  offset="1" style="stop-color:#FFFFFF;stop-opacity:0"/>
			</linearGradient>
			<path fill-rule="evenodd" clip-rule="evenodd" fill="url(#SVGID_2_)" d="M300.553,74.963c-2.138-1.318-4.229-2.466-6.276-3.443
				c-2.042-0.976-4.065-1.854-6.074-2.631c-2.01-0.779-3.989-1.455-5.939-2.026c-1.958-0.58-3.916-1.119-5.87-1.621
				c-1.932-0.49-3.843-0.941-5.737-1.349l-5.804-1.281l-5.807-1.419c-1.931-0.498-3.889-1.083-5.87-1.755
				c-1.992-0.682-3.994-1.447-6.007-2.294l5.331-21.664l-61.481,15.59l-0.068-0.136l77.006-36.511l0.136,0.066L264.243,42.5
				c12.887,2.416,24.856,6.174,35.905,11.271c11.059,5.099,21.158,11.601,30.302,19.504c9.14,7.95,17.283,17.353,24.432,28.212
				c7.134,10.843,13.229,23.193,18.293,37.052l-0.066,0.135l-19.981-0.878c-3.017-5.19-5.943-10.026-8.773-14.51
				c-2.856-4.464-5.624-8.559-8.301-12.283c-2.666-3.724-5.275-7.165-7.828-10.327c-2.551-3.16-5.025-6.017-7.423-8.571
				c-4.798-5.143-9.388-9.372-13.769-12.69C304.843,77.771,302.682,76.288,300.553,74.963z"/>
		</g>
		<g>
			<g>
				
					<linearGradient id="SVGID_3_" gradientUnits="userSpaceOnUse" x1="127.1821" y1="-186.0469" x2="330.7341" y2="-186.0469" gradientTransform="matrix(-1 0 0 -77.3715 462.6543 -14174.8838)">
					<stop  offset="0" style="stop-color:#81D59A"/>
					<stop  offset="1" style="stop-color:#C5EFD0"/>
				</linearGradient>
				<path fill-rule="evenodd" clip-rule="evenodd" fill="url(#SVGID_3_)" d="M183.138,269.341
					c-6.922-4.533-13.626-9.752-20.11-15.66c-6.505-5.92-12.581-12.511-18.222-19.774c-5.64-7.241-10.636-15.139-14.984-23.689
					c-4.322-8.566-7.785-17.768-10.393-27.605c-2.601-9.844-4.131-20.305-4.589-31.382c-0.474-11.101,0.336-22.799,2.429-35.096
					l56.287-0.066l0.068,0.133c-1.146,2.988-2.135,5.936-2.97,8.844c-0.856,2.892-1.555,5.727-2.092,8.503
					c-0.517,2.764-0.899,5.486-1.146,8.166c-0.25,2.695-0.363,5.327-0.337,7.896c0.02,2.566,0.155,5.086,0.404,7.559
					c0.246,2.471,0.605,4.877,1.08,7.222c0.489,2.345,1.075,4.64,1.755,6.885c0.674,2.246,1.438,4.43,2.294,6.546
					c0.848,2.122,1.771,4.191,2.767,6.209c1.014,2.023,2.092,3.979,3.241,5.872c1.137,1.877,2.331,3.699,3.577,5.466
					c1.238,1.778,2.52,3.488,3.846,5.129c1.359,1.634,2.755,3.21,4.183,4.725c1.394,1.532,2.811,2.994,4.254,4.387
					c1.473,1.365,2.957,2.671,4.454,3.915c1.483,1.262,2.968,2.454,4.453,3.578c1.473,1.12,2.937,2.179,4.389,3.171
					c1.48,0.994,2.943,1.917,4.386,2.767c1.424,0.854,2.821,1.643,4.185,2.362c1.365,0.703,2.691,1.334,3.981,1.891
					c1.291,0.565,2.528,1.06,3.713,1.483c1.184,0.435,2.309,0.794,3.374,1.08c1.01,0.268,1.956,0.471,2.835,0.607
					c0.86,0.136,1.647,0.202,2.36,0.204h0.204l7.22-43.397l0.134-0.068l89.696,84.228v0.203l-110.078,52.035l-0.133-0.068
					l4.521-35.701c-3.245-0.83-6.551-1.842-9.921-3.039c-3.381-1.174-6.799-2.521-10.258-4.047
					C197.035,277.696,190.084,273.872,183.138,269.341z M204.062,280.677c6.957,3.113,13.705,5.498,20.247,7.154l-4.588,35.77
					l110.078-52.102l-89.697-84.229l-7.222,43.464c-3.099,0.076-7.285-1.028-12.553-3.307c-5.274-2.311-10.944-5.73-17.008-10.258
					c-6.076-4.495-11.856-10.032-17.344-16.603c-5.483-6.591-9.982-14.149-13.499-22.677c-3.493-8.528-5.316-17.953-5.467-28.278
					c-0.179-10.308,2.004-21.444,6.546-33.409h-56.151c-2.121,12.254-2.955,23.908-2.498,34.961
					c0.455,11.081,1.985,21.541,4.59,31.384c2.626,9.837,6.112,19.038,10.462,27.604c4.323,8.574,9.295,16.493,14.914,23.756
					c5.64,7.243,11.715,13.813,18.223,19.708c6.483,5.912,13.188,11.129,20.113,15.658
					C190.153,273.784,197.103,277.585,204.062,280.677c-6.958-3.092-13.909-6.893-20.854-11.404
					c-6.926-4.529-13.63-9.746-20.113-15.658c-6.508-5.896-12.583-12.465-18.223-19.708c-5.619-7.263-10.591-15.183-14.914-23.756
					c-4.35-8.565-7.836-17.766-10.462-27.604c-2.605-9.843-4.135-20.303-4.59-31.384c-0.457-11.053,0.377-22.707,2.498-34.961
					h56.151c-4.542,11.965-6.725,23.101-6.546,33.409c0.15,10.326,1.974,19.75,5.467,28.278c3.516,8.528,8.016,16.086,13.499,22.677
					c5.488,6.571,11.268,12.108,17.344,16.603c6.064,4.528,11.734,7.947,17.008,10.258c5.268,2.279,9.454,3.383,12.553,3.307
					l7.222-43.464l89.697,84.229L219.72,323.601l4.588-35.77C217.766,286.175,211.018,283.79,204.062,280.677z"/>
				
					<path fill-rule="evenodd" clip-rule="evenodd" fill="none" stroke="#49804E" stroke-width="3.472" stroke-linecap="round" stroke-linejoin="round" stroke-miterlimit="3" d="
					M204.062,280.677c6.957,3.113,13.705,5.498,20.247,7.154l-4.588,35.77l110.078-52.102l-89.697-84.229l-7.222,43.464
					c-3.099,0.076-7.285-1.028-12.553-3.307c-5.274-2.311-10.944-5.73-17.008-10.258c-6.076-4.495-11.856-10.032-17.344-16.603
					c-5.483-6.591-9.982-14.149-13.499-22.677c-3.493-8.528-5.316-17.953-5.467-28.278c-0.179-10.308,2.004-21.444,6.546-33.409
					h-56.151c-2.121,12.254-2.955,23.908-2.498,34.961c0.455,11.081,1.985,21.541,4.59,31.384
					c2.626,9.837,6.112,19.038,10.462,27.604c4.323,8.574,9.295,16.493,14.914,23.756c5.64,7.243,11.715,13.813,18.223,19.708
					c6.483,5.912,13.188,11.129,20.113,15.658C190.153,273.784,197.103,277.585,204.062,280.677z"/>
			</g>
			
				<linearGradient id="SVGID_4_" gradientUnits="userSpaceOnUse" x1="104.0908" y1="708.6055" x2="361.6086" y2="708.6055" gradientTransform="matrix(-0.9988 -0.049 0.0256 -0.9999 467.7981 972.1169)">
				<stop  offset="0" style="stop-color:#FFFFFF"/>
				<stop  offset="1" style="stop-color:#FFFFFF;stop-opacity:0"/>
			</linearGradient>
			<path fill-rule="evenodd" clip-rule="evenodd" fill="url(#SVGID_4_)" d="M197.176,250.037c2.138,1.318,4.23,2.466,6.277,3.443
				c2.042,0.977,4.065,1.854,6.075,2.631c2.01,0.779,3.99,1.455,5.939,2.025c1.958,0.58,3.915,1.119,5.871,1.621
				c1.93,0.49,3.842,0.941,5.737,1.348l5.803,1.283l5.806,1.418c1.933,0.498,3.89,1.082,5.872,1.754
				c1.99,0.684,3.994,1.447,6.007,2.295l-5.332,21.664l61.48-15.59l0.069,0.135l-77.007,36.512l-0.133-0.066l3.846-28.008
				c-12.888-2.416-24.857-6.176-35.907-11.273c-11.06-5.098-21.159-11.6-30.303-19.503c-9.139-7.95-17.282-17.354-24.432-28.212
				c-7.13-10.843-13.226-23.192-18.29-37.051l0.066-0.135l19.979,0.877c3.02,5.191,5.946,10.027,8.774,14.51
				c2.856,4.465,5.624,8.559,8.301,12.283c2.666,3.724,5.276,7.164,7.829,10.327c2.549,3.161,5.024,6.017,7.423,8.571
				c4.797,5.143,9.386,9.372,13.769,12.689C192.888,247.23,195.047,248.712,197.176,250.037z"/>
		</g>
	</g>
</g>
</svg>
